84 87
79 87
87 87
86 87
86 87
87 87
78 87
87 87
86 87
84 87
87 87
9 87
87 87
87 87
85 87
86 87
87 87
87 87
85 87
12 87
84 87
72 87
87 87
20 87
85 87
86 87
7 87
87 87
15 87
87 87
87 87
87 87
87 87
84 87
83 87
1 87
87 87
0 87
84 87
86 87
86 87
87 87
84 87
86 87
85 87
87 87
87 87
87 87
86 87
84 87
87 87
87 87
87 87
4 87
31 87
84 87
85 87
84 87
87 87
87 87
87 87
87 87
86 87
0 87
86 87
87 87
86 87
84 87
85 87
87 87
86 87
87 87
22 87
87 87
87 87
87 87
84 87
87 87
85 87
87 87
87 87
87 87
17 87
86 87
87 87
86 87
19 87
87 87
84 87
86 87
86 87
19 87
87 87
87 87
21 87
81 87
87 87
87 87
87 87
87 87
87 87
83 87
22 87
86 87
84 87
83 87
87 87
83 87
84 87
86 87
87 87
85 87
87 87
82 87
87 87
84 87
83 87
86 87
80 87
73 87
87 87
87 87
20 87
12 87
87 87
87 87
87 87
87 87
24 87
87 87
87 87
86 87
87 87
87 87
87 87
87 87
79 87
87 87
87 87
81 87
75 87
86 87
86 87
86 87
87 87
13 87
83 87
85 87
17 87
0 87
87 87
87 87
24 87
87 87
86 87
87 87
87 87
85 87
79 87
84 87
87 87
84 87
85 87
77 87
87 87
85 87
43 87
87 87
87 87
9 87
86 87
84 87
87 87
87 87
86 87
86 87
87 87
10 87
22 87
87 87
81 87
87 87
87 87
87 87
86 87
87 87
86 87
86 87
81 87
87 87
87 87
87 87
87 87
78 87
85 87
81 87
87 87
86 87
87 87
87 87
87 87
87 87
86 87
86 87
86 87
83 87
87 87
85 87
18 87
83 87
86 87
86 87
82 87
87 87
87 87
87 87
87 87
58 87
85 87
83 87
87 87
87 87
83 87
87 87
87 87
85 87
87 87
15 87
87 87
86 87
87 87
87 87
87 87
87 87
79 87
87 87
87 87
87 87
83 87
10 87
87 87
87 87
87 87
87 87
85 87
87 87
22 87
84 87
87 87
82 87
87 87
86 87
87 87
13 87
87 87
87 87
87 87
87 87
84 87
86 87
83 87
87 87
82 87
87 87
86 87
87 87
87 87
80 87
86 87
3 87
87 87
87 87
82 87
87 87
86 87
81 87
87 87
85 87
84 87
87 87
84 87
85 87
87 87
87 87
87 87
86 87
84 87
83 87
87 87
87 87
84 87
87 87
3 87
0 87
87 87
87 87
84 87
87 87
80 87
86 87
87 87
