EDC	24913
CBA	24876
DCB	23752
EEE	21444
CCC	20956
AAA	20663
BAH	20161
FED	19980
HHH	18905
ABC	18340
CDE	17822
BCD	17681
CBC	16702
HFE	16498
HAB	16022
DDD	14912
DEF	13210
AHF	12965
BBB	12166
DCD	11863
EDE	11820
AHA	11693
BAB	11326
EFH	10561
BCB	10490
HAH	9870
CDC	9823
ABA	9633
DED	9225
FEF	9088
EFE	8776
AHG	8396
FFF	8318
BCA	7781
DEC	7330
BAA	7317
FHA	7299
HGE	7051
GHA	6966
HGH	6939
EGH	6834
CCB	6562
ABH	6314
CDB	6298
EFD	6062
HFH	6050
DBC	5844
BCE	5828
AAB	5780
AAH	5609
ECD	5434
ECE	5417
FHF	5388
CEA	5360
HEC	5360
ACB	5218
BCC	5195
CEH	5121
EED	5097
CED	5088
ACE	5078
EHC	5008
CAB	4989
DDC	4944
DCC	4912
ECA	4874
AHH	4873
HBD	4843
EAA	4765
DFE	4675
DBH	4666
ECB	4664
EAC	4531
CEC	4436
CBB	4432
BDH	4367
HCC	4311
BDC	4301
HEH	4284
BHA	4271
HCE	4257
EDD	4243
DCE	4242
BBA	4242
EEC	4228
FDE	4197
HHC	4173
HBA	4160
HBC	4159
HCB	4154
FHE	4141
DEE	4119
EEA	4114
HCH	4050
FFE	4045
AEA	4025
CDD	3920
FEE	3914
DHB	3906
BAC	3899
EHE	3874
CCD	3859
CBD	3854
BHE	3803
DCA	3773
HAA	3761
CBH	3760
BHB	3752
ABD	3740
DHH	3720
DEG	3717
HHF	3715
CAC	3692
HHA	3680
ACA	3662
BEE	3653
GHG	3644
DBA	3637
HBH	3628
GED	3619
BBC	3581
EEG	3580
EAE	3570
EAH	3560
BCH	3548
GEE	3544
DEH	3538
CHC	3530
ACD	3527
ABB	3499
CAH	3481
BHC	3468
EAB	3467
HEE	3448
HAC	3439
HHE	3423
HED	3418
CAA	3410
EHA	3383
EHB	3363
AAD	3360
ADC	3333
DBD	3303
HEF	3294
ECH	3283
AHB	3276
GEG	3276
HAF	3265
HBE	3264
CDH	3261
CHE	3236
CEE	3223
CAD	3212
ABE	3204
EGE	3202
AHE	3187
GGG	3183
EBE	3163
DDE	3160
ECC	3139
HCD	3084
AFD	3075
EDB	3072
FEH	3017
AAE	3016
EHF	3009
CHA	2987
BDB	2985
HEA	2961
ADA	2941
FEC	2932
ADD	2924
HDH	2918
FDB	2897
CHH	2896
BHH	2890
DHD	2885
FHH	2881
CFE	2875
CAE	2861
AFE	2844
DEA	2840
CCE	2817
BAE	2805
EBC	2790
AAC	2789
CEF	2787
CDF	2787
ADE	2785
EEB	2775
GHE	2769
HFF	2767
EEH	2754
CCA	2736
AEE	2713
AEC	2661
EDF	2654
DDH	2629
EFA	2614
HHB	2603
EFF	2595
BEA	2560
BDE	2557
BED	2510
DCH	2471
DDB	2465
BDF	2462
FDC	2455
DHA	2454
BEH	2442
CDA	2396
DHC	2377
EEF	2367
CCH	2359
BBH	2354
HAE	2323
EBA	2305
AFH	2304
EGA	2303
DAD	2301
AGH	2282
BBE	2275
FAH	2266
HAD	2261
GHH	2259
FDF	2258
AED	2254
BHD	2252
FAD	2235
BAD	2234
CBE	2233
HDB	2227
HDE	2218
DHE	2214
DFD	2212
HFD	2207
FDH	2204
DAB	2200
HAG	2167
BEB	2157
HHG	2155
HDC	2147
GHB	2145
AHC	2140
CAF	2128
EAD	2113
ADB	2107
DBB	2098
HCA	2093
EDH	2090
DHF	2080
ADH	2073
EHH	2073
AAF	2052
BEC	2040
ECF	1992
AFA	1985
ADF	1976
AGA	1950
FHC	1950
DFA	1942
ACF	1938
DBE	1914
AHD	1910
DFH	1896
DAA	1891
CHB	1856
CCF	1852
HHD	1835
EDA	1831
HEB	1827
CFA	1805
FHB	1787
BCF	1770
FAF	1756
FAC	1755
HFA	1753
ACC	1750
BDD	1750
FFD	1738
GAH	1737
CHF	1726
DFB	1723
CEB	1719
EBH	1715
AGE	1666
FEA	1665
FDD	1665
CAG	1659
FFH	1649
FBD	1638
DAC	1633
DEB	1633
EBB	1626
BHF	1626
CFF	1622
BAF	1620
EHG	1616
DAH	1600
HBB	1595
HDD	1586
AAG	1574
HCF	1559
HGA	1547
HEG	1542
AEF	1538
EFC	1536
FAB	1533
EAF	1490
FDA	1484
CFH	1457
BBD	1451
CFD	1437
BFE	1433
AEB	1431
AEH	1430
BEG	1381
DDA	1377
CFC	1358
BDA	1354
GAA	1350
AGD	1343
GAD	1341
DDF	1332
DCF	1325
BHG	1314
FCD	1300
GHD	1299
DGA	1296
AFF	1271
DGH	1266
GEH	1263
EBD	1256
EGB	1255
CEG	1250
GDH	1243
EFB	1226
ACH	1225
AEG	1218
DAF	1216
EHD	1215
GAC	1201
HGG	1197
AFC	1173
EGD	1170
BAG	1169
CHD	1165
GEB	1153
DFF	1152
FCB	1146
FAA	1129
GGE	1116
DHG	1116
FEB	1107
FCF	1104
HFC	1101
GAB	1084
FBA	1080
GAG	1078
GGH	1060
FCA	1056
FBC	1053
BEF	1043
ADG	1041
TCB	1034
FCC	1030
CBF	1011
MMM	1008
EDK	988
EAG	981
DAE	981
EGG	978
HGD	978
BGH	975
HDF	959
FFA	956
EDS	953
GAE	951
GHC	939
AFB	932
GBA	928
CFB	924
SBA	917
GBE	916
FCE	910
QAA	903
KKK	900
DFC	894
ABF	889
PPP	887
UDC	873
GEA	872
BCG	871
CBS	870
FBH	869
CKC	863
CDG	858
FHD	852
HDA	843
BFD	841
AIA	836
AAQ	832
FBF	832
AGB	828
ABS	824
GEC	824
CGH	822
EEU	819
III	817
MEE	814
IJK	814
DBF	810
CCS	808
FFC	807
KBA	806
HPH	801
UEE	797
ACG	795
QQQ	790
SCC	789
CBI	786
CGA	781
EME	780
FBE	777
FFB	775
DAG	774
CSC	774
CBK	772
HFB	772
EEM	768
BAP	768
VED	766
CBQ	766
MDC	753
AQA	752
IAA	746
FAE	741
BCL	734
MLK	732
SRQ	729
BFH	729
FBB	727
LKJ	727
LCB	726
AAI	724
GBB	723
ECG	718
CHG	717
BAX	713
VUT	711
AGG	710
DCJ	710
SSS	708
ABK	707
KJI	706
GCB	702
XHH	700
BGB	699
UTS	695
GDG	693
CDU	692
BFB	688
HHX	687
GDE	685
GBH	684
PHH	683
BCT	680
GDD	672
FCH	669
CGE	669
DGD	664
EBG	657
CDM	657
EUE	656
HGB	651
HBF	642
BGE	639
AHQ	638
XFE	638
GBC	635
SBC	632
GDB	628
KCC	627
STU	603
PFE	599
UUU	595
ABG	588
SCB	580
KLM	577
GDC	576
CTC	576
DDG	575
BAQ	575
HHP	573
BSB	564
NED	563
DCT	560
CBG	558
KCK	557
BFA	554
JKL	551
EGC	546
FEL	544
HXH	543
XXX	543
EFP	540
EDG	537
DEN	536
MLM	531
LLL	531
CGC	528
RAH	528
HFM	522
QBC	516
KDE	516
HAJ	515
DEV	514
XAH	514
CCK	511
GGA	510
QRS	510
EDU	507
TDD	504
EQA	504
LMK	500
EVE	499
QBA	492
DCL	492
BAR	489
QHF	488
FEV	486
BDG	486
SDC	484
HGC	484
DGE	483
CGB	480
BGA	480
NML	479
HAR	479
HSC	478
RQX	478
DDT	475
GDA	474
GBG	474
HKC	473
HHS	473
PIJ	471
TUV	468
AGC	465
SCD	465
BBG	465
QAH	463
JIJ	461
XVU	460
LDD	459
DCR	459
QAB	456
BFC	453
HBG	453
HDG	450
BAI	446
XAB	446
VML	444
JCD	441
DLD	441
HCG	441
DDL	438
QCB	436
BBF	436
GGD	435
EHS	432
JIP	429
PNM	429
AHI	428
DTD	427
SDE	426
CCG	426
BAJ	426
BSC	426
BFF	423
SED	422
HGX	420
QHG	419
IAB	419
BJB	417
IBC	416
KCB	415
DGB	414
EFX	411
EDM	411
DCS	409
BBJ	405
XQR	404
JJJ	402
HFU	400
ARA	399
GCE	399
LMN	399
GCD	398
EEQ	398
UFE	397
IJP	396
DUD	395
DXH	394
DCG	393
HGP	392
AHN	390
BAU	388
TSR	387
UED	385
PHA	384
GGB	381
UVM	381
KBC	380
AQH	379
QHA	379
CLC	377
RCB	377
ABU	375
FET	375
TCD	374
AJA	372
RBB	371
CDX	370
JAH	369
UDE	369
XHA	368
JBB	366
GCA	366
PPK	366
XCB	366
TED	365
KKC	365
CGG	363
IHF	361
JCB	360
GCG	360
EBF	357
CGD	357
HQH	356
RAB	355
UAA	353
MMI	352
SJI	352
HQA	352
APH	350
PHP	349
TEF	348
GBD	345
DPH	345
BCS	344
RCD	342
IPN	341
BQA	340
BBR	340
TDC	339
HSB	339
IIL	338
BSD	337
ABQ	336
EIA	336
BRB	336
HHK	336
AHX	335
DUE	335
MED	334
XXS	334
MAA	333
PAB	333
KKJ	333
BHK	332
LDC	331
HIH	331
PAH	329
BKB	329
ICB	329
IIA	329
UAH	329
EQH	328
LBC	327
UCB	327
FEN	325
EEI	324
TFE	323
EDT	323
XBC	323
GCH	321
KCD	321
XSS	321
EGP	320
LKL	320
AQB	319
UUQ	319
BUE	318
DSC	316
PKK	315
LED	315
UQQ	315
BSE	313
CEQ	312
JKT	311
KIL	311
MNL	310
HQB	310
LMM	309
QDC	307
HEI	307
UHA	307
MIL	306
DCK	306
CBX	305
SAB	301
FHI	301
DTC	301
RQQ	301
HKH	300
GHI	299
DSD	299
XHF	299
LDE	298
KDC	297
DBS	297
DUC	297
CAT	297
CTE	297
BHS	297
KJK	296
FEU	295
ECQ	294
RBA	294
SST	293
DDX	292
HSH	292
FEG	291
EGX	291
BCK	291
HGM	291
ATC	289
PHF	289
XBA	289
VDE	288
QEE	288
KLK	288
BGG	288
ILL	288
PCB	287
DCX	286
CKK	285
MME	284
TSS	283
PPH	283
BSA	283
AHV	282
HBS	282
UCD	282
HSA	281
QAC	280
JKI	279
AHP	279
LPP	279
IHG	279
XGE	279
TCC	278
QED	278
TBC	277
BKD	277
AUE	276
VFF	276
FHS	276
KED	276
XCD	276
MEM	274
AQE	273
MII	273
SEC	273
ENE	273
DGC	273
BHQ	272
EAQ	271
ABI	270
GEU	270
KJJ	270
BUA	270
HES	270
EDX	269
RAA	269
QQT	268
GHQ	267
DEQ	267
AXH	266
SCE	266
QQA	266
CDT	266
UEC	266
SSC	265
EHK	265
DKB	265
NNN	264
IAH	264
IIM	264
UEG	264
ELC	262
LLP	261
BIA	261
TTT	260
PBC	260
IPI	260
UAB	260
JBA	259
TXS	259
HAT	259
MKV	258
FFV	258
QXV	258
CDS	258
CBU	258
BAT	258
XEF	258
SHH	257
DUF	257
VFE	256
EUC	256
CVE	256
EUU	255
IJS	255
ILP	255
HAX	255
DGG	254
BSH	254
BQB	254
HEK	254
XCC	254
MOP	253
PIM	252
DKC	252
CSH	252
CLB	252
IJI	252
IIJ	252
CAQ	251
HGU	251
RSJ	251
CAJ	250
BKC	250
ARB	249
EUD	249
DBG	249
RST	249
POM	248
DCP	248
CJC	248
HFX	248
QQR	247
DBK	247
BCQ	247
IAI	247
AEQ	246
ABX	246
SEE	246
SHA	246
EDQ	246
CJA	246
CEI	246
CLD	246
CDP	246
FHQ	245
HAQ	245
CBR	244
BME	244
RRR	244
ARC	243
NFF	243
FVF	243
KIJ	243
CKB	243
IBA	243
HII	243
IHA	241
ATH	240
MNP	240
MCB	240
EQB	240
DKD	240
CAU	240
CAR	240
CTD	240
BCI	240
TKJ	239
CSD	239
SSR	238
VEF	238
DDP	238
DHX	238
JII	237
AXA	237
MDE	237
DUA	237
CQA	237
HIA	237
JAA	236
AAU	236
SBB	236
HEU	236
SQQ	235
QDE	235
HXE	235
JPS	234
AHS	234
GGC	234
QCA	234
ECI	234
EIH	234
KVU	234
DSB	234
BKE	234
IMM	234
FMD	233
EFU	233
CSE	233
XHE	233
REE	233
BHU	232
XST	232
AHO	231
MBA	231
ECV	231
DXC	231
BCU	231
BUD	231
IMI	231
IDE	231
UMM	231
ECT	230
CJB	230
CSB	230
ABM	229
CCX	229
HSE	229
UVU	229
SCA	228
HKE	228
XEE	228
BCR	227
ARH	226
TXX	226
SAH	226
NFE	226
FDM	226
LCD	226
DES	226
XDE	226
XXH	226
AXE	225
MAH	225
MML	225
VEE	225
QRQ	225
DET	225
CTB	225
IDC	225
RED	225
PPI	224
DDS	224
MKL	223
FDU	223
EIE	223
HPP	223
XHC	223
ATD	222
PMI	222
FNF	222
ETC	222
CTH	222
CVD	222
EQE	221
EHQ	221
UEA	221
JAB	220
TST	220
DPD	220
JPK	219
AQC	219
MNM	219
MKI	219
SCS	219
EDL	219
LFE	219
HEQ	219
UFH	219
UQT	219
XSX	219
XCE	219
FXF	218
TDE	217
EII	217
DSE	217
BRA	217
HAP	217
UEF	217
ALD	216
PHC	216
NLP	216
FFN	216
LEF	216
DMD	216
DLC	216
CDK	216
CBM	216
IIP	216
UBA	216
XED	216
QHH	215
EVD	215
PCC	214
AHK	213
MEG	213
MHA	213
SAA	213
BGD	213
UUE	213
EMM	211
BKA	211
HFS	211
UTC	211
UBC	211
ACT	210
AII	210
GHF	210
MFE	210
QQX	210
EMD	210
ECS	210
EUA	210
LMI	210
DXF	210
CPH	210
HKB	210
HXA	210
XAA	210
DDU	209
DBQ	209
DBX	209
XXQ	209
CEU	208
BQE	208
XDC	208
JEE	207
AME	207
AIH	207
GEM	207
SFE	207
SHC	207
QTS	207
QXX	207
EQD	207
EBU	207
KJQ	207
DEU	207
UUT	207
QST	206
EQC	206
HFV	206
AQQ	205
SCH	205
QAE	205
ESC	205
XFH	205
RHA	205
JMM	204
ARE	204
MJK	204
PDC	204
NMN	204
LLM	204
KKN	204
KCH	204
DMM	204
CRC	204
BQH	204
IJM	204
HVE	204
UCC	204
VHF	203
QFE	203
QEA	203
EDP	203
CAL	203
BIH	203
ULK	203
DCQ	202
HEV	202
ATB	201
FDP	201
LIJ	201
DEI	201
DXE	201
CHS	201
BDX	201
IPO	201
HXF	201
RBC	201
XGH	200
RSS	199
MEA	198
MLL	198
PBA	198
STT	198
KPI	198
KHA	198
CCT	198
BAM	198
BEQ	198
HQE	198
HBU	198
AJB	197
LPK	197
CSS	197
CCQ	197
CXC	197
AUA	196
DSH	196
UAC	196
UDD	196
AAL	195
PMM	195
PSR	195
PCE	195
QAD	195
KAB	195
CRB	195
BQC	195
BBM	195
BHX	195
XEC	195
XHB	195
AJC	194
KLI	194
DMA	194
CQH	194
IDD	194
XXV	194
ABR	193
XEH	193
JPI	192
AAX	192
AAR	192
ALC	192
ABP	192
TBA	192
GXH	192
PKL	192
CLE	192
CBJ	192
BDP	192
BDU	192
BBU	192
IJJ	192
HXC	192
UHE	192
TAA	191
EMH	191
DHS	191
GCC	190
MEF	190
SBH	190
QTT	190
ESD	190
CDL	190
AAT	189
THH	189
MFH	189
PGE	189
PKP	189
SHE	189
IAC	189
ICD	189
HAU	189
HHU	189
ATE	188
PII	188
QII	188
FDX	187
KHC	187
HKK	187
XAC	187
AXF	186
MAE	186
ELD	186
KPK	186
DEX	186
BGC	186
HHI	186
UCE	186
XHG	186
AHU	185
GXA	185
KLL	185
CAV	185
CXH	185
QTX	184
DEK	184
DXD	184
IEE	184
JDC	183
THA	183
MMQ	183
MIM	183
SDB	183
NDE	183
FPF	183
QGH	183
LKK	183
KNL	183
DMC	183
BDS	183
UHF	183
GPH	182
EUB	182
HHQ	182
UDB	182
DME	181
IAD	181
AQD	180
AHW	180
GPA	180
QIJ	180
QUU	180
ECL	180
KJP	180
BBS	180
IMN	180
HIB	180
HUE	180
RRQ	180
SAC	179
HQC	179
PHE	178
STS	178
FEM	178
JJM	177
JKJ	177
AAM	177
MIP	177
PJK	177
PDH	177
QAQ	177
EER	177
KKL	177
BBQ	177
BXE	177
HSD	177
HQD	177
HXX	177
UST	177
SXS	176
FVE	176
QHE	176
QHB	176
ECJ	176
DSA	176
UAE	176
AAP	175
MEC	175
QQU	175
KJS	175
KLU	175
APD	174
GUE	174
NHA	174
FPH	174
EAT	174
EVF	174
LPL	174
KCA	174
DKE	174
CQB	174
BCX	174
BUC	174
BUB	174
STX	173
QCC	173
EDI	173
LHH	173
DTE	173
XBD	173
ADX	172
SRS	172
FPP	172
FHK	172
DXA	172
BIC	172
IHH	172
JKK	171
AXC	171
MMN	171
PMK	171
PCD	171
SEF	171
EXE	171
CRE	171
BII	171
IAF	171
HNE	171
XNM	171
RUU	171
AEU	170
ALE	170
SSX	170
ETB	170
EDR	170
CAX	170
RDC	170
MMA	169
CDJ	169
JMI	168
JBC	168
AJH	168
AAJ	168
AGX	168
ACL	168
AHT	168
TCA	168
MCD	168
NMM	168
FEQ	168
FHG	168
FXH	168
QBB	168
EMA	168
KJC	168
BEU	168
BIB	168
IAE	168
IPP	168
UVX	168
UCA	168
XSB	168
ATA	167
QXW	167
EVA	167
EQQ	167
MAB	166
QXS	166
UUM	166
TTS	165
THB	165
MMD	165
NPI	165
QAG	165
ENH	165
DBU	165
CLH	165
CDR	165
CRA	165
BMD	165
IJC	165
IED	165
UGH	165
FUD	164
QCD	164
ETD	164
EUH	164
CAI	164
TSB	163
TSX	163
QQI	163
EVH	163
ILM	163
JKP	162
MJM	162
PGH	162
PNP	162
NMT	162
FME	162
QEC	162
EMC	162
ESB	162
EFV	162
ECX	162
ERE	162
DCU	162
CCP	162
BXA	162
UTT	162
REA	162
TUU	161
VDC	161
BMC	161
BBX	161
ILJ	161
ILK	161
XQQ	161
TXQ	160
VAH	160
VXQ	160
KCE	160
DUH	160
BKH	160
HKA	160
HBM	160
USQ	160
UBE	160
JED	159
GXG	159
MGH	159
MIA	159
PEC	159
SDD	159
VHA	159
NLM	159
NHF	159
QPO	159
EFM	159
DEM	159
DCV	159
DHK	159
BKI	159
BCV	159
BIE	159
HFP	159
HIC	159
HUD	159
UUS	159
XBH	159
JJK	158
TBD	158
EKC	158
CBP	158
BCJ	158
RQH	158
JBJ	157
TBH	157
HEM	157
AAS	156
THF	156
MKK	156
MIK	156
PAA	156
PPM	156
SXX	156
NPP	156
LLK	156
KEC	156
DHP	156
CCV	156
CIB	156
BMA	156
BKM	156
UEH	156
XBB	156
TTX	155
TUT	155
MLS	155
FES	155
FUA	155
DFU	155
DQA	155
DXB	155
CCR	155
UQA	155
JIX	154
APB	154
GFE	154
PHG	154
PHB	154
SXQ	154
VDB	154
HAL	154
HSS	154
JJI	153
GXB	153
FUT	153
EET	153
LCJ	153
DKJ	153
DRA	153
CTS	153
CCJ	153
BCM	153
ICE	153
IBB	153
HAI	153
HPC	153
UAD	153
UEB	153
RUQ	153
APP	152
TAH	152
GHP	152
MLC	152
SQT	152
QAF	152
DTB	152
CIA	152
XDB	152
AXB	151
SRR	151
ACV	150
PCH	150
PHK	150
SHB	150
NEF	150
QEF	150
ETH	150
KAH	150
KPP	150
KNM	150
KII	150
DPC	150
HBK	150
XSR	150
RSR	150
RCE	150
PKM	149
FUC	149
LJM	149
LML	149
UTX	149
SFH	148
FUE	148
DAQ	148
JKN	147
JIH	147
AJJ	147
AIE	147
TCE	147
MMP	147
MMK	147
MPI	147
MIJ	147
PKI	147
PIP	147
SEH	147
NNM	147
FML	147
ETE	147
EBS	147
EHI	147
LJP	147
LKI	147
KLJ	147
DMI	147
DSS	147
DKA	147
DDM	147
DCM	147
DBP	147
BEI	147
BCP	147
ICA	147
HIF	147
UBB	147
SHF	146
QUQ	146
EES	146
EUG	146
CJK	146
BAS	146
BQQ	146
BXH	146
IAP	146
AJE	145
VUU	145
FAT	145
LLD	145
BRC	145
UGE	145
XWU	145
AGP	144
ADT	144
AID	144
MDK	144
PED	144
PLM	144
SVS	144
QBE	144
EFN	144
KNP	144
CES	144
CEV	144
CLL	144
BJA	144
HAV	144
OPI	144
APA	143
TDB	143
FHX	143
QDA	143
EIC	143
KHE	143
DAT	143
HCK	143
JEH	142
IEA	142
RQT	142
JML	141
AVD	141
TAB	141
GPB	141
MQH	141
SSV	141
QDB	141
QBH	141
EKD	141
EID	141
EXA	141
LLJ	141
KMK	141
KFE	141
KLP	141
DRC	141
CJE	141
CAP	141
CCU	141
CUC	141
BQD	141
IKL	141
ACQ	140
QCE	140
KEF	140
DPF	140
DKH	140
BXB	140
XQX	140
VVU	139
HUC	139
UCH	139
JMJ	138
AFT	138
AFU	138
MBC	138
PFH	138
PDE	138
PIR	138
SBD	138
QTU	138
QXA	138
EEX	138
ECU	138
DPB	138
CET	138
CEM	138
CBL	138
BSR	138
ILI	138
IHB	138
UEU	138
XCH	138
AIC	137
TTU	137
GGF	137
PEF	137
VUD	137
FHM	137
QRR	137
KTK	137
JLK	136
AVF	136
GFF	136
PKC	136
KAA	136
JHH	135
ALB	135
AIB	135
TFD	135
GER	135
MMU	135
PPS	135
PPC	135
SKJ	135
EAI	135
EGU	135
END	135
KFH	135
KKP	135
DPE	135
DFX	135
DDQ	135
DIA	135
CND	135
BAL	135
BHM	135
BUH	135
IKM	135
HKD	135
HCT	135
HCX	135
HIJ	135
HUA	135
XDD	135
RQU	135
RCC	135
APF	134
FFG	134
ECK	134
SSQ	133
SSH	133
LCC	133
CQD	133
BSF	133
HBQ	133
JJE	132
JJB	132
JPM	132
JEB	132
ATF	132
AEI	132
ALA	132
PLP	132
SEA	132
SDH	132
FNE	132
QDD	132
EPE	132
ESE	132
EEV	132
EIB	132
LAA	132
LMJ	132
LEE	132
LHB	132
LUQ	132
DEP	132
CVF	132
CDQ	132
CCN	132
BPH	132
BBK	132
BIJ	132
BID	132
BHI	132
BXC	132
HCS	132
UUA	132
RHH	132
TBB	131
QXH	131
CJI	131
CTA	131
BKL	131
HGF	131
VCB	130
QQH	130
EUF	130
LII	130
KJL	130
IRQ	130
JAP	129
JKM	129
APE	129
AVE	129
ALH	129
AUC	129
MDD	129
MOX	129
PEH	129
PKJ	129
PKN	129
FXE	129
EAU	129
EGR	129
LMV	129
LBA	129
KCN	129
DMK	129
DVE	129
CJD	129
CLA	129
CUE	129
BKP	129
HAS	129
HDX	129
UMO	129
XSV	129
VDD	128
EFS	128
KCJ	128
DUQ	128
XVV	128
XHX	128
ABJ	127
DKK	127
BKK	127
UTU	127
XQT	127
XQU	127
RHE	127
JEC	126
ACR	126
ABT	126
GDX	126
GXC	126
MUM	126
MUD	126
PPN	126
VEC	126
FGH	126
QQE	126
EFG	126
EFR	126
EBM	126
LFD	126
LCE	126
KMQ	126
DJC	126
DTH	126
DMQ	126
DCN	126
CVU	126
CBT	126
CXA	126
BHP	126
IID	126
IHE	126
HSF	126
HID	126
OMO	126
OPM	126
JSR	125
JCA	125
JCC	125
JBI	125
FGG	125
FXC	125
CKJ	125
BDN	125
UXQ	125
QIQ	124
CSA	124
BJJ	124
BSS	124
UQU	124
XFF	124
XWX	124
JBH	123
MPK	123
PHD	123
VXX	123
FMH	123
FFU	123
FDS	123
QFH	123
LAH	123
LMO	123
LEC	123
KLC	123
DJE	123
CAM	123
CPF	123
CNH	123
CQC	123
CHP	123
CHQ	123
CHI	123
CHX	123
CXF	123
CXE	123
BEM	123
IIK	123
HET	123
HBX	123
OPK	123
XSC	123
XUU	123
RQI	123
RQR	123
REC	123
NAH	122
QUS	122
CCI	122
UTQ	122
AUU	121
TRS	121
FHU	121
KCF	121
KBB	121
KIK	121
DLL	121
HXB	121
AFM	120
AUB	120
MKM	120
MCA	120
SRC	120
FXA	120
QVX	120
QQS	120
QXQ	120
ELM	120
KAC	120
KEE	120
KHF	120
DXX	120
CTF	120
CNE	120
CEX	120
CHK	120
IFD	120
IEF	120
HQF	120
UTE	120
RCA	120
WEG	120
MVU	119
VXS	119
FUF	119
EXC	119
DTF	119
CAK	119
IPM	119
INL	119
UQS	119
RIP	119
EVU	118
ELE	118
LDL	118
DCI	118
RAC	118
AGU	117
API	117
ASC	117
ASB	117
AFX	117
AKB	117
ADK	117
ADU	117
AXD	117
TQQ	117
GDP	117
MMJ	117
MNX	117
MCC	117
PIL	117
PHN	117
SAD	117
STQ	117
SFF	117
SRA	117
NMD	117
FAG	117
FXD	117
EQX	117
EBQ	117
EWE	117
LPM	117
LKM	117
LHA	117
KPM	117
KLE	117
KKB	117
CAN	117
CTX	117
CCL	117
CXB	117
BAK	117
BQX	117
BIP	117
IPF	117
IFE	117
HQG	117
HDS	117
OGG	117
UHC	117
XFD	117
MNK	116
LMA	116
AUH	115
SVX	115
SQX	115
SDA	115
BBI	115
UQX	115
UBH	115
JMU	114
JBE	114
AUD	114
GOG	114
PEE	114
PDB	114
VAB	114
FAL	114
EAL	114
ECR	114
EBK	114
EXH	114
LKB	114
KHH	114
DTA	114
DDK	114
DBI	114
CME	114
CPP	114
CPC	114
CSF	114
CKH	114
BUU	114
IDA	114
HPF	114
HFK	114
UMU	114
XEA	114
WHA	114
MDH	113
SSB	113
QUV	113
IQA	113
TSD	112
TXU	112
TRQ	112
FSC	112
EEK	112
CKA	112
BCN	112
HDM	112
RQP	112
JSJ	111
JKD	111
APC	111
ASA	111
AEV	111
ARS	111
TDH	111
TUQ	111
GEF	111
GEL	111
MTS	111
MPP	111
NAB	111
NLL	111
FMC	111
FVD	111
QQC	111
QEG	111
EAP	111
EAR	111
ETF	111
EMB	111
ESA	111
EVB	111
EDJ	111
ERC	111
LJK	111
KFF	111
KDD	111
DAJ	111
DSF	111
DEL	111
DUU	111
CLM	111
CIC	111
BKF	111
IIH	111
HPE	111
HKF	111
OPQ	111
OHA	111
UQI	111
XAF	111
RQA	111
WEE	111
JIL	110
PFM	110
SUQ	110
EMF	110
LCA	110
UCT	110
UHH	110
XTX	110
GME	109
FEX	109
DQQ	109
UFF	109
JKB	108
JHA	108
ACU	108
GGO	108
GEQ	108
GHX	108
GXE	108
MEH	108
PJP	108
PSB	108
PNU	108
PIN	108
SUU	108
VAA	108
FMN	108
EHJ	108
ERA	108
LDH	108
KMI	108
KNI	108
KDH	108
KIP	108
DAR	108
DPP	108
CMA	108
CVB	108
CKD	108
CRH	108
BTC	108
BDQ	108
IJL	108
IKJ	108
IDB	108
HGR	108
HME	108
HMD	108
HPA	108
HFT	108
HEL	108
HUH	108
UGA	108
UFD	108
UDF	108
XUV	108
RAE	108
REG	108
RBE	108
THS	107
GET	107
VBA	107
FEI	107
BAV	107
HQX	107
HBP	107
UKT	107
MHC	106
FAX	106
FFX	106
EAS	106
EFQ	106
DLE	106
DKI	106
DUT	106
CIE	106
CIH	106
HBI	106
HUB	106
UUV	106
JCE	105
AJM	105
AQF	105
AQX	105
TAC	105
TTD	105
GAQ	105
GUG	105
GRB	105
MQI	105
VCD	105
NKL	105
NCB	105
FPC	105
FFM	105
QQP	105
QBD	105
QHC	105
EPC	105
ENF	105
ECP	105
EHX	105
LAB	105
LPI	105
KIN	105
DJA	105
DMF	105
DQD	105
DDI	105
DUB	105
CTU	105
BDV	105
IQI	105
IKK	105
HPD	105
HSX	105
HNF	105
HLC	105
HXP	105
XPH	105
XKN	105
MUU	104
PMP	104
EKB	104
KMN	104
BJC	104
BLC	104
HMH	104
HXG	104
HXD	104
UEQ	104
RXQ	104
JIA	103
ALL	103
TEC	103
VSQ	103
ELK	103
BUQ	103
XVE	103
XEB	103
XXU	103
RAQ	103
RSX	103
AAK	102
ADP	102
AHL	102
AUM	102
TSU	102
MKN	102
PFD	102
SAF	102
SSU	102
SVU	102
SKK	102
SHG	102
SUX	102
VEB	102
NPK	102
FVH	102
FXB	102
EGJ	102
EQG	102
EHR	102
EUT	102
LMP	102
LPH	102
LNM	102
KAL	102
KDB	102
DGX	102
DQC	102
DER	102
DDJ	102
CEL	102
CBV	102
CXD	102
IIQ	102
HAM	102
HTH	102
HEX	102
HCR	102
HOE	102
UQR	102
UHB	102
XFA	102
XHD	102
RDE	102
JIK	101
TSV	101
MAD	101
SUT	101
SRU	101
NPM	101
FMM	101
FDJ	101
QQV	101
KEA	101
KLN	101
CQE	101
CQX	101
IQQ	101
UAF	101
UQH	101
RRS	101
AHM	100
MQA	100
SSA	100
SVV	100
SQR	100
HTC	100
RSQ	100
RXS	100
RRU	100
JIQ	99
AJD	99
AJI	99
AMD	99
ACJ	99
ARU	99
TPS	99
TSQ	99
TEH	99
GPE	99
GRE	99
MLJ	99
MHG	99
MHF	99
PPX	99
PDD	99
PIB	99
SCF	99
NFD	99
FEP	99
QTQ	99
QPN	99
ENA	99
ENC	99
EEO	99
ECM	99
LCH	99
KML	99
KKI	99
KBH	99
DJH	99
DBM	99
CVH	99
BPC	99
BHT	99
BHL	99
BUF	99
IOJ	99
HFN	99
HBL	99
UHG	99
REH	99
AXX	98
TEA	98
MAC	98
MQQ	98
VFH	98
QRA	98
EVC	98
HPG	98
AXG	97
TSC	97
TDF	97
STR	97
ESS	97
LNP	97
DKL	97
CEN	97
XRS	97
JQQ	96
JDE	96
JHC	96
ANB	96
AFP	96
AKC	96
AOH	96
TFF	96
THG	96
THC	96
GAF	96
GEW	96
MNE	96
MEB	96
MIQ	96
MOM	96
PKH	96
PID	96
SSD	96
SUS	96
SRK	96
SRX	96
VFA	96
FTC	96
FDQ	96
QEB	96
QLX	96
EJA	96
EPH	96
EEJ	96
ELL	96
EIF	96
LMQ	96
LPJ	96
KEH	96
KHI	96
DPA	96
DLH	96
DDR	96
DXS	96
DRH	96
CAS	96
CAO	96
CHU	96
CUA	96
CUD	96
CUH	96
CRD	96
CRU	96
BJE	96
BES	96
BLB	96
ITC	96
IQX	96
IKI	96
HNA	96
HNM	96
HND	96
HCL	96
HCI	96
OEE	96
XIJ	96
AUQ	95
TUS	95
VUQ	95
KTM	95
IMK	95
USU	95
UUB	95
WUU	95
SAE	94
SSK	94
FRC	94
QFD	94
EAM	94
EUM	94
HCQ	94
REF	94
JLM	93
ATX	93
AMH	93
APM	93
ASH	93
AHR	93
TXK	93
GEO	93
MGE	93
MKP	93
MCE	93
PQH	93
POX	93
SJJ	93
SAT	93
VFD	93
NLJ	93
FTD	93
FMA	93
FMF	93
FPE	93
FDR	93
FHP	93
QGE	93
QEH	93
EJJ	93
ENM	93
EFJ	93
ELA	93
ELF	93
ELB	93
EDN	93
EHU	93
LHD	93
KMM	93
KME	93
DPG	93
CPE	93
CFM	93
BJI	93
BMM	93
ILN	93
IBD	93
IBH	93
HJH	93
HVF	93
HQT	93
HDP	93
HHT	93
OLM	93
UML	93
XTT	93
RQE	93
WXX	93
MPM	92
PJS	92
QVT	92
CCM	92
CRS	92
BBT	92
HDU	92
UAG	92
USS	92
UUD	92
XSQ	92
AVH	91
TXA	91
QJK	91
QXB	91
ENN	91
HCM	91
OED	91
UTA	91
JME	90
AMA	90
ASD	90
AIJ	90
TBU	90
MMO	90
MBE	90
MBB	90
MHE	90
MHH	90
PAE	90
PPO	90
PBH	90
SDF	90
VBD	90
VXU	90
NMK	90
NEB	90
FTB	90
FLF	90
FDT	90
FUH	90
QXT	90
ESR	90
ECN	90
EBX	90
ERQ	90
ERB	90
LKC	90
LBD	90
KJM	90
KMP	90
KDF	90
KBD	90
DAI	90
DVD	90
DRB	90
CMD	90
CFP	90
CFV	90
CEP	90
CRQ	90
BMB	90
BEX	90
BKJ	90
BCO	90
BXQ	90
BXD	90
IMQ	90
IML	90
HJE	90
HMA	90
HER	90
HDT	90
HCP	90
HOP	90
XDH	90
XCA	90
RBD	90
RBU	90
AEM	89
TTR	89
TBS	89
TXV	89
PSS	89
VUL	89
FHV	89
KJB	89
IEC	89
UAT	89
USC	89
UIJ	89
UIT	89
XUD	89
ACS	88
PBD	88
VTX	88
NPN	88
QEQ	88
QCH	88
HTA	88
UXS	88
JJU	87
JPJ	87
AJK	87
AES	87
AEK	87
AXQ	87
ARD	87
TEE	87
TCS	87
GUB	87
MKJ	87
PJI	87
PML	87
POP	87
SGB	87
SEB	87
SKC	87
VEH	87
VHB	87
VUA	87
NNF	87
FPB	87
FQB	87
FDK	87
QAX	87
QAR	87
QRU	87
ENL	87
EFL	87
EKG	87
EDV	87
LJJ	87
LBH	87
KKS	87
KKD	87
DMH	87
DFM	87
DQB	87
DLA	87
CVA	87
CID	87
CHM	87
IJA	87
IMO	87
IDF	87
HTD	87
HEN	87
HLD	87
HCV	87
OML	87
OOP	87
UBD	87
XSH	87
XSU	87
RQB	87
RDH	87
RBH	87
WBE	87
JEA	86
JIB	86
APK	86
ADR	86
ABL	86
TMV	86
TQA	86
MUE	86
SDU	86
VTS	86
NEE	86
FXS	86
QSR	86
LJL	86
LKR	86
KJA	86
INN	86
UUW	86
XQV	86
RIJ	86
RRB	86
JKC	85
PHI	85
SBS	85
NLX	85
QTK	85
EHV	85
LLX	85
KCS	85
DJK	85
DHQ	85
CJP	85
CQQ	85
CII	85
IRI	85
HVU	85
UVT	85
UEM	85
RQS	85
RUT	85
JJP	84
JJC	84
JAE	84
JFE	84
JIM	84
JHE	84
APL	84
AEL	84
ALF	84
ADS	84
ACN	84
ARQ	84
TCH	84
THE	84
GJE	84
GAU	84
GEJ	84
GHU	84
MLU	84
MDF	84
PAC	84
PIO	84
PHS	84
SBF	84
NAF	84
NPQ	84
NIP	84
FPA	84
QAI	84
QDH	84
EMG	84
ESH	84
EEP	84
EXB	84
LDK	84
DPI	84
DQF	84
CJH	84
CEK	84
BPD	84
BST	84
BLH	84
IAL	84
IPH	84
IIT	84
IHC	84
HAK	84
HTE	84
HVD	84
OMM	84
UQB	84
XCF	84
TKL	83
TUA	83
MEL	83
NFM	83
EFI	83
CUQ	83
UUC	83
UXX	83
XSD	83
XXR	83
AFR	82
AQI	82
SHS	82
SXH	82
FGA	82
QHU	82
LHC	82
ICH	82
UQC	82
UDA	82
RHC	82
JAC	81
JMP	81
AJP	81
ATT	81
AET	81
AIL	81
TSA	81
THD	81
GAL	81
GRC	81
MJE	81
PSJ	81
PNE	81
PQP	81
PDP	81
PIK	81
SSE	81
VDF	81
VDH	81
VBC	81
VUM	81
NBC	81
FAP	81
FUB	81
QAT	81
QCF	81
QXE	81
QRK	81
EJE	81
EJB	81
ETA	81
EFT	81
EQI	81
EKA	81
EXF	81
ERH	81
LAD	81
LPN	81
LDB	81
LBK	81
LHF	81
KAD	81
KNN	81
DJD	81
DSK	81
DFP	81
DEJ	81
DHM	81
CJL	81
CAW	81
CMC	81
CSR	81
CER	81
CDV	81
CXS	81
BJH	81
BEK	81
INP	81
ICC	81
HJA	81
HAW	81
HGQ	81
HQQ	81
HKP	81
HIM	81
HHL	81
OJM	81
USB	81
XAE	81
REQ	81
RBQ	81
ADQ	80
MTX	80
SUC	80
VHH	80
NPS	80
FPS	80
FCS	80
EEL	80
CSK	80
BPB	80
BXX	80
IBK	80
XXP	80
RSU	80
AAV	79
MLD	79
MHK	79
EGM	79
EUQ	79
LUM	79
LXS	79
KSS	79
DJB	79
CSX	79
BXS	79
HST	79
RSD	79
JJL	78
JAI	78
JSP	78
JLJ	78
JCH	78
AMC	78
AFL	78
ADL	78
ACM	78
AIQ	78
TTQ	78
TFH	78
GGU	78
GGR	78
GXD	78
GRA	78
MQP	78
MDB	78
MCH	78
MIC	78
PMD	78
PBB	78
SJK	78
SAR	78
SFD	78
SQA	78
SLM	78
SCR	78
SBE	78
SRE	78
VUI	78
NMP	78
NMI	78
NEH	78
NCD	78
FSB	78
FDI	78
FCV	78
QQB	78
QUE	78
QXU	78
EMU	78
EOE	78
LEG	78
LIL	78
KMA	78
KLX	78
KKM	78
DAX	78
DMG	78
DMP	78
DQE	78
CPA	78
CVC	78
CNF	78
CKI	78
CUU	78
BSQ	78
BSU	78
BQF	78
BDM	78
IPJ	78
HAN	78
HGJ	78
HSV	78
HSU	78
HNK	78
HQP	78
HHM	78
HRA	78
HRC	78
UQE	78
XPO	78
XQA	78
XBE	78
RHQ	78
JLL	77
PSC	77
QTB	77
EAK	77
DXG	77
CPB	77
BPE	77
USR	77
XXB	77
RSE	77
SXU	76
LLI	76
CUB	76
BQR	76
BRH	76
HMM	76
HUT	76
UTD	76
UII	76
JSD	75
JSC	75
JEM	75
AMI	75
APG	75
AKA	75
GHM	75
GHW	75
GUU	75
MPJ	75
MFD	75
MHB	75
PPA	75
PCA	75
SHD	75
SUE	75
VCC	75
VUF	75
NNL	75
NXX	75
FPD	75
FEK	75
FDG	75
FDL	75
FCT	75
FHN	75
QBU	75
EAX	75
EMI	75
EKE	75
EOP	75
LJI	75
LXV	75
KTC	75
DAL	75
DSV	75
DBR	75
DIH	75
DHL	75
DRE	75
CNB	75
BPA	75
BSK	75
BQG	75
BQS	75
IBE	75
IIN	75
HMC	75
HVB	75
HNH	75
HQR	75
HEJ	75
HKJ	75
HHN	75
OPP	75
UME	75
UQV	75
UDH	75
UUX	75
XAD	75
XEG	75
XXT	75
XXC	75
RGE	75
RDD	75
WBA	75
TDT	74
GEI	74
PPE	74
SDM	74
SUV	74
VHE	74
QQD	74
EKL	74
EUS	74
KRQ	74
DML	74
DID	74
IEI	74
HIP	74
ULM	74
XAX	74
RFE	74
TQT	73
SQU	73
FSE	73
FVA	73
KAE	73
BVD	73
IIC	73
IUQ	73
HVC	73
UXU	73
JMK	72
AGI	72
ANF	72
ANE	72
AER	72
AWE	72
TAD	72
TEG	72
TDA	72
TUB	72
GPL	72
GPD	72
GBU	72
GHS	72
MNH	72
MEI	72
MDA	72
MBH	72
PPF	72
PQL	72
POO	72
PXH	72
SAQ	72
SFC	72
SCT	72
SXT	72
SRI	72
VMM	72
VUN	72
VUE	72
NME	72
NDP	72
FGD	72
FPK	72
FSD	72
FHT	72
QBQ	72
QHQ	72
EPA	72
EQF	72
EEN	72
EIL	72
LFH	72
LBB	72
LHE	72
KPJ	72
KHK	72
DNH	72
DFR	72
DLB	72
CJF	72
CFX	72
CQF	72
CLI	72
CKE	72
CDI	72
CXQ	72
CXX	72
BJM	72
BAN	72
BUG	72
IGH	72
ILD	72
HMB	72
HPB	72
HDK	72
HIE	72
HOH	72
HRE	72
OHH	72
UKL	72
UCF	72
UBQ	72
UUG	72
UUH	72
RQC	72
JMC	71
TXT	71
VDU	71
VRS	71
NLU	71
QTD	71
LNL	71
HKI	71
UWX	71
XVX	71
XKK	71
XUQ	71
RAD	71
ASE	70
TQR	70
PSE	70
NDC	70
QTR	70
QSS	70
IHK	70
HXS	70
JMQ	69
JEK	69
JLP	69
JCF	69
JHF	69
AQG	69
TVU	69
MAK	69
MAI	69
MMF	69
MCL	69
MIB	69
MOI	69
PJM	69
PSA	69
PFA	69
PXP	69
VVV	69
VEA	69
NJJ	69
NNE	69
NBA	69
NBH	69
FPI	69
FQA	69
FKC	69
QFA	69
QIA	69
QXR	69
EAV	69
ETS	69
ENB	69
EQT	69
EEW	69
EKH	69
EBI	69
EOH	69
EXD	69
LAL	69
LEA	69
LLC	69
KSJ	69
KVM	69
KLH	69
KDA	69
KBI	69
KIM	69
DTT	69
DMB	69
DST	69
DNE	69
DEO	69
DKP	69
DKF	69
DDV	69
CJJ	69
CMB	69
CNA	69
CFU	69
CKF	69
CRR	69
BDK	69
BDI	69
BRE	69
BRD	69
IEM	69
ILE	69
HGO	69
HGW	69
UTR	69
UGU	69
UUR	69
URS	69
XQB	69
XUE	69
XXA	69
RSA	69
REB	69
RDB	69
RCT	69
WVU	69
JKE	68
ASR	68
TQU	68
SCV	68
VEQ	68
NEC	68
QIH	68
QIU	68
QHX	68
QRE	68
EKK	68
LSR	68
LUI	68
CSU	68
BTB	68
BXF	68
INM	68
IIB	68
UDT	68
XRQ	68
ATS	67
TXR	67
PSD	67
SXV	67
NCC	67
FSH	67
FRH	67
QPI	67
QRX	67
BFS	67
IQP	67
XCV	67
XUS	67
RHB	67
JJA	66
JPP	66
JIR	66
JHI	66
JRA	66
AGR	66
AQS	66
AEX	66
AKD	66
AKH	66
AIK	66
AUF	66
AWH	66
TTA	66
TGH	66
TSE	66
TEQ	66
GBF	66
GXX	66
MJP	66
MMB	66
MIT	66
PPQ	66
PEG	66
STA	66
STC	66
SCK	66
VBB	66
VUC	66
NJK	66
NFN	66
NLK	66
NIL	66
NHB	66
FTE	66
FNN	66
FLE	66
FLD	66
QGA	66
QBS	66
QIP	66
QXF	66
EFK	66
ELH	66
EKM	66
EBR	66
EHM	66
EHP	66
EXS	66
LJS	66
LGH	66
LKD	66
LDP	66
LCK	66
KPC	66
KSC	66
KFA	66
DAU	66
DVF	66
DND	66
DIE	66
CTG	66
CFT	66
CFG	66
CFL	66
BTE	66
BQU	66
BHR	66
BUV	66
BRU	66
IPV	66
IFA	66
HNL	66
HFL	66
HBT	66
HBR	66
HIG	66
HHR	66
HOG	66
OJJ	66
OHG	66
UAQ	66
UTF	66
XTD	66
XPP	66
XLM	66
RQD	66
RHG	66
JLX	65
TCR	65
GPM	65
MJI	65
PSH	65
PKB	65
SGE	65
SCQ	65
SRB	65
VVX	65
NMV	65
QFF	65
LKN	65
BTD	65
ILU	65
HUS	65
HUU	65
UTP	65
XQS	65
RUA	65
PQI	64
STK	64
VSS	64
VLU	64
QVU	64
QIL	64
DTS	64
CFR	64
IIR	64
JSB	63
JEG	63
JEI	63
JBM	63
JIN	63
JHK	63
JHB	63
JRQ	63
AGM	63
AMM	63
APX	63
ANA	63
AQR	63
ADM	63
AIF	63
TVR	63
TES	63
TEB	63
TUC	63
TXH	63
GPG	63
GPP	63
GPK	63
GLH	63
GBR	63
GXF	63
MAL	63
MNJ	63
MNA	63
MLP	63
MCM	63
MUH	63
PCF	63
STV	63
STE	63
STD	63
SKL	63
VBE	63
VHC	63
VUV	63
NEL	63
NIJ	63
FAV	63
FMK	63
FVC	63
FKA	63
FBJ	63
QJS	63
QTA	63
QSQ	63
QEU	63
QDF	63
QBF	63
ETU	63
EGF	63
ESF	63
LLH	63
LDX	63
LIM	63
LHK	63
LUU	63
KHB	63
DGP	63
DSG	63
DKS	63
DHJ	63
DHU	63
CNC	63
CFN	63
CLF	63
CLK	63
CKS	63
CKL	63
CDN	63
BGR	63
BMI	63
BUT	63
IJE	63
IJX	63
IVE	63
IQB	63
IQH	63
IUK	63
HEP	63
HLP	63
HBJ	63
HUG	63
HRH	63
HWH	63
OME	63
UMI	63
UWU	63
XTS	63
XPI	63
XSF	63
XES	63
XXE	63
RTS	63
RGH	63
RSB	63
RBS	63
RHF	63
RUC	63
AVB	62
TUX	62
GUH	62
MIN	62
VVR	62
VBU	62
VRQ	62
QDX	62
EKI	62
LLE	62
CQT	62
BUS	62
UQM	62
XDA	62
XUT	62
XRU	62
ASS	61
AXU	61
PSK	61
PQX	61
SQL	61
VTU	61
VQQ	61
NIN	61
LTC	61
LLN	61
CNN	61
BPP	61
UTB	61
XSE	61
XSK	61
XVH	61
XUX	61
XXW	61
RFH	61
JAF	60
JMN	60
JPH	60
JFD	60
JFH	60
AGT	60
AFQ	60
AQT	60
ALK	60
ADJ	60
ABV	60
AIM	60
AIP	60
TGA	60
TSJ	60
TSK	60
TXC	60
GPC	60
GQA	60
GEX	60
GHL	60
GHO	60
GUC	60
MJC	60
MNN	60
MQG	60
MEU	60
MID	60
MOL	60
PJL	60
PEA	60
PIA	60
PIC	60
STH	60
SGH	60
SPP	60
SFA	60
SEG	60
SDR	60
VAD	60
VBH	60
NPA	60
NPH	60
NDF	60
FAI	60
FTF	60
FMI	60
FFT	60
FFP	60
FKB	60
FDV	60
FBX	60
FRA	60
QSU	60
QDU	60
QXK	60
QXD	60
EAJ	60
EHN	60
ERU	60
EWH	60
KPH	60
KNK	60
KKF	60
KIO	60
DIC	60
CLP	60
CLN	60
CBW	60
CRF	60
BMQ	60
BMK	60
BEJ	60
BIG	60
BRQ	60
IJB	60
ITB	60
IEH	60
HTF	60
HML	60
HFG	60
HIQ	60
HRD	60
OEG	60
XAQ	60
XEQ	60
XKC	60
XCX	60
XHQ	60
RCS	60
RBR	60
RUE	60
RUX	60
RXU	60
RXX	60
WGH	60
WED	60
WHG	60
JQX	59
JUC	59
AGQ	59
ARF	59
MVL	59
PKE	59
SRT	59
QTC	59
DSR	59
UVV	59
AQU	58
TRU	58
MQE	58
MQX	58
LDA	58
LUT	58
KRC	58
DHT	58
BKS	58
UBS	58
UHS	58
URR	58
XSA	58
XQI	58
RQV	58
RUS	58
JJQ	57
JJR	57
JMA	57
JUM	57
AJS	57
AVA	57
AQV	57
AEN	57
AKL	57
ACX	57
ACW	57
AUT	57
GAX	57
GAR	57
GGX	57
GMD	57
GDF	57
GBJ	57
GHT	57
MGA	57
MVM	57
MFA	57
MQD	57
MQC	57
MLA	57
MKC	57
MKX	57
MIE	57
MOJ	57
MUL	57
PJC	57
PGA	57
PME	57
PNN	57
PNL	57
PFC	57
PEI	57
PBK	57
STB	57
SPQ	57
SDS	57
VSB	57
VDA	57
VCE	57
VWX	57
NFH	57
NHI	57
FAS	57
FGB	57
FVB	57
FFQ	57
FFR	57
FLC	57
FKE	57
FBU	57
FIF	57
FXX	57
QMI	57
QQG	57
QQF	57
QLU	57
EGQ	57
ESU	57
EHT	57
LMD	57
LLB	57
KAF	57
KTS	57
KTX	57
KMU	57
KFD	57
KLF	57
KDM	57
DMJ	57
DNC	57
DIB	57
DHI	57
DUG	57
DXU	57
DRD	57
CTT	57
CGX	57
CMM	57
CPD	57
CKP	57
CIP	57
COB	57
BTH	57
BIL	57
BHV	57
BXG	57
BRF	57
BRR	57
IJU	57
IAJ	57
INJ	57
IEG	57
ILF	57
ILH	57
IDH	57
IIE	57
IHO	57
HPK	57
HVA	57
HVH	57
HQS	57
HEO	57
HDJ	57
HCN	57
HHJ	57
HWE	57
OJI	57
OPL	57
OBA	57
OHF	57
OOO	57
UMA	57
UNM	57
UCR	57
XVM	57
XQH	57
XDF	57
XXD	57
XWP	57
RKJ	57
WAH	57
WCB	57
JDB	56
MPO	56
MLE	56
NKJ	56
QTH	56
QHD	56
EUX	56
KBK	56
DNA	56
CUT	56
CRX	56
BTS	56
BQI	56
BBP	56
HSK	56
OXW	56
UBU	56
XXK	56
RJK	56
RSK	56
RRA	56
ASQ	55
AUS	55
AXS	55
TTV	55
SAJ	55
VTT	55
FCP	55
FBS	55
KEL	55
CMH	55
BRS	55
HQI	55
HRB	55
XVQ	55
XUA	55
JMO	54
JPQ	54
JST	54
JBD	54
AJF	54
AVC	54
AFS	54
AFK	54
ADV	54
ADI	54
TSH	54
TFB	54
TDU	54
TBE	54
GAP	54
GMM	54
GIH	54
GHR	54
MAN	54
MMT	54
MMW	54
MVH	54
MQL	54
MEP	54
MIH	54
PAG	54
PMH	54
PQQ	54
PEP	54
PKD	54
PBI	54
POJ	54
PXB	54
SQS	54
SDT	54
SCU	54
VFB	54
VUX	54
FJC	54
FEJ	54
FCN	54
FBG	54
FHR	54
FXV	54
FRE	54
QTV	54
QGP	54
QGX	54
QSB	54
QKD	54
QIE	54
QIB	54
QUI	54
QRI	54
EGI	54
ESG	54
EQR	54
ELP	54
EBJ	54
EIP	54
EOD	54
ERD	54
LME	54
LMC	54
LMU	54
LPA	54
LEH	54
LLA	54
LLT	54
LCF	54
LHJ	54
LHP	54
KSB	54
KEP	54
KKR	54
KBE	54
DAS	54
DAV	54
DVH	54
DFT	54
DFG	54
DFV	54
DFQ	54
DQT	54
DQH	54
DEW	54
DHR	54
DUS	54
CJM	54
CSP	54
CLT	54
CIJ	54
CIL	54
CHV	54
CWE	54
BMH	54
BSG	54
BDJ	54
BIM	54
ITE	54
IPL	54
IFB	54
IQE	54
ILC	54
IKN	54
IKB	54
ICL	54
HJC	54
HPX	54
HEW	54
HLE	54
HLH	54
HDL	54
HBV	54
HHV	54
HXQ	54
UJS	54
UTV	54
UMN	54
USA	54
UCV	54
UUF	54
XTE	54
XFB	54
XQC	54
XEV	54
XDX	54
RFD	54
RCH	54
RII	54
RHS	54
RRC	54
WRQ	54
JSK	53
TSF	53
GMA	53
MPQ	53
FSS	53
FII	53
QLM	53
QXI	53
LUL	53
LXX	53
KBJ	53
ITX	53
UVD	53
UDQ	53
RJI	53
AGF	52
AKE	52
PMS	52
VUR	52
FSF	52
QTE	52
QPQ	52
EQU	52
EXX	52
KLS	52
KCP	52
HFQ	52
HUF	52
UCS	52
UUI	52
UXA	52
XTU	52
WUT	52
JAD	51
JEF	51
JCL	51
AFV	51
ACP	51
AOB	51
TAG	51
TAF	51
TAE	51
TTE	51
TTC	51
TTB	51
TGE	51
TCF	51
TUE	51
TXE	51
GAI	51
GHJ	51
GUA	51
MJU	51
MPC	51
MNF	51
MQJ	51
MLI	51
MOO	51
PAD	51
PMJ	51
PPJ	51
PPB	51
PLL	51
PLK	51
PLU	51
PCK	51
PIE	51
PHX	51
POH	51
SJC	51
SAG	51
SAU	51
SFB	51
SES	51
SBU	51
SUF	51
SXP	51
SXC	51
VFC	51
NNJ	51
NNI	51
NLH	51
NDB	51
NHE	51
NHH	51
FJE	51
FAU	51
FTH	51
FNH	51
FFL	51
FQH	51
FLH	51
FCK	51
FRB	51
QVE	51
QRT	51
EMJ	51
EPF	51
EPK	51
EPB	51
EVR	51
ENP	51
EIJ	51
EIG	51
EIQ	51
ERG	51
ERS	51
EWX	51
LTD	51
LPS	51
LPC	51
LNJ	51
LKE	51
LHM	51
LUJ	51
LXE	51
KTE	51
KGE	51
KSR	51
KNJ	51
KLT	51
KDK	51
KCL	51
KIF	51
KHG	51
DAM	51
DPS	51
DBJ	51
DHN	51
DUK	51
DXQ	51
DRS	51
CST	51
CKM	51
CHN	51
BSV	51
BVB	51
BER	51
BLD	51
BIQ	51
BUM	51
BXV	51
ITK	51
IME	51
IEB	51
IDJ	51
IDP	51
HMI	51
HSQ	51
HLB	51
HIT	51
HHO	51
HWG	51
OAH	51
OMU	51
UTH	51
UGG	51
UMD	51
UCQ	51
UCL	51
UIP	51
UHQ	51
URU	51
XAG	51
XGB	51
XBS	51
XHS	51
RAG	51
RMM	51
RRE	51
WGE	51
JKX	50
JRI	50
TQS	50
TEU	50
MST	50
MCF	50
MUI	50
PQB	50
POL	50
SKD	50
VUS	50
NUD	50
QLL	50
QOP	50
QUD	50
ESQ	50
BQT	50
ITS	50
HSR	50
OXX	50
UVS	50
UXN	50
APS	49
TSL	49
PDF	49
SQV	49
SRH	49
FUQ	49
ECO	49
LUD	49
KBM	49
DIM	49
DUV	49
CFK	49
IXA	49
RTX	49
JQA	48
JQT	48
JKA	48
JIE	48
JHG	48
AJU	48
AMQ	48
AMB	48
APN	48
APO	48
AFJ	48
AFG	48
ALP	48
AHJ	48
AOD	48
ARG	48
ARI	48
ARR	48
TLM	48
TUD	48
TXD	48
TRX	48
GAT	48
GAM	48
GMB	48
GMH	48
GES	48
GDT	48
GWE	48
MAF	48
MPA	48
MPS	48
MKE	48
MUC	48
PFF	48
PQC	48
PLH	48
PBE	48
POI	48
SLK	48
SKS	48
SXE	48
VCA	48
VHD	48
NAA	48
NAP	48
NMC	48
NMB	48
NPC	48
NLE	48
NBL	48
FQF	48
FQQ	48
FUV	48
FRD	48
QAU	48
QSA	48
QNL	48
QFB	48
QKL	48
QIX	48
QUB	48
QXN	48
QXC	48
QRC	48
EJH	48
EMP	48
ENK	48
EIK	48
EUV	48
EUR	48
LNN	48
LKA	48
LXQ	48
LXH	48
KAJ	48
KGH	48
KMF	48
KPS	48
KLD	48
KKH	48
KDP	48
KBS	48
KIT	48
DTL	48
DPM	48
DPK	48
DBT	48
CMN	48
CNM	48
CLJ	48
CUM	48
BTU	48
BGU	48
BGX	48
BPM	48
BPQ	48
BLA	48
BKG	48
BDR	48
BIF	48
BHN	48
BWE	48
IJN	48
IAM	48
IPD	48
ILA	48
IHD	48
HAO	48
HGL	48
HMG	48
HMF	48
HSG	48
HNP	48
HFI	48
HLM	48
HLK	48
HKM	48
HKL	48
HCJ	48
HIL	48
HOA	48
HXV	48
HRS	48
OPA	48
OPO	48
OLP	48
OBB	48
OHE	48
OHD	48
UAU	48
UVA	48
UEV	48
UDS	48
UUL	48
URE	48
XPS	48
XBF	48
XBQ	48
XXF	48
XWV	48
RJJ	48
RSV	48
RDF	48
RIQ	48
WPI	48
WUE	48
WXQ	48
JUT	47
ATU	47
AVU	47
AUL	47
TBR	47
TUM	47
MQB	47
PST	47
POD	47
SKT	47
SIT	47
VUH	47
QME	47
QQJ	47
QIC	47
LSX	47
KIX	47
KRK	47
DTU	47
CPI	47
BQJ	47
IPG	47
IPQ	47
IXX	47
UTK	47
UVR	47
XFC	47
TLU	46
TKS	46
VAC	46
VTC	46
VQT	46
QSD	46
QSC	46
KKE	46
CSQ	46
ILT	46
IKD	46
HXU	46
UVQ	46
UIL	46
XRX	46
JGH	45
JPN	45
JNP	45
JDH	45
JUQ	45
AML	45
AST	45
ANH	45
AQM	45
AEO	45
AKJ	45
AKG	45
AIR	45
AUK	45
TFC	45
TLE	45
TLK	45
TLD	45
TDX	45
TCT	45
GJB	45
GAJ	45
GTD	45
GMJ	45
GPJ	45
GID	45
GWG	45
MTC	45
MGG	45
MFC	45
MEN	45
MLN	45
MHD	45
MRA	45
PJB	45
PMN	45
PSI	45
PNI	45
PKF	45
PIT	45
PXA	45
SVE	45
SQB	45
SEQ	45
SIX	45
SXF	45
VAF	45
VMN	45
VFU	45
VEG	45
NJP	45
NJI	45
NNP	45
NLC	45
NKC	45
NHM	45
FTA	45
FGE	45
FCG	45
FCL	45
FBM	45
FUU	45
QTL	45
QPF	45
QSX	45
QVQ	45
QQL	45
QCS	45
QBP	45
QBX	45
QBR	45
EAW	45
EGW	45
EMR	45
EVM	45
ENU	45
ELN	45
EUK	45
EXQ	45
EWU	45
LAE	45
LLF	45
LKT	45
LKP	45
KGI	45
KMD	45
KQB	45
KEG	45
KEN	45
KEB	45
KRA	45
DTX	45
DMN	45
DSU	45
DVC	45
DFS	45
DLP	45
DKM	45
DDN	45
DBN	45
DXV	45
CMQ	45
CPG	45
CVX	45
CFS	45
CEJ	45
CEW	45
CLQ	45
COL	45
CRG	45
BJQ	45
BAW	45
BTA	45
BSX	45
BNE	45
BFU	45
BQV	45
BLF	45
BDT	45
BCW	45
BRX	45
IAQ	45
ITP	45
IPA	45
IFH	45
ICI	45
IOM	45
IOP	45
IXI	45
IXH	45
HTB	45
HGS	45
HPM	45
HPI	45
HNC	45
HUQ	45
OGE	45
OHB	45
UGB	45
UMT	45
UMQ	45
UFA	45
UFT	45
UCG	45
UHU	45
UXB	45
UWR	45
XAT	45
XTH	45
XFM	45
XQE	45
XEU	45
XDS	45
XIH	45
XWH	45
REU	45
RCF	45
WBC	45
WUQ	45
WUR	45
JPC	44
JSI	44
JIT	44
TBK	44
TIJ	44
MVA	44
PGX	44
PSU	44
PUT	44
SJQ	44
NLR	44
NKN	44
QTI	44
QRB	44
KBQ	44
DJI	44
DXT	44
CVS	44
HTU	44
HSP	44
HQU	44
UVH	44
UCU	44
UIA	44
URQ	44
XHU	44
RSC	44
JUA	43
ACK	43
GMC	43
QSE	43
QVV	43
EST	43
EVV	43
EKJ	43
LSS	43
LUN	43
LUK	43
KIH	43
KXS	43
DSI	43
BKR	43
BBV	43
IPC	43
IXQ	43
HDQ	43
UTM	43
UIQ	43
XVT	43
XHP	43
JMB	42
JSM	42
JSX	42
JQR	42
JIU	42
JUI	42
JRB	42
AJQ	42
AAN	42
ATG	42
ATK	42
AGJ	42
AMG	42
APJ	42
AUG	42
ARM	42
TMM	42
TEN	42
TBX	42
TRB	42
GJA	42
GTH	42
GGT	42
GGW	42
GML	42
GFH	42
GHK	42
GOE	42
GRD	42
MMC	42
MMH	42
MSB	42
MBI	42
MIO	42
PMC	42
PMO	42
PPD	42
PQJ	42
PEM	42
PIH	42
POE	42
PUH	42
STL	42
SGA	42
SMM	42
SVQ	42
SVC	42
SVR	42
SER	42
SKB	42
SDG	42
SHQ	42
VTR	42
VMI	42
VEX	42
VXA	42
NJM	42
NJL	42
NMJ	42
NVU	42
NLI	42
NDM	42
NCE	42
NRA	42
FAQ	42
FTS	42
FST	42
FVU	42
FER	42
FKL	42
FBI	42
FHJ	42
QVR	42
QCR	42
QUA	42
QRD	42
ETX	42
ETR	42
EML	42
ENJ	42
EKP	42
EHW	42
EOJ	42
ERR	42
LTS	42
LPB	42
LFF	42
LKH	42
LDF	42
LOP	42
LXP	42
LXC	42
LRQ	42
KJE	42
KTB	42
KTI	42
KTU	42
KVE	42
KLA	42
KIA	42
KID	42
KOO	42
DFJ	42
DFN	42
DFI	42
DQU	42
DLT	42
DBL	42
DIJ	42
DII	42
DUI	42
DRQ	42
CJU	42
CTQ	42
CGU	42
CMF	42
CPJ	42
CVV	42
CQS	42
CLU	42
CIF	42
CHT	42
CHR	42
CUF	42
BPF	42
BPI	42
BVF	42
BVU	42
BND	42
BFX	42
BLK	42
BHJ	42
IAG	42
ITJ	42
IGE	42
IPK	42
IIO	42
IIU	42
IHI	42
HTX	42
HGI	42
HPL	42
HFJ	42
HIK	42
HHW	42
HUM	42
HWA	42
OBE	42
OIJ	42
OXA	42
UER	42
UDU	42
UCX	42
UHD	42
UOP	42
XAU	42
XTC	42
XVS	42
XQD	42
XKJ	42
XDU	42
XOP	42
XRC	42
RAU	42
RGA	42
RSF	42
RKB	42
RCQ	42
RIK	42
RID	42
RHD	42
RUV	42
RUF	42
WEH	42
WBB	42
WHH	42
WXV	42
WRU	42
JJS	41
JSL	41
JKQ	41
JUE	41
TAX	41
TCQ	41
TUI	41
TXB	41
MTE	41
PEN	41
PBM	41
PXS	41
SJR	41
SFS	41
SCX	41
SBX	41
SHX	41
SUD	41
SRD	41
NXS	41
FUX	41
QAJ	41
QBK	41
EVS	41
EQM	41
LPX	41
LNI	41
KTJ	41
KTT	41
KLQ	41
DKX	41
CBN	41
BSI	41
BXT	41
IRM	41
ODP	41
UJI	41
USE	41
UNP	41
UBX	41
XVB	41
XNU	41
XCS	41
XCQ	41
WWX	41
JSE	40
JQI	40
MDT	40
PSQ	40
SVT	40
SBI	40
NFC	40
LSB	40
KIR	40
DTQ	40
UEI	40
UXC	40
RAX	40
RTC	40
RRX	40
WXS	40
JAM	39
JMG	39
JSS	39
JSN	39
JQS	39
JKS	39
JKH	39
JUD	39
ATP	39
AGL	39
AMF	39
AND	39
AEW	39
ALG	39
ALM	39
AOE	39
AUV	39
AXM	39
AWG	39
AWD	39
TJK	39
TAQ	39
TPI	39
TLX	39
TBF	39
THQ	39
TRH	39
GJH	39
GTB	39
GPI	39
GQB	39
GRH	39
MAQ	39
MVE	39
MNI	39
MFP	39
MFF	39
MQK	39
MEQ	39
MKA	39
MKT	39
MCP	39
MCK	39
MUT	39
PJJ	39
PAF	39
PAI	39
PMF	39
PPL	39
PQE	39
PLX	39
SJM	39
SSF	39
SSW	39
SVD	39
SEX	39
SKP	39
SCJ	39
SWX	39
VNM	39
VDX	39
VCF	39
NBB	39
NHC	39
FJA	39
FJH	39
FMB	39
FSR	39
FNB	39
FFK	39
FKD	39
FKH	39
FCJ	39
FIH	39
FRQ	39
QGD	39
QBG	39
QHS	39
QHI	39
QUC	39
QWX	39
EJM	39
EJC	39
EAO	39
ETL	39
EGL	39
EGO	39
EMN	39
EMQ	39
EPG	39
EPM	39
EPP	39
EKF	39
EBT	39
EHL	39
EUJ	39
EWB	39
LJC	39
LAF	39
LAC	39
LMF	39
LMB	39
LPE	39
LNX	39
LLU	39
LCL	39
LIP	39
LHG	39
KJH	39
KPA	39
KPQ	39
KSK	39
KNF	39
KEK	39
KKA	39
KBP	39
KIW	39
KHD	39
DJM	39
DPJ	39
DPN	39
DVA	39
DVB	39
DNM	39
DNP	39
DFL	39
DQX	39
DLM	39
DHV	39
DXI	39
DRF	39
CGP	39
CMJ	39
CQG	39
CQU	39
CEO	39
CLG	39
BML	39
BPK	39
BSP	39
BVH	39
BET	39
BEP	39
BLE	39
BOB	39
BRI	39
IJH	39
IJR	39
ITD	39
IMJ	39
IMD	39
IFP	39
ILB	39
IKT	39
IBM	39
IBI	39
IHV	39
IOI	39
IUU	39
IRR	39
HJB	39
HSJ	39
HNN	39
HQJ	39
HDV	39
HCU	39
HIN	39
HIU	39
HRQ	39
HWD	39
HWB	39
OJU	39
OAG	39
OOJ	39
USW	39
UVF	39
UVE	39
UNA	39
UQL	39
UQW	39
UBG	39
UIK	39
URA	39
XGA	39
XGG	39
XGX	39
XVF	39
XFU	39
XKL	39
XIR	39
XOX	39
XXN	39
RME	39
RFF	39
RDA	39
RDU	39
RBK	39
RUD	39
RXC	39
WDE	39
WXW	39
JLU	38
ASU	38
TVX	38
TQB	38
TUW	38
PQT	38
SEU	38
VTQ	38
NUT	38
QPM	38
QQK	38
QET	38
QKB	38
QKI	38
QIR	38
QUX	38
QUR	38
LSQ	38
LSC	38
KJU	38
KNU	38
KIC	38
DMU	38
BMU	38
ITU	38
INI	38
IQR	38
ILX	38
IKE	38
HXT	38
UTL	38
USV	38
USH	38
UNE	38
XBU	38
XBR	38
XRB	38
XWT	38
JSQ	37
JEQ	37
MJA	37
MQF	37
MUA	37
PHO	37
PXX	37
SPI	37
SRJ	37
VLP	37
FGC	37
QLK	37
QIT	37
QID	37
LUE	37
LRX	37
KTP	37
KEI	37
KRS	37
CFJ	37
BJP	37
UJJ	37
XJS	37
JJH	36
JAG	36
JAL	36
JPA	36
JPE	36
JPU	36
JQH	36
JDD	36
JIC	36
JIO	36
JHM	36
JOP	36
JUF	36
AJR	36
AAO	36
AEP	36
ACI	36
ABN	36
AIV	36
AUX	36
AXI	36
AXW	36
AWC	36
AWB	36
TTK	36
TPK	36
TFA	36
TLL	36
TLC	36
TDQ	36
TCU	36
THX	36
TUF	36
TUH	36
TRE	36
GJC	36
GMO	36
GSE	36
GCX	36
GBM	36
GIC	36
GXS	36
GXQ	36
MAM	36
MTU	36
MSA	36
MNB	36
MEJ	36
MKQ	36
MDN	36
MDL	36
MCI	36
MBD	36
MOH	36
MOR	36
MUK	36
PAJ	36
PKS	36
PKV	36
PKX	36
PDL	36
PCM	36
PCP	36
POU	36
SME	36
SQC	36
SBT	36
SBQ	36
VST	36
VFV	36
VRU	36
NAD	36
NMH	36
NPJ	36
NVH	36
NKD	36
NDJ	36
NBD	36
FAR	36
FSA	36
FCQ	36
FCX	36
QJI	36
QGG	36
QGU	36
QMA	36
QPA	36
QPU	36
QEV	36
QLD	36
QHT	36
QHV	36
QHN	36
QUT	36
QUL	36
QXL	36
QRH	36
ETT	36
EMO	36
EPD	36
EQL	36
ELT	36
EUL	36
EUI	36
EXV	36
EWG	36
LJD	36
LJH	36
LTL	36
LGE	36
LMT	36
LMH	36
LPF	36
LNF	36
LFC	36
LQP	36
LQQ	36
LEK	36
LXA	36
LXK	36
KJX	36
KTQ	36
KPO	36
KNX	36
KFC	36
KQI	36
KLB	36
KDX	36
KIB	36
KOK	36
KUU	36
KXV	36
DAP	36
DSJ	36
DNF	36
DQG	36
DQI	36
DBV	36
DUM	36
DXP	36
CJQ	36
CTJ	36
CTL	36
CSJ	36
CQR	36
CLX	36
BMG	36
BMF	36
BSJ	36
BFG	36
BFK	36
BDL	36
BBL	36
BIK	36
BIW	36
IGA	36
IGD	36
IMA	36
IPE	36
IFC	36
ILO	36
IKC	36
IOU	36
IUM	36
IRH	36
HMP	36
HMN	36
HPJ	36
HPQ	36
HNB	36
HQL	36
HOD	36
OJR	36
OPN	36
OBC	36
UJK	36
UJC	36
UAR	36
UGD	36
UMB	36
USL	36
USX	36
UVW	36
UFC	36
UET	36
UEX	36
UDX	36
UIC	36
UWA	36
UWH	36
XAR	36
XTR	36
XSP	36
XEK	36
XEX	36
XKM	36
XHV	36
XHI	36
XUW	36
XRE	36
RAT	36
RMQ	36
RCR	36
RIC	36
RUB	36
WGG	36
WEB	36
WHB	36
WUS	36
JJX	35
AXK	35
TQP	35
TLS	35
TDS	35
TCK	35
TBQ	35
MJL	35
MQT	35
PMU	35
SQH	35
SBR	35
VQU	35
VEU	35
VHU	35
VUB	35
VXR	35
NUU	35
NXH	35
FCR	35
QSV	35
EQV	35
LLR	35
LXT	35
CFQ	35
CUS	35
BVE	35
UKJ	35
XQJ	35
RRT	35
WXT	35
AGS	34
SQE	34
SCP	34
FVX	34
FBK	34
QCX	34
LJB	34
LKX	34
KXA	34
CQV	34
IUE	34
URX	34
XJI	34
XNV	34
XXI	34
RSH	34
RDQ	34
JJG	33
JJO	33
JGE	33
JMH	33
JQJ	33
JQM	33
JQP	33
JEP	33
JLD	33
JDA	33
JCK	33
JCI	33
JBF	33
JID	33
JHD	33
AAW	33
ATR	33
AGW	33
AMK	33
AQK	33
AEJ	33
ALN	33
AXV	33
AWA	33
TAS	33
TTL	33
TSN	33
TVA	33
TNM	33
TFU	33
TKT	33
TKD	33
TDG	33
TCV	33
TCX	33
TUR	33
TRD	33
GJU	33
GAK	33
GMG	33
GMU	33
GPS	33
GPQ	33
GCJ	33
GCU	33
GUX	33
GRS	33
GWH	33
MJJ	33
MTT	33
MMG	33
MPN	33
MSC	33
MQM	33
MLQ	33
MKB	33
MBK	33
MHQ	33
PMA	33
PPG	33
PNJ	33
PQM	33
PEK	33
PEB	33
PLJ	33
PLE	33
PLD	33
PDM	33
PCI	33
PBF	33
PIQ	33
PON	33
SJA	33
SGR	33
SPD	33
SPH	33
SSP	33
SNJ	33
SQD	33
SDX	33
SBJ	33
SBK	33
SHT	33
SUR	33
SXN	33
VMS	33
VSC	33
VVS	33
VVD	33
VET	33
VDM	33
VHG	33
VRR	33
NJE	33
NAC	33
NLA	33
NHK	33
NHD	33
NUM	33
NUQ	33
NUE	33
NUC	33
NXN	33
NXK	33
FJF	33
FMQ	33
FMO	33
FFS	33
FFI	33
FQX	33
FLM	33
FLB	33
FCU	33
FBQ	33
FBR	33
FXQ	33
QAM	33
QTF	33
QMQ	33
QVD	33
QFT	33
QLE	33
QDQ	33
QCT	33
QUH	33
QXO	33
QWU	33
EAN	33
ETK	33
EGT	33
EMS	33
ELJ	33
EDO	33
EBW	33
EIT	33
EIO	33
EOB	33
EUW	33
EXG	33
EWA	33
EWC	33
LJQ	33
LJU	33
LAJ	33
LFM	33
LQH	33
LEB	33
LEU	33
LKO	33
LDM	33
LXG	33
LXM	33
LRI	33
KTL	33
KGL	33
KSE	33
KKO	33
KDU	33
KCM	33
KCI	33
KBF	33
KHP	33
KHL	33
KOM	33
KRJ	33
KRE	33
DMS	33
DPO	33
DQS	33
DQV	33
DKN	33
DRU	33
CGT	33
CPN	33
CSM	33
CVT	33
CQL	33
CHO	33
COE	33
CUG	33
CXG	33
CXR	33
CWA	33
CWB	33
BTT	33
BGP	33
BMJ	33
BMN	33
BSM	33
BSL	33
BFV	33
BEL	33
BKV	33
BKQ	33
BKU	33
BXU	33
IPU	33
IVM	33
IFX	33
IDG	33
IIV	33
IOL	33
IUT	33
IXJ	33
HJM	33
HJF	33
HTS	33
HLL	33
HUK	33
HRU	33
OPJ	33
OPX	33
ODB	33
OCB	33
OIP	33
OIL	33
OII	33
OUU	33
UJM	33
UFP	33
UFX	33
UQK	33
UQD	33
UES	33
ULS	33
ULL	33
UBT	33
UIH	33
UUJ	33
UXE	33
URC	33
URB	33
XGC	33
XPA	33
XPK	33
XVD	33
XHT	33
XOM	33
XUH	33
RFA	33
RQF	33
RKL	33
RKK	33
RKI	33
RBJ	33
RIA	33
RUM	33
RUH	33
RXB	33
WTS	33
WEA	33
TJS	32
TRR	32
MSR	32
MNT	32
MCQ	32
PMQ	32
SDQ	32
SXW	32
VVF	32
VDS	32
FUS	32
QJC	32
QFC	32
QKJ	32
QUW	32
EPJ	32
EQN	32
LUF	32
KJR	32
KNV	32
DMV	32
CFI	32
CQI	32
BQM	32
BBN	32
ITT	32
IRC	32
UMJ	32
UKU	32
UDM	32
XRR	32
RMU	32
WXA	32
WWU	32
AXR	31
TML	31
TQC	31
MSQ	31
STM	31
SPS	31
SFR	31
SLL	31
VVT	31
VXV	31
QNE	31
LUA	31
DLK	31
BIX	31
IKX	31
UGC	31
XQW	31
XIV	31
JAQ	30
JFF	30
JEL	30
JKO	30
JCP	30
JUJ	30
JUB	30
JUU	30
JRJ	30
ANM	30
AQJ	30
ALX	30
AKF	30
AIT	30
AXT	30
AXP	30
AWU	30
TAT	30
TTF	30
TPP	30
TSW	30
TQX	30
TDL	30
TXI	30
TRA	30
TRC	30
GJM	30
GGP	30
GDL	30
GBQ	30
GIE	30
GUQ	30
GUD	30
GXR	30
GRQ	30
GWU	30
MAG	30
MTM	30
MTK	30
MGP	30
MMS	30
MMV	30
MVN	30
MNC	30
MQU	30
MQR	30
MER	30
MKO	30
MDP	30
PJU	30
PMV	30
PMB	30
PMW	30
PNF	30
PQD	30
PDK	30
PCN	30
PIS	30
PHM	30
PHL	30
SGG	30
SMD	30
SQI	30
SET	30
SEV	30
SLC	30
SKE	30
SCG	30
SCL	30
SHK	30
SUH	30
SXA	30
SWH	30
VGH	30
VMT	30
VFX	30
VCT	30
VHQ	30
VUW	30
VRB	30
NFP	30
NEN	30
NLS	30
NKF	30
NKI	30
NCA	30
NBM	30
NII	30
NOP	30
NUI	30
FTT	30
FTX	30
FVV	30
FNA	30
FQR	30
FKK	30
FDN	30
FBP	30
FID	30
QJM	30
QAL	30
QGB	30
QVA	30
QFQ	30
QFU	30
QDG	30
QCG	30
QWE	30
EJS	30
ETQ	30
EMK	30
ESX	30
EVT	30
ENV	30
ELX	30
ELR	30
ECW	30
EBL	30
EIM	30
EIR	30
EOA	30
EXT	30
EWD	30
LTE	30
LPO	30
LSA	30
LFB	30
LQI	30
LKS	30
LDI	30
LCP	30
LCI	30
LBI	30
LIK	30
LXF	30
LXB	30
KAN	30
KMJ	30
KPL	30
KSL	30
KSI	30
KVS	30
KNE	30
KQH	30
KEM	30
KKT	30
KKV	30
KKQ	30
KBG	30
KHM	30
DAK	30
DGR	30
DSQ	30
DSX	30
DVU	30
DQR	30
DLG	30
DLV	30
DUX	30
CTM	30
CTV	30
CTR	30
CGM	30
CGR	30
CNL	30
CNK	30
CKT	30
CBO	30
CHL	30
CUV	30
CXV	30
CRT	30
BJK	30
BJD	30
BTX	30
BGM	30
BPJ	30
BLL	30
BKN	30
BKX	30
BIT	30
BIU	30
BUX	30
BXN	30
BWB	30
IJQ	30
IJD	30
IAK	30
ITN	30
IGJ	30
IPW	30
INK	30
INX	30
IQT	30
IEQ	30
IKO	30
IDK	30
IXC	30
IWB	30
HTT	30
HTG	30
HGT	30
HNR	30
HLF	30
HKG	30
HDR	30
HRF	30
OJO	30
OGP	30
OPF	30
OPB	30
ODD	30
ODC	30
ODH	30
OUE	30
UAX	30
USD	30
UNX	30
UFB	30
UQP	30
UEW	30
UKN	30
UKE	30
UKK	30
UDK	30
UBF	30
UIB	30
UIU	30
UXF	30
UXH	30
UXR	30
URI	30
UWE	30
XGP	30
XSM	30
XET	30
XEL	30
XEI	30
XKD	30
XCI	30
XBX	30
XIB	30
XII	30
RJQ	30
RAS	30
RAF	30
RFB	30
RKM	30
RCI	30
RCU	30
RUW	30
RXH	30
WAA	30
WMM	30
WPF	30
WDC	30
WHU	30
WUD	30
WUX	30
WXP	30
JLN	29
JXC	29
AUR	29
TAU	29
VMQ	29
VSR	29
NSF	29
NEA	29
NUX	29
QSW	29
EIN	29
LCT	29
KQJ	29
KLR	29
KXF	29
DRR	29
CQM	29
INU	29
IXV	29
IRS	29
OOG	29
ULQ	29
XTK	29
XKS	29
XIT	29
WXU	29
AIU	28
GFB	28
GEK	28
PNX	28
PQA	28
PXE	28
SII	28
SXG	28
VQX	28
NVL	28
NEU	28
FSX	28
FIA	28
QPX	28
LDJ	28
KUT	28
DTR	28
DRX	28
CKR	28
IQC	28
ICJ	28
OGH	28
UFV	28
XTQ	28
XFS	28
JAX	27
JMD	27
JPB	27
JPO	27
JSH	27
JNN	27
JFA	27
JLC	27
JKR	27
JOI	27
JXX	27
JRE	27
AJL	27
ATQ	27
ASG	27
ANP	27
AQP	27
AQL	27
ALJ	27
ACO	27
ABW	27
ARK	27
TJC	27
TTG	27
TGG	27
TGX	27
TMA	27
TMN	27
TMD	27
TPN	27
TNU	27
TFT	27
TEX	27
TKK	27
TDR	27
THK	27
TXF	27
GMI	27
GPO	27
GSC	27
GFD	27
GFC	27
GDS	27
GBP	27
GUT	27
GUM	27
GUR	27
GRG	27
GRU	27
MAJ	27
MAO	27
MGB	27
MPH	27
MFL	27
MFK	27
MEO	27
MKD	27
MDM	27
MCN	27
MIX	27
MXE	27
MXC	27
MWM	27
MWU	27
PJE	27
PAX	27
PGP	27
PVM	27
PNH	27
PEO	27
PKO	27
PDX	27
PIX	27
PUM	27
PUS	27
PXF	27
PXK	27
SJS	27
SJB	27
SAX	27
STP	27
SSJ	27
SVF	27
SNL	27
SFV	27
SKF	27
SIP	27
SUB	27
SUW	27
SXB	27
SXR	27
SRF	27
SRW	27
SWG	27
VJU	27
VAE	27
VSV	27
VSE	27
VVA	27
VDQ	27
VDR	27
VCH	27
VBF	27
VHS	27
VXC	27
VXB	27
VRE	27
VRD	27
VRI	27
NTL	27
NMS	27
NMQ	27
NMU	27
NVE	27
NFV	27
NLN	27
NKV	27
NDH	27
NBE	27
NIA	27
NHP	27
FJD	27
FAJ	27
FAM	27
FMT	27
FPJ	27
FNV	27
FND	27
FNC	27
FQE	27
FQD	27
FLK	27
FCI	27
FRS	27
QJJ	27
QJU	27
QAS	27
QGC	27
QPJ	27
QPP	27
QPV	27
QPL	27
QSF	27
QVF	27
QFV	27
QFX	27
QEX	27
QER	27
QLH	27
QKK	27
QDT	27
QCQ	27
QCU	27
QWR	27
EJP	27
EJF	27
EJK	27
EJI	27
ETG	27
EGS	27
EPI	27
ESJ	27
EVL	27
ENI	27
EHO	27
LAI	27
LPD	27
LST	27
LSK	27
LQA	27
LQU	27
LEQ	27
LLS	27
LKV	27
LDT	27
LCR	27
LBP	27
LBE	27
LIT	27
LIO	27
LXD	27
KJN	27
KJD	27
KAP	27
KMX	27
KPD	27
KPU	27
KSA	27
KVF	27
KDJ	27
KDI	27
KCX	27
KIQ	27
KOJ	27
DJP	27
DJL	27
DTK	27
DPL	27
DVP	27
DKR	27
DUL	27
DXW	27
CTK	27
CGJ	27
CNV	27
CCW	27
CIM	27
CIQ	27
CIX	27
COM	27
COP	27
COD	27
CUK	27
CXU	27
BJG	27
BJR	27
BVV	27
BVC	27
BNL	27
BEV	27
BEN	27
BKT	27
BHO	27
BHW	27
BUK	27
BUR	27
BXP	27
ITH	27
IGG	27
IMP	27
IPS	27
ISD	27
INC	27
IKP	27
IDU	27
ICF	27
IBU	27
IHJ	27
IHP	27
IHL	27
IXD	27
IRE	27
IRU	27
HJP	27
HTK	27
HMQ	27
HMK	27
HDI	27
HIO	27
HUV	27
HUL	27
HUR	27
HXK	27
HWU	27
OLL	27
OBJ	27
OUQ	27
OXP	27
OXV	27
UTI	27
UGQ	27
UVB	27
UFQ	27
UFL	27
UQJ	27
UQF	27
UEL	27
ULD	27
UKD	27
UKB	27
UCI	27
UBR	27
UXT	27
UXW	27
URH	27
UWQ	27
UWB	27
XAI	27
XPN	27
XPF	27
XPC	27
XPX	27
XFV	27
XEN	27
XLS	27
XKE	27
XKB	27
XKI	27
XCT	27
XCU	27
XIM	27
XIK	27
XHM	27
XHR	27
XUF	27
XUC	27
XXG	27
XRT	27
XWB	27
RAJ	27
RAR	27
RSL	27
RES	27
REI	27
RER	27
RKS	27
RBX	27
RHI	27
RRI	27
WAE	27
WQQ	27
WEU	27
WEX	27
WHD	27
WXK	27
WRR	27
WWW	27
JJD	26
JQL	26
JRM	26
ARX	26
TKB	26
TKR	26
TBT	26
TIP	26
GFG	26
MJS	26
MLB	26
PJR	26
PGT	26
PQR	26
SQN	26
SKR	26
SIR	26
SWW	26
VAT	26
NNU	26
NFL	26
QMT	26
QPW	26
QLQ	26
QBT	26
LJR	26
LVU	26
LID	26
LUV	26
KQE	26
IQM	26
ICQ	26
UDL	26
XVC	26
XFP	26
XUM	26
XUR	26
RVX	26
RKT	26
RIM	26
JLR	25
JBK	25
AUI	25
TEV	25
GTX	25
PXW	25
SKI	25
SUI	25
SRP	25
VBS	25
FRF	25
QMS	25
LSM	25
LRS	25
LRU	25
KXN	25
DJJ	25
BPX	25
BFP	25
IKA	25
UMS	25
UWT	25
RDT	25
RXT	25
RXV	25
RRV	25
RWX	25
WXH	25
JAJ	24
JTC	24
JPG	24
JPF	24
JPL	24
JPD	24
JSV	24
JSU	24
JVE	24
JFM	24
JKV	24
JCS	24
JXA	24
JRC	24
AJG	24
ATL	24
AMP	24
ANL	24
ANC	24
AFN	24
AKI	24
ABO	24
AIG	24
ARJ	24
ART	24
TTI	24
TGD	24
TSG	24
TVE	24
TQI	24
TKP	24
TKH	24
TKU	24
TDM	24
TID	24
TUK	24
TXP	24
GJK	24
GAW	24
GTA	24
GTG	24
GPR	24
GSA	24
GQG	24
GQQ	24
GQD	24
GEP	24
GLD	24
GBI	24
GIB	24
GOO	24
GUP	24
GUS	24
GXT	24
GXW	24
MJB	24
MTH	24
MGM	24
MPL	24
MSK	24
MVD	24
MNR	24
MFB	24
MEK	24
MLF	24
MLX	24
MDI	24
MCT	24
MCG	24
MBQ	24
MIG	24
MIF	24
MIU	24
MHI	24
MHU	24
MOA	24
MUJ	24
MUG	24
MUF	24
MXF	24
PJF	24
PTX	24
PGG	24
PMR	24
PSL	24
PNC	24
PFV	24
PLN	24
PCJ	24
PCO	24
PBL	24
PIF	24
PIU	24
PUK	24
PUI	24
STF	24
STW	24
SMF	24
SMI	24
SPE	24
SVH	24
SNH	24
SQF	24
SQW	24
SLP	24
SKM	24
SKV	24
SKN	24
SKH	24
SDL	24
SBG	24
SBV	24
SIA	24
SIB	24
SWR	24
VTB	24
VSU	24
VSX	24
VVE	24
VNF	24
VFR	24
VRC	24
NAJ	24
NAE	24
NTS	24
NGP	24
NMA	24
NMF	24
NPF	24
NND	24
NNH	24
NFA	24
NEG	24
NEM	24
NDA	24
NDL	24
NDD	24
NCM	24
NRI	24
FJM	24
FJK	24
FAK	24
FTR	24
FPX	24
FSK	24
FVT	24
FVN	24
FNM	24
FQT	24
FQC	24
FKF	24
FBT	24
FIC	24
FHL	24
FUM	24
FUI	24
FXL	24
QJE	24
QAP	24
QTG	24
QTM	24
QTP	24
QMH	24
QQO	24
QLP	24
QKC	24
QCV	24
QBJ	24
QIM	24
QUN	24
QXG	24
QRJ	24
EPS	24
EPN	24
ESV	24
ELU	24
EBP	24
EBV	24
EOC	24
EOO	24
EUP	24
EXK	24
EXU	24
ERF	24
LJA	24
LAM	24
LAP	24
LTK	24
LGA	24
LMX	24
LSJ	24
LSL	24
LVE	24
LNE	24
LQD	24
LEM	24
LEN	24
LEL	24
LEI	24
LKQ	24
LBL	24
LIA	24
LIB	24
LHI	24
LXU	24
LRA	24
LRM	24
LRH	24
KJG	24
KJF	24
KJO	24
KAK	24
KAI	24
KMV	24
KMC	24
KMB	24
KPE	24
KPB	24
KSD	24
KVH	24
KFP	24
KFB	24
KQL	24
KDL	24
KCT	24
KIV	24
KIE	24
KUD	24
KXG	24
KXP	24
KRL	24
DJF	24
DTV	24
DGQ	24
DNB	24
DFK	24
DLN	24
DLF	24
DCO	24
DBO	24
DIT	24
DIU	24
DXR	24
DWH	24
CMG	24
CMP	24
CML	24
CPM	24
CPS	24
CSW	24
CLS	24
CLR	24
CHJ	24
COG	24
CUX	24
CRP	24
CRK	24
CWU	24
CWX	24
BTF	24
BTQ	24
BGJ	24
BMO	24
BVL	24
BNC	24
BFT	24
BQN	24
BQK	24
BUI	24
BXL	24
BWG	24
IAU	24
ITM	24
ITF	24
IGB	24
IMH	24
IMR	24
IFI	24
IQS	24
IQK	24
IEN	24
ILQ	24
ICO	24
IBG	24
IHM	24
IUD	24
IUH	24
IRB	24
HJK	24
HJD	24
HTQ	24
HMT	24
HPS	24
HPN	24
HLJ	24
HKT	24
HKV	24
HKQ	24
HBN	24
HOB	24
HRR	24
HWP	24
HWX	24
OJK	24
OAB	24
OMK	24
OPG	24
OEM	24
OEC	24
OEB	24
OEH	24
OLI	24
ODJ	24
OIQ	24
OIK	24
OOM	24
OOH	24
OXJ	24
OXG	24
OXL	24
ORC	24
UTJ	24
UMP	24
UMX	24
UPA	24
UPI	24
UFS	24
ULC	24
UKM	24
UKI	24
UDV	24
UXV	24
UWP	24
XAS	24
XTF	24
XPM	24
XVR	24
XER	24
XLE	24
XLL	24
XLX	24
XKV	24
XDG	24
XCW	24
XRJ	24
XWC	24
RJB	24
RTB	24
RPA	24
RPP	24
RQM	24
RCV	24
RBG	24
RHR	24
RUG	24
RXE	24
RXR	24
RRJ	24
RWR	24
WAD	24
WAU	24
WGA	24
WGC	24
WFE	24
WEM	24
WDD	24
WCE	24
WBU	24
WHE	24
WXC	24
WXR	24
AKR	23
AXJ	23
TJJ	23
TJI	23
TAI	23
TPJ	23
TVN	23
TVD	23
TLJ	23
TIL	23
PMT	23
PSX	23
PHQ	23
SJL	23
SMU	23
SSL	23
SQP	23
SLU	23
SXI	23
VQR	23
VEM	23
VCQ	23
VUJ	23
NSC	23
FLL	23
QJQ	23
QJX	23
QMD	23
QIN	23
EUN	23
LUH	23
LXR	23
LRR	23
KJT	23
KUC	23
CTI	23
CRJ	23
BXM	23
ITL	23
IPB	23
IVL	23
IQU	23
ICP	23
IUI	23
HQV	23
HXM	23
OMP	23
UPS	23
UQN	23
XMD	23
XMI	23
XSJ	23
XQM	23
XQF	23
XQK	23
XWM	23
RNM	23
RQJ	23
AVT	22
GSB	22
MQS	22
SSM	22
VQI	22
VLX	22
LAQ	22
KDG	22
DLI	22
IDT	22
IXB	22
HQM	22
UKC	22
XJR	22
XQN	22
RML	22
RQK	22
JQB	21
JLH	21
JDK	21
JCJ	21
JCM	21
JCV	21
JIV	21
JHQ	21
JUG	21
JUV	21
JUO	21
JXE	21
ATV	21
AMT	21
ASV	21
ASF	21
AFI	21
ALU	21
AKM	21
AOA	21
TJM	21
TAR	21
TTM	21
TTH	21
TMK	21
TPC	21
TSM	21
TVM	21
TVB	21
TQV	21
TQF	21
TQD	21
TQH	21
TET	21
TER	21
TLT	21
TKC	21
TDK	21
TIU	21
TUJ	21
TUN	21
TRT	21
GJG	21
GAS	21
GTE	21
GGS	21
GGL	21
GFA	21
GLG	21
GLC	21
GLB	21
GDJ	21
GDU	21
GDR	21
GCT	21
GCF	21
GCR	21
GUF	21
GUK	21
GXP	21
GXV	21
GXN	21
GXU	21
GRR	21
GWB	21
MJX	21
MAS	21
MTQ	21
MMX	21
MMR	21
MPF	21
MVB	21
MNU	21
MFM	21
MKR	21
MDJ	21
MCJ	21
MBG	21
MHS	21
MHL	21
MOE	21
MOU	21
MUQ	21
MXV	21
MRM	21
MRQ	21
MRC	21
MRU	21
MRR	21
MWE	21
MWR	21
PAP	21
PAN	21
PAL	21
PPT	21
PVU	21
PNA	21
PNK	21
PFK	21
PLS	21
PLB	21
PKQ	21
PKU	21
PDI	21
PCL	21
PHT	21
SAS	21
SML	21
SPK	21
SPC	21
SPB	21
SNM	21
SNR	21
SQM	21
SEW	21
SDJ	21
SID	21
SHL	21
SHU	21
SHR	21
SWQ	21
SWB	21
VAU	21
VPM	21
VPN	21
VPI	21
VVH	21
VQS	21
VQC	21
VEN	21
VEI	21
VLD	21
VDT	21
VBQ	21
VXT	21
VRX	21
NJN	21
NJC	21
NAM	21
NTK	21
NSB	21
NVV	21
NVX	21
NNX	21
NET	21
NEP	21
NCH	21
NUL	21
NXM	21
NRJ	21
NRH	21
FJB	21
FSU	21
FVM	21
FFJ	21
FLA	21
FLX	21
FIP	21
FIL	21
FUG	21
FXU	21
QAV	21
QAW	21
QML	21
QMK	21
QMU	21
QPC	21
QPH	21
QNF	21
QFR	21
QEI	21
QLJ	21
QLC	21
QCM	21
QBI	21
QIV	21
QUG	21
QXP	21
QRF	21
EJR	21
ETP	21
EVG	21
EVX	21
ENT	21
EQK	21
ELI	21
EKT	21
EKS	21
EKN	21
EKQ	21
EOG	21
EOL	21
EOI	21
EOU	21
EXW	21
EWQ	21
EWR	21
LAK	21
LTF	21
LGB	21
LVM	21
LNV	21
LFL	21
LQC	21
LCS	21
LBS	21
LBU	21
LIN	21
LIH	21
LHL	21
LHX	21
LOQ	21
LXJ	21
LXW	21
LRE	21
LRD	21
KAS	21
KTD	21
KGA	21
KGD	21
KMS	21
KMH	21
KPN	21
KVD	21
KVB	21
KFM	21
KFI	21
KQA	21
KKX	21
KBU	21
KIU	21
KUV	21
KUE	21
DTI	21
DGT	21
DMO	21
DPU	21
DPX	21
DLX	21
DKT	21
DKG	21
DIL	21
DUP	21
CTP	21
CTW	21
CMK	21
CMI	21
CMO	21
CPV	21
CPQ	21
CPK	21
CSG	21
CVQ	21
CKG	21
CCO	21
CIG	21
COJ	21
COH	21
CUI	21
BAO	21
BGF	21
BMT	21
BMS	21
BPG	21
BLM	21
BIR	21
BOM	21
BUP	21
BUW	21
BXI	21
BRJ	21
BRG	21
BWA	21
IAT	21
IAR	21
IGP	21
IMB	21
IPT	21
INB	21
IFF	21
IFL	21
IQJ	21
IQD	21
IEL	21
IDM	21
IDL	21
IBJ	21
IBP	21
IIF	21
IHN	21
IOO	21
IOX	21
IUA	21
IXP	21
IXE	21
IXO	21
IRA	21
IRD	21
HMJ	21
HVP	21
HVQ	21
HFR	21
HQK	21
HLA	21
HKN	21
HDW	21
HIR	21
HXI	21
HWT	21
HWR	21
OJA	21
OJE	21
OAA	21
OAI	21
OGM	21
OGB	21
OMJ	21
OMB	21
OMW	21
OPE	21
OPU	21
ONM	21
OQL	21
OEP	21
OLH	21
ODN	21
ODE	21
OCC	21
OIO	21
OOX	21
OXH	21
UGR	21
UMK	21
UEO	21
ULI	21
UKA	21
UCN	21
UCK	21
UHR	21
UUO	21
URD	21
UWG	21
XJJ	21
XJQ	21
XJE	21
XJK	21
XAV	21
XML	21
XMK	21
XPQ	21
XFT	21
XEO	21
XEW	21
XCG	21
XCK	21
XIP	21
XUL	21
XRA	21
RTT	21
RTH	21
RGB	21
RGR	21
RSI	21
RVD	21
RFU	21
RQG	21
RKH	21
RDX	21
RDR	21
RCJ	21
RCL	21
RCK	21
RBF	21
RIT	21
RUI	21
RUR	21
RXA	21
RXD	21
RRD	21
RRH	21
WJU	21
WDB	21
WBG	21
WUA	21
WUM	21
WUC	21
WUB	21
WUH	21
WUW	21
WRS	21
JJV	20
JLV	20
JLQ	20
TAJ	20
TFS	20
TQK	20
TKM	20
TKI	20
TBJ	20
THT	20
PJQ	20
PWX	20
SJX	20
STJ	20
SMX	20
SBL	20
SUM	20
SRM	20
SRV	20
VVQ	20
VNT	20
VNU	20
VCS	20
VWW	20
NVK	20
NBF	20
NUK	20
FSM	20
FIE	20
QTW	20
QMN	20
QMO	20
QQM	20
QWW	20
ELQ	20
LSD	20
LSU	20
KVT	20
KLV	20
KKU	20
KRU	20
DPQ	20
CQP	20
CXT	20
CRI	20
BJS	20
BVS	20
BLP	20
IVU	20
IXS	20
IRX	20
UJL	20
UEK	20
UID	20
XSL	20
XNT	20
XLH	20
XLU	20
XOE	20
XUB	20
RLC	20
WSX	20
JCX	19
AMN	19
APQ	19
TWT	19
GTS	19
MLH	19
MUN	19
SMT	19
VJJ	19
VSK	19
QJL	19
QSI	19
QNK	19
LSP	19
LUP	19
KHQ	19
DLJ	19
DRT	19
CKX	19
CXI	19
HOO	19
OPS	19
OOI	19
UPM	19
UIE	19
UHX	19
UOX	19
XMJ	19
XVJ	19
XXJ	19
RTU	19
RFC	19
JGG	18
JMF	18
JSA	18
JFB	18
JQF	18
JQK	18
JEU	18
JLE	18
JLB	18
JKF	18
JDP	18
JCR	18
JBQ	18
JBL	18
JBX	18
JHJ	18
JUL	18
JXQ	18
JXB	18
JXO	18
AGK	18
ALT	18
ALI	18
AKT	18
AKN	18
AUW	18
TJE	18
TGB	18
TSI	18
TQE	18
TQW	18
TDJ	18
TBG	18
TIB	18
THU	18
TXG	18
TRK	18
TWU	18
GJI	18
GGJ	18
GGM	18
GSG	18
GSD	18
GQE	18
GQI	18
GQH	18
GLK	18
GLX	18
GDQ	18
GCP	18
GBK	18
GIA	18
GIG	18
GOA	18
GOB	18
GOH	18
GWA	18
MJN	18
MAP	18
MTL	18
MTB	18
MPE	18
MPB	18
MSE	18
MVP	18
MNS	18
MNV	18
MND	18
MQO	18
MES	18
MEX	18
MLO	18
MKF	18
MKH	18
MDG	18
MDS	18
MCV	18
MBM	18
MBS	18
MBF	18
MBL	18
MBR	18
MIS	18
MIW	18
MHM	18
MOC	18
MOB	18
MUB	18
MXI	18
MRI	18
MWB	18
PAU	18
PTE	18
PGM	18
PGD	18
PVD	18
PQU	18
PEQ	18
PEX	18
PKT	18
PDG	18
PCS	18
PBJ	18
PBP	18
PBO	18
PIV	18
PHJ	18
PUD	18
PXV	18
PXQ	18
PRD	18
PWV	18
PWU	18
SGD	18
SGC	18
SGU	18
SMN	18
SVB	18
SLA	18
SCN	18
SBM	18
SIN	18
SIQ	18
SIK	18
SIC	18
SHM	18
SHV	18
SUK	18
SXL	18
SXK	18
SXD	18
SWS	18
VJE	18
VJK	18
VJC	18
VAL	18
VMP	18
VMD	18
VMC	18
VMX	18
VPH	18
VSD	18
VVJ	18
VVB	18
VNN	18
VQA	18
VQL	18
VEL	18
VDP	18
VBV	18
VIC	18
VHX	18
VXE	18
VXD	18
NJS	18
NAN	18
NAI	18
NNB	18
NNO	18
NLF	18
NLQ	18
NLB	18
NKM	18
NKP	18
NKK	18
NKH	18
NDN	18
NDX	18
NCP	18
NCL	18
NIK	18
NOO	18
NXP	18
NRM	18
NRQ	18
FJS	18
FPM	18
FSQ	18
FVP	18
FNJ	18
FNP	18
FQG	18
FLR	18
FKJ	18
FKP	18
FBV	18
FBN	18
FIJ	18
FUL	18
FXK	18
FRX	18
QMM	18
QPS	18
QPK	18
QPD	18
QVP	18
QVS	18
QVC	18
QFS	18
QLA	18
QKT	18
QDV	18
QDR	18
QCI	18
QBL	18
QIF	18
QUM	18
QUK	18
EJD	18
EJU	18
ETI	18
EMT	18
EPO	18
ESK	18
EVQ	18
ENQ	18
ENR	18
EQP	18
EQS	18
ELS	18
EKU	18
LJN	18
LJE	18
LTP	18
LGP	18
LGD	18
LMG	18
LPQ	18
LPU	18
LPR	18
LSE	18
LSI	18
LNB	18
LFA	18
LFS	18
LQB	18
LEX	18
LLG	18
LLO	18
LKF	18
LDS	18
LCN	18
LCX	18
LBM	18
LIQ	18
LHQ	18
LOL	18
LXI	18
KAM	18
KTF	18
KGC	18
KMG	18
KST	18
KVC	18
KNS	18
KND	18
KET	18
KIG	18
KHS	18
KOP	18
KUI	18
KRH	18
DJS	18
DTG	18
DGJ	18
DMT	18
DMX	18
DSP	18
DVS	18
DQM	18
DKU	18
DCW	18
DBW	18
DIS	18
DIK	18
DOH	18
DUR	18
DXO	18
CJG	18
CJS	18
CMU	18
CVM	18
CNO	18
CDW	18
CIR	18
COA	18
CXM	18
CXP	18
CXK	18
CWJ	18
CWH	18
BJV	18
BJL	18
BTG	18
BMV	18
BPS	18
BPN	18
BPL	18
BPR	18
BSW	18
BVT	18
BNA	18
BNM	18
BFM	18
BFQ	18
BFL	18
BFR	18
BQP	18
BEW	18
BLJ	18
BLI	18
BIN	18
BIO	18
BOD	18
BXR	18
IJO	18
IMC	18
IMU	18
ISA	18
ISK	18
IVW	18
INT	18
INS	18
INE	18
IFN	18
IEJ	18
ILS	18
IKR	18
ICG	18
ICK	18
IBS	18
IBF	18
IIX	18
IHQ	18
IHU	18
IOA	18
IOE	18
IUV	18
IXW	18
IRK	18
IWU	18
HJG	18
HJU	18
HTR	18
HGK	18
HMV	18
HMX	18
HSI	18
HVT	18
HVM	18
HVR	18
HLG	18
HLS	18
HLO	18
HKS	18
HBO	18
HOM	18
HUI	18
HRG	18
HRM	18
OJH	18
OAE	18
OTD	18
OGJ	18
OGO	18
OMA	18
OMG	18
OPH	18
OEJ	18
OLJ	18
OLX	18
OCD	18
OIM	18
OHK	18
OXT	18
OXD	18
UJA	18
UGW	18
UMC	18
UPK	18
UPC	18
UPH	18
UPX	18
UVL	18
UNF	18
UNL	18
UEJ	18
UEP	18
UEN	18
ULP	18
UKP	18
UKQ	18
UBM	18
UBL	18
UIN	18
UIX	18
UOM	18
UUN	18
UXD	18
URW	18
XJA	18
XAL	18
XGD	18
XMN	18
XMQ	18
XMC	18
XPB	18
XSW	18
XVW	18
XNB	18
XFX	18
XEM	18
XKA	18
XDQ	18
XDL	18
XCP	18
XCR	18
XBG	18
XIQ	18
XID	18
XIU	18
XHJ	18
XOH	18
XOU	18
XRV	18
XWE	18
XWR	18
RJS	18
RJR	18
RAP	18
RTQ	18
RPM	18
RPQ	18
RSG	18
RSM	18
RSP	18
RVE	18
RFX	18
RQW	18
RLI	18
RKD	18
RDJ	18
RCG	18
RCX	18
RIL	18
RHP	18
RHV	18
RHX	18
ROP	18
RRM	18
WAQ	18
WAC	18
WAB	18
WAR	18
WTU	18
WGU	18
WME	18
WQE	18
WEC	18
WDF	18
WDH	18
WCH	18
WHQ	18
WHC	18
WUI	18
WXE	18
WXB	18
WRB	18
JQC	17
JKU	17
JRS	17
JRD	17
TMQ	17
TVT	17
TIV	17
TXJ	17
GCQ	17
MPU	17
MPR	17
MSI	17
MXQ	17
PQF	17
POT	17
PRB	17
PRR	17
SMQ	17
SMC	17
SPJ	17
VES	17
VBI	17
VXH	17
NSS	17
NQP	17
NEK	17
NXL	17
FQS	17
QMP	17
QSJ	17
QSL	17
QEK	17
QLI	17
EVJ	17
ENS	17
DNU	17
ITV	17
ISU	17
IVQ	17
INV	17
IKQ	17
UBI	17
UIM	17
UIR	17
UOU	17
XTA	17
XTP	17
XVN	17
XKR	17
XUP	17
XUN	17
RFQ	17
RIN	17
RIX	17
AKK	16
TPM	16
MSS	16
MLR	16
SLS	16
SLQ	16
SOP	16
SUA	16
SXJ	16
SRL	16
VVI	16
NUS	16
FJJ	16
QES	16
LQT	16
CGF	16
CSI	16
IAS	16
IAN	16
ISR	16
OXC	16
ULA	16
XMV	16
WTX	16
JJN	15
JJW	15
JAS	15
JAK	15
JGJ	15
JGM	15
JGP	15
JGB	15
JMS	15
JMV	15
JNM	15
JNV	15
JNL	15
JNK	15
JFP	15
JLA	15
JKW	15
JDG	15
JDF	15
JDI	15
JCN	15
JCQ	15
JBR	15
JHS	15
JOA	15
JUP	15
JUN	15
JXM	15
JXP	15
JXI	15
JRR	15
ATM	15
AGO	15
AMS	15
AMW	15
ASL	15
ASX	15
ALS	15
ALR	15
AKP	15
AKS	15
ADN	15
ADW	15
AOP	15
AOX	15
AUP	15
AUO	15
AWR	15
TJP	15
TME	15
TMH	15
TMU	15
TMX	15
TPA	15
TPL	15
TSP	15
TVS	15
TVV	15
TNP	15
TEK	15
TLN	15
TKN	15
TKF	15
TKQ	15
TDI	15
TBP	15
TIS	15
TIN	15
TIC	15
TXW	15
TRV	15
GJD	15
GTC	15
GTR	15
GMP	15
GMS	15
GST	15
GQT	15
GQF	15
GQC	15
GQU	15
GEV	15
GLA	15
GKJ	15
GKH	15
GDM	15
GBS	15
GBX	15
GIJ	15
GHV	15
GHN	15
GOD	15
GXK	15
GRX	15
MTA	15
MTP	15
MTD	15
MGC	15
MSJ	15
MVV	15
MNO	15
MKS	15
MKW	15
MBJ	15
MBT	15
MOG	15
MOD	15
MUP	15
MXS	15
MXH	15
MRK	15
MRB	15
PJH	15
PAM	15
PAR	15
PTP	15
PGB	15
PPV	15
PSM	15
PSP	15
PSN	15
PVE	15
PND	15
PFP	15
PEL	15
PLI	15
PLO	15
PKR	15
PKW	15
PDA	15
PDT	15
PDS	15
PCT	15
PCX	15
PIG	15
PHV	15
POC	15
PUA	15
PUL	15
PUX	15
PXI	15
PXO	15
PRC	15
SJE	15
SJD	15
SAP	15
SAW	15
SMB	15
SPA	15
SPM	15
SPN	15
SPO	15
SSI	15
SNN	15
SFJ	15
SFT	15
SFU	15
SFX	15
SLT	15
SLF	15
SLB	15
SLX	15
SKA	15
SKX	15
SDP	15
SBP	15
SIJ	15
SIU	15
SUL	15
SRG	15
SRN	15
SWA	15
VJP	15
VAN	15
VAQ	15
VTA	15
VGX	15
VMF	15
VMU	15
VPE	15
VPK	15
VSA	15
VVC	15
VNH	15
VNR	15
VFJ	15
VQV	15
VQE	15
VCG	15
VCU	15
VBM	15
VHT	15
VUK	15
NJX	15
NAL	15
NTX	15
NMR	15
NPV	15
NPE	15
NPL	15
NPD	15
NSX	15
NVF	15
NVD	15
NQL	15
NEJ	15
NLD	15
NKA	15
NCV	15
NCK	15
NIT	15
NID	15
NIB	15
NUF	15
NXV	15
NXC	15
FJI	15
FAN	15
FAO	15
FTV	15
FTQ	15
FGF	15
FMP	15
FMV	15
FPQ	15
FSJ	15
FSP	15
FSV	15
FVG	15
FNK	15
FNI	15
FEO	15
FLJ	15
FLN	15
FBL	15
FIT	15
FXT	15
FRM	15
FRU	15
FRR	15
QJH	15
QAK	15
QGI	15
QMV	15
QMC	15
QPE	15
QVJ	15
QVH	15
QEM	15
QKM	15
QDS	15
QIO	15
QHP	15
QHR	15
QWQ	15
ETN	15
EGK	15
EPT	15
EPU	15
ESN	15
ENG	15
ELG	15
EOT	15
EOR	15
EXP	15
EXI	15
EXR	15
ERT	15
LJX	15
LAG	15
LGK	15
LMR	15
LMW	15
LNS	15
LFP	15
LFN	15
LQR	15
LEJ	15
LKG	15
LKU	15
LKW	15
LDR	15
LCG	15
LCM	15
LBJ	15
LBX	15
LHN	15
LOM	15
LOI	15
LOX	15
LUB	15
LXL	15
LRP	15
KTA	15
KGB	15
KSN	15
KVA	15
KVL	15
KNT	15
KNC	15
KNB	15
KNH	15
KNR	15
KFJ	15
KQT	15
KQP	15
KQN	15
KQQ	15
KQX	15
KEJ	15
KEQ	15
KCQ	15
KCO	15
KCR	15
KBL	15
KHT	15
KOH	15
KUB	15
KUH	15
KXJ	15
KXE	15
KXL	15
KXC	15
KXI	15
KRI	15
KWP	15
DAO	15
DGF	15
DGI	15
DGO	15
DGU	15
DSM	15
DVV	15
DVX	15
DNN	15
DNL	15
DLU	15
DLR	15
DDW	15
DIV	15
DIF	15
DOP	15
DOB	15
DUW	15
DXL	15
DXK	15
DRG	15
DWE	15
CJR	15
CGQ	15
CVP	15
CVR	15
CNT	15
CQJ	15
CLV	15
CKV	15
CKN	15
CDO	15
CIT	15
CIK	15
COX	15
CUP	15
CRM	15
CRV	15
CWD	15
BJT	15
BJF	15
BJO	15
BTV	15
BTR	15
BSN	15
BNF	15
BNH	15
BFN	15
BLX	15
BOG	15
BOC	15
BOH	15
BUL	15
BXK	15
BWD	15
BWC	15
BWX	15
ITA	15
ITQ	15
IGM	15
IGO	15
IMS	15
ISJ	15
IVF	15
IND	15
IFJ	15
IFK	15
IQF	15
IEK	15
IEO	15
IKH	15
ICM	15
ICV	15
ICN	15
IBL	15
IIG	15
IHS	15
IUL	15
IUC	15
IUB	15
IRG	15
IRP	15
IWP	15
IWE	15
HJJ	15
HPO	15
HSM	15
HNJ	15
HNI	15
HQN	15
HLX	15
HDN	15
HCW	15
HIV	15
HOL	15
HOC	15
HUX	15
HXR	15
HRX	15
OAM	15
OAP	15
OAD	15
OGA	15
OMQ	15
OMI	15
ONE	15
OFE	15
OEQ	15
OLQ	15
OKL	15
OKI	15
ODL	15
OBP	15
OBH	15
OIA	15
OOL	15
OOB	15
OOR	15
OUA	15
OXM	15
OXN	15
OXF	15
OXK	15
OXI	15
ORA	15
ORR	15
UMV	15
UMF	15
UMH	15
UPJ	15
UPG	15
UPP	15
UPN	15
UPQ	15
UPB	15
USM	15
UNI	15
ULE	15
ULB	15
ULH	15
ULU	15
UKV	15
UDG	15
UBV	15
UHV	15
XJM	15
XJC	15
XAP	15
XTV	15
XTB	15
XMM	15
XMP	15
XPV	15
XPD	15
XPU	15
XSG	15
XNF	15
XNE	15
XFQ	15
XQP	15
XLN	15
XKQ	15
XDR	15
XBM	15
XBP	15
XIA	15
XHL	15
XHO	15
XOJ	15
XXM	15
XXL	15
XXO	15
XRD	15
XRH	15
XWA	15
XWD	15
RJA	15
RJM	15
RJE	15
RJU	15
RAV	15
RTP	15
RTE	15
RTD	15
RGC	15
RMA	15
RMP	15
RMK	15
RMI	15
RMH	15
RMR	15
RKN	15
RKE	15
RKC	15
RDK	15
RCO	15
RBM	15
RIU	15
RHU	15
RXI	15
RRG	15
RRP	15
RRK	15
RWU	15
WJJ	15
WAG	15
WGX	15
WGR	15
WMO	15
WPX	15
WQX	15
WES	15
WDA	15
WDX	15
WCA	15
WCG	15
WBD	15
WBH	15
WHF	15
WOO	15
WRE	15
JSF	14
TJL	14
TAV	14
TMP	14
TMO	14
TPX	14
TNE	14
TQL	14
TKX	14
MSV	14
MVX	14
PNS	14
PQS	14
PBV	14
SUN	14
VSH	14
VLJ	14
VLR	14
NSU	14
NCF	14
QTN	14
QND	14
QOE	14
QOX	14
LVJ	14
LEV	14
LBQ	14
KAX	14
KBV	14
KXT	14
KXQ	14
KXK	14
KRX	14
DJQ	14
DTN	14
DXM	14
BNP	14
BRK	14
IPR	14
IVJ	14
HTL	14
UJQ	14
UJR	14
UTW	14
UQO	14
UKR	14
UDR	14
XMS	14
XPW	14
XSN	14
XVI	14
XUI	14
RVS	14
RUJ	14
WJK	14
WTC	14
JUH	13
ANN	13
TJQ	13
SMV	13
SSG	13
SLN	13
VJV	13
VAX	13
VPQ	13
NTM	13
NBS	13
QLS	13
QIS	13
LQE	13
LUS	13
KSG	13
KIS	13
DNS	13
CIU	13
COU	13
IDS	13
UTN	13
UNV	13
UIV	13
UXI	13
WTT	13
WST	13
JJT	12
JAT	12
JAN	12
JTU	12
JGL	12
JGD	12
JGC	12
JGI	12
JVQ	12
JVH	12
JNJ	12
JNI	12
JNR	12
JFL	12
JQG	12
JQE	12
JQO	12
JQU	12
JLF	12
JLI	12
JDJ	12
JDM	12
JDN	12
JDX	12
JCG	12
JBG	12
JIG	12
JHN	12
JOJ	12
JOX	12
JUK	12
JXS	12
JXF	12
JXK	12
JXH	12
JXR	12
JRK	12
JRH	12
JWU	12
AJN	12
ATJ	12
ATI	12
AMJ	12
AMV	12
AMO	12
AMU	12
AMR	12
APT	12
APU	12
ASM	12
AVM	12
AVV	12
AVQ	12
AVX	12
ANG	12
ANS	12
AQW	12
ALO	12
AKU	12
AIN	12
AIX	12
AOJ	12
AOG	12
AOL	12
AOC	12
AOO	12
AOU	12
AUJ	12
AXL	12
ARL	12
AWX	12
TJT	12
TGF	12
TGC	12
TGR	12
TMI	12
TPQ	12
TPB	12
TPH	12
TVQ	12
TVH	12
TNH	12
TFR	12
TQJ	12
TEI	12
TLB	12
TLH	12
TLR	12
TKA	12
TKE	12
TCL	12
TIM	12
TIQ	12
TIR	12
THI	12
THW	12
TOP	12
TUG	12
TUL	12
TXN	12
GJJ	12
GGQ	12
GMF	12
GMK	12
GPT	12
GPN	12
GPF	12
GPX	12
GSS	12
GLJ	12
GLL	12
GKD	12
GKB	12
GDK	12
GDI	12
GCM	12
GBL	12
GBO	12
GBW	12
GOM	12
GOL	12
GOI	12
GUJ	12
GXO	12
GRT	12
GRI	12
GWF	12
MJG	12
MAT	12
MTN	12
MTF	12
MTI	12
MGK	12
MGO	12
MGU	12
MPG	12
MSG	12
MSN	12
MSF	12
MSU	12
MVC	12
MVR	12
MFV	12
MLT	12
MDX	12
MCS	12
MCU	12
MIR	12
MHJ	12
MHN	12
MHO	12
MOW	12
MUR	12
MUW	12
MXM	12
MXU	12
MXW	12
MRP	12
MRS	12
MRD	12
MWA	12
PJA	12
PJG	12
PAQ	12
PAK	12
PAO	12
PTM	12
PTC	12
PTH	12
PGN	12
PGC	12
PGU	12
PMG	12
PPR	12
PSV	12
PVJ	12
PVT	12
PVV	12
PVN	12
PVQ	12
PVX	12
PNT	12
PFS	12
PQV	12
PQN	12
PEJ	12
PES	12
PEU	12
PLF	12
PLC	12
PKA	12
PKG	12
PCG	12
PBG	12
PBS	12
PBU	12
POG	12
PUF	12
PUQ	12
PUB	12
PXN	12
PRA	12
PRQ	12
PRE	12
PRI	12
SJP	12
SJF	12
SAM	12
SAV	12
SAN	12
SAI	12
STI	12
SPF	12
SSN	12
SVA	12
SVP	12
SNS	12
SNC	12
SNB	12
SNI	12
SFM	12
SQG	12
SEM	12
SKW	12
SIL	12
SHP	12
SXM	12
SXO	12
VGG	12
VMJ	12
VME	12
VPA	12
VPP	12
VPF	12
VPC	12
VSF	12
VNL	12
VFT	12
VFS	12
VFN	12
VFQ	12
VQP	12
VQB	12
VEP	12
VLM	12
VKL	12
VDJ	12
VDV	12
VDK	12
VCV	12
VCK	12
VBX	12
VIJ	12
VII	12
VHM	12
VHN	12
VHK	12
VXK	12
VXW	12
VRA	12
VRF	12
VWR	12
NJD	12
NJB	12
NJH	12
NAX	12
NTE	12
NTC	12
NTI	12
NGA	12
NMO	12
NPB	12
NSL	12
NVM	12
NNA	12
NNK	12
NFB	12
NFU	12
NFX	12
NQB	12
NQU	12
NEQ	12
NCN	12
NBG	12
NBQ	12
NBI	12
NIC	12
NXJ	12
NXE	12
NXI	12
NRC	12
FJP	12
FJU	12
FTL	12
FGX	12
FPR	12
FVS	12
FVK	12
FNL	12
FEW	12
FDW	12
FIM	12
FIB	12
FUN	12
FUK	12
FUW	12
FXG	12
FXI	12
FWE	12
QJP	12
QJD	12
QJB	12
QTJ	12
QGM	12
QGR	12
QMJ	12
QMB	12
QPT	12
QPG	12
QPR	12
QSG	12
QVM	12
QVB	12
QVI	12
QNJ	12
QNN	12
QNX	12
QNR	12
QFP	12
QFI	12
QQW	12
QKQ	12
QDL	12
QCJ	12
QCP	12
QBM	12
QBV	12
QIK	12
QHL	12
QHW	12
QOJ	12
QUJ	12
QUP	12
QUF	12
QWH	12
EJG	12
EJO	12
ETM	12
EMX	12
EPL	12
ESM	12
ESW	12
EVP	12
EVN	12
EFO	12
ELV	12
EKV	12
EKR	12
EIX	12
EOM	12
EXN	12
EXL	12
ERJ	12
ERM	12
ERX	12
LAS	12
LAV	12
LAU	12
LAW	12
LTJ	12
LTA	12
LTT	12
LTM	12
LTN	12
LTQ	12
LTB	12
LTH	12
LTO	12
LTU	12
LGL	12
LPG	12
LSN	12
LSH	12
LVD	12
LVH	12
LNA	12
LNK	12
LNH	12
LFJ	12
LFI	12
LQX	12
LEP	12
LER	12
LDN	12
LDU	12
LBF	12
LIF	12
LIE	12
LIC	12
LOJ	12
LOH	12
LUC	12
LUO	12
LUR	12
LRF	12
KAT	12
KTN	12
KGM	12
KGP	12
KMO	12
KMR	12
KPG	12
KSM	12
KVJ	12
KVN	12
KFL	12
KFK	12
KQU	12
KQR	12
KQW	12
KEX	12
KDT	12
KDQ	12
KCG	12
KCU	12
KBR	12
KHN	12
KHO	12
KHX	12
KOA	12
KOL	12
KOR	12
KUL	12
KUK	12
KRM	12
KRB	12
KWR	12
DJU	12
DAN	12
DAW	12
DTP	12
DGM	12
DGS	12
DPR	12
DVT	12
DVM	12
DVQ	12
DVR	12
DQK	12
DQW	12
DKQ	12
DIP	12
DOG	12
DOD	12
DUN	12
DRV	12
DWB	12
CJN	12
CJX	12
CGS	12
CMT	12
CMV	12
CMR	12
CPL	12
CSV	12
CSN	12
CSL	12
CVG	12
CVN	12
CVL	12
CNU	12
CNX	12
CQK	12
CLO	12
CIO	12
CHW	12
CUR	12
CUW	12
CRN	12
CWG	12
BJU	12
BTI	12
BGK	12
BGO	12
BPO	12
BVX	12
BNK	12
BNB	12
BFJ	12
BQW	12
BEO	12
BLS	12
BLN	12
BBO	12
BBW	12
BOE	12
BUJ	12
BRM	12
BWH	12
BWU	12
IAO	12
IAX	12
ITI	12
IMT	12
IMF	12
IMX	12
ISM	12
IVT	12
IVB	12
INA	12
IQN	12
IQL	12
IQO	12
IEV	12
IEX	12
IDV	12
IDN	12
ICS	12
IBN	12
IBQ	12
IBX	12
IOG	12
IOD	12
IOH	12
IOR	12
IUP	12
IXK	12
IXR	12
IRJ	12
IRO	12
IWQ	12
IWH	12
HJI	12
HTM	12
HMS	12
HSN	12
HSO	12
HVN	12
HVI	12
HLU	12
HLR	12
HIS	12
HIX	12
HOJ	12
HOU	12
HOX	12
HUJ	12
HUW	12
HXL	12
HXW	12
HRJ	12
HRT	12
HRI	12
HWC	12
OJP	12
OJB	12
OTB	12
OGD	12
OGC	12
OGR	12
OMD	12
OMR	12
OLK	12
OLB	12
OKJ	12
OKM	12
ODG	12
ODX	12
OCA	12
OBG	12
OBM	12
OBD	12
OHQ	12
OHC	12
OOA	12
OUM	12
OUL	12
OUC	12
OXE	12
OXB	12
OXO	12
ORI	12
OWU	12
UJU	12
UAM	12
UAP	12
UAS	12
UAK	12
UAI	12
UAW	12
UGM	12
UGP	12
UMR	12
UPD	12
UPO	12
USK	12
UNN	12
UFJ	12
UFU	12
ULT	12
ULX	12
ULR	12
UKF	12
UKH	12
UKX	12
UDP	12
UCJ	12
UCO	12
UCW	12
UBJ	12
UBW	12
UHK	12
UHW	12
UOH	12
UUP	12
UUK	12
UXK	12
URT	12
XJP	12
XJU	12
XTI	12
XGQ	12
XGW	12
XMF	12
XMB	12
XMU	12
XPG	12
XSI	12
XVA	12
XNN	12
XNK	12
XND	12
XFK	12
XQG	12
XQL	12
XLG	12
XLK	12
XDT	12
XDM	12
XDP	12
XBV	12
XBK	12
XIF	12
XIL	12
XIX	12
XHN	12
XHW	12
XOO	12
XRM	12
XRP	12
XRK	12
XRI	12
XWJ	12
RJH	12
RAI	12
RTF	12
RTK	12
RGG	12
RGS	12
RGU	12
RMJ	12
RMO	12
RPK	12
RPC	12
RPB	12
RPH	12
RVV	12
RVC	12
RNU	12
RQL	12
REJ	12
REM	12
REK	12
RLJ	12
RLK	12
RKA	12
RKU	12
RKR	12
RDG	12
RDM	12
RDV	12
RBI	12
RIH	12
RHM	12
RHL	12
RXG	12
RXF	12
RRF	12
RRW	12
WAS	12
WGT	12
WGM	12
WGB	12
WMU	12
WPJ	12
WPL	12
WSQ	12
WQA	12
WQR	12
WEQ	12
WER	12
WEW	12
WCC	12
WBX	12
WHS	12
WHI	12
WHX	12
WUG	12
WUP	12
WXF	12
WRA	12
WRI	12
WRH	12
WRX	12
WRW	12
WWE	12
JTT	11
JVU	11
JOT	11
JRP	11
TTJ	11
TTP	11
TNS	11
TKV	11
TCJ	11
TIK	11
TOX	11
GQS	11
MJQ	11
MSM	11
PQW	11
PRS	11
SVW	11
SNX	11
SQO	11
SLR	11
SUJ	11
VJN	11
VPS	11
VVW	11
VQF	11
VLS	11
VLI	11
VKH	11
VIR	11
VWQ	11
NTT	11
NQV	11
NUG	11
NUV	11
QQN	11
QKU	11
QOS	11
QOQ	11
ESO	11
LVL	11
LQK	11
LIU	11
KTH	11
KSX	11
KEU	11
KUQ	11
DLS	11
DRI	11
CJV	11
CMS	11
CXJ	11
BIV	11
ISS	11
ISB	11
IVS	11
HVJ	11
OTU	11
UNQ	11
UIS	11
XTW	11
XUK	11
XWW	11
RJX	11
RPX	11
RPR	11
RSW	11
RVQ	11
RQO	11
REX	11
RUN	11
RXM	11
RXP	11
RXN	11
WMP	11
WXI	11
WRT	11
WWR	11
AQN	10
TFQ	10
GCS	10
SMA	10
VSP	10
VWI	10
NDK	10
FKM	10
QMF	10
QSK	10
LHV	10
COO	10
BQO	10
ISX	10
RVT	10
JJF	9
JAU	9
JTA	9
JTF	9
JTK	9
JTD	9
JMT	9
JMR	9
JPX	9
JPW	9
JVC	9
JNA	9
JNT	9
JNF	9
JNQ	9
JNE	9
JFK	9
JFC	9
JQD	9
JEJ	9
JET	9
JES	9
JEN	9
JER	9
JLT	9
JDQ	9
JDU	9
JCT	9
JCO	9
JCU	9
JBP	9
JBS	9
JIF	9
JHT	9
JOG	9
JOM	9
JOH	9
JUX	9
JXV	9
JXD	9
JXU	9
JXW	9
JRT	9
JRF	9
JRU	9
JWR	9
AJT	9
AGV	9
AMX	9
APV	9
ASP	9
ASN	9
ASK	9
AVS	9
AVI	9
AVR	9
ANK	9
ANI	9
ANU	9
ALQ	9
AKV	9
AIS	9
AIW	9
AXO	9
ARP	9
ARW	9
AWT	9
TJA	9
TJB	9
TAM	9
TTW	9
TGT	9
TGU	9
TMJ	9
TMT	9
TPG	9
TPE	9
TPD	9
TPU	9
TVJ	9
TVF	9
TNA	9
TNT	9
TNG	9
TNN	9
TFP	9
TFI	9
TQM	9
TEM	9
TEO	9
TLF	9
TDN	9
TIA	9
TII	9
THL	9
TOH	9
TXL	9
TRG	9
TWX	9
GJF	9
GJQ	9
GJL	9
GJR	9
GAV	9
GAO	9
GTT	9
GTU	9
GGI	9
GPU	9
GSR	9
GNA	9
GQX	9
GQR	9
GKA	9
GKP	9
GKE	9
GKK	9
GKC	9
GDW	9
GCK	9
GCO	9
GCW	9
GIM	9
GIL	9
GIU	9
GOP	9
GOK	9
GOC	9
GOU	9
GUV	9
GXJ	9
GXI	9
GRJ	9
GRM	9
GRP	9
GWM	9
GWD	9
GWR	9
MJF	9
MJH	9
MTJ	9
MTV	9
MTR	9
MGJ	9
MGX	9
MPT	9
MPX	9
MSP	9
MSL	9
MSD	9
MSH	9
MVS	9
MVF	9
MNG	9
MNQ	9
MFJ	9
MFN	9
MFQ	9
MFX	9
MQN	9
MET	9
MKG	9
MDV	9
MDQ	9
MDU	9
MCX	9
MCR	9
MBP	9
MBN	9
MBO	9
MBW	9
MHP	9
MXA	9
MXT	9
MRJ	9
MRE	9
MRH	9
MWJ	9
MWP	9
MWQ	9
MWX	9
PJT	9
PJN	9
PJX	9
PAT	9
PTJ	9
PTT	9
PTK	9
PTI	9
PGL	9
PMX	9
PSF	9
PVP	9
PFJ	9
PFN	9
PFQ	9
PFL	9
PFB	9
PFI	9
PFU	9
PEV	9
PEW	9
PLA	9
PDV	9
PDN	9
PDU	9
PBN	9
PBX	9
PHU	9
PHW	9
POR	9
PUE	9
PUU	9
PXD	9
PXC	9
PRJ	9
PRK	9
PWO	9
SAK	9
SGX	9
SMJ	9
SMP	9
SMK	9
SMH	9
SPL	9
SVN	9
SNV	9
SNU	9
SFP	9
SFN	9
SEN	9
SEK	9
SLJ	9
SLE	9
SLI	9
SKQ	9
SDK	9
SDI	9
SCM	9
SCI	9
SCO	9
SBN	9
SBW	9
SIM	9
SHI	9
SOT	9
SOG	9
SOL	9
SUP	9
SWM	9
SWU	9
VJA	9
VAG	9
VAP	9
VAV	9
VAI	9
VAR	9
VTG	9
VTM	9
VTV	9
VTN	9
VTF	9
VTE	9
VTD	9
VTH	9
VGA	9
VGB	9
VMA	9
VMB	9
VMR	9
VPX	9
VVM	9
VVP	9
VVN	9
VNQ	9
VFK	9
VQD	9
VQH	9
VEV	9
VLE	9
VLC	9
VKJ	9
VKV	9
VKK	9
VKD	9
VKC	9
VCX	9
VBT	9
VBN	9
VBK	9
VBR	9
VIA	9
VIL	9
VUG	9
VUP	9
VXJ	9
VXG	9
VXP	9
VXN	9
VXF	9
VXI	9
VRM	9
NAK	9
NTD	9
NTU	9
NTR	9
NPU	9
NST	9
NSM	9
NSP	9
NSE	9
NSD	9
NNT	9
NNS	9
NNC	9
NFS	9
NFK	9
NQC	9
NEI	9
NLO	9
NKT	9
NDI	9
NCS	9
NBK	9
NBU	9
NIS	9
NIH	9
NIX	9
NIR	9
NHG	9
NHN	9
NHU	9
NOJ	9
NUA	9
NUB	9
NXA	9
NXQ	9
NXD	9
NXU	9
NXR	9
FTG	9
FTK	9
FTI	9
FTU	9
FMJ	9
FMS	9
FMR	9
FPN	9
FVJ	9
FVR	9
FNS	9
FNU	9
FNX	9
FNR	9
FFW	9
FQU	9
FLT	9
FLV	9
FLQ	9
FLI	9
FKT	9
FKI	9
FCM	9
FIG	9
FIK	9
FUP	9
FXM	9
FXN	9
FXR	9
FRJ	9
FRK	9
FWC	9
QJF	9
QAN	9
QAO	9
QGL	9
QGW	9
QSH	9
QVG	9
QNQ	9
QNC	9
QNU	9
QFM	9
QFL	9
QEN	9
QLV	9
QLF	9
QLB	9
QLR	9
QKA	9
QKR	9
QDM	9
QDP	9
QDN	9
QDI	9
QBN	9
QBW	9
QIW	9
QHJ	9
QHM	9
QHO	9
QXJ	9
QXM	9
QRG	9
QWG	9
QWB	9
ETJ	9
ETV	9
EPX	9
ESP	9
ESI	9
EVK	9
ENX	9
EQJ	9
EKX	9
EDW	9
EIV	9
EIW	9
EOX	9
EXM	9
EXO	9
ERV	9
LJV	9
LAT	9
LTX	9
LTR	9
LGG	9
LMS	9
LVI	9
LFQ	9
LFK	9
LQL	9
LLQ	9
LDO	9
LCV	9
LCO	9
LBG	9
LIX	9
LIR	9
LHT	9
LHS	9
LOK	9
LOD	9
LUG	9
LUX	9
LXN	9
LRJ	9
LRC	9
KJW	9
KAG	9
KAQ	9
KAU	9
KGG	9
KGU	9
KGX	9
KMT	9
KMW	9
KPX	9
KSP	9
KSQ	9
KSH	9
KVK	9
KNO	9
KFV	9
KFN	9
KQK	9
KQD	9
KES	9
KEV	9
KEO	9
KEW	9
KLG	9
KLO	9
KDN	9
KDR	9
KCW	9
KHJ	9
KOW	9
KUP	9
KUX	9
KXB	9
KXH	9
KXU	9
KXX	9
KXW	9
KRD	9
KRR	9
KWE	9
KWK	9
KWO	9
DTJ	9
DTM	9
DSN	9
DVJ	9
DKV	9
DDO	9
DIN	9
DIR	9
DIW	9
DOA	9
DOC	9
DUJ	9
DXJ	9
DRM	9
DRK	9
DWT	9
DWG	9
DWD	9
DWX	9
DWR	9
DWW	9
CJT	9
CJO	9
CTN	9
CGL	9
CGI	9
CGO	9
CPO	9
CPX	9
CSO	9
CNG	9
CNQ	9
CNR	9
CFW	9
CKQ	9
CKU	9
CIS	9
CIV	9
COC	9
CUL	9
CXN	9
CXL	9
CXO	9
CRL	9
CWM	9
CWF	9
CWC	9
BJX	9
BTP	9
BTK	9
BGT	9
BGS	9
BGQ	9
BGL	9
BMP	9
BMX	9
BPU	9
BVA	9
BVP	9
BVQ	9
BVK	9
BVR	9
BNJ	9
BNI	9
BFI	9
BLT	9
BLQ	9
BLU	9
BLR	9
BDO	9
BDW	9
BIS	9
BOA	9
BOP	9
BOX	9
BXW	9
BRT	9
BRP	9
BRV	9
BRO	9
BWW	9
IJV	9
IAV	9
ITR	9
IGC	9
IGX	9
IMV	9
IST	9
ISQ	9
IVA	9
IVN	9
IVK	9
IVC	9
INF	9
INH	9
IFV	9
IET	9
IEP	9
IEU	9
ILV	9
ILR	9
IKS	9
IKF	9
IDI	9
IDO	9
IDX	9
ICT	9
ICR	9
IBO	9
IBR	9
IIS	9
IHR	9
IOC	9
IOB	9
IUJ	9
IUX	9
IXT	9
IXG	9
IXL	9
IRF	9
IRL	9
HJN	9
HJQ	9
HJX	9
HJR	9
HTJ	9
HTP	9
HGV	9
HMO	9
HMU	9
HMW	9
HPU	9
HSW	9
HNS	9
HNU	9
HQO	9
HLN	9
HLQ	9
HKU	9
HKR	9
HDO	9
HCO	9
HBW	9
HON	9
HOF	9
HOQ	9
HOI	9
HUP	9
HXN	9
HWM	9
HWF	9
HWW	9
OJL	9
OMH	9
OPD	9
OPC	9
OQH	9
OEL	9
OEO	9
OEW	9
OLD	9
OKP	9
ODA	9
ODM	9
ODI	9
OCJ	9
OCX	9
OBF	9
OBU	9
OIE	9
OIH	9
OIR	9
OHI	9
OUK	9
OUX	9
ORJ	9
ORK	9
ORB	9
ORH	9
ORU	9
OWJ	9
OWM	9
UAJ	9
UTG	9
UGJ	9
UGX	9
UMG	9
UPU	9
USG	9
USN	9
USI	9
UVC	9
UNJ	9
UNB	9
UNH	9
UFM	9
UQG	9
ULJ	9
ULG	9
UBP	9
UBK	9
UIF	9
UHL	9
UXG	9
UXM	9
UXP	9
UXL	9
URJ	9
URG	9
UWM	9
UWV	9
UWD	9
UWW	9
XAM	9
XTG	9
XGT	9
XGR	9
XMT	9
XME	9
XMO	9
XPJ	9
XPT	9
XPE	9
XNS	9
XNI	9
XNH	9
XNX	9
XFI	9
XFR	9
XQO	9
XEP	9
XLT	9
XLP	9
XLD	9
XKT	9
XKH	9
XDV	9
XDN	9
XDI	9
XBT	9
XBI	9
XIE	9
XRW	9
XWQ	9
RJC	9
RAM	9
RAK	9
RTG	9
RTM	9
RTV	9
RGJ	9
RGP	9
RGD	9
RGX	9
RMV	9
RMF	9
RMC	9
RMB	9
RPG	9
RPO	9
RPU	9
RSN	9
RVA	9
RVM	9
RVP	9
RNS	9
RNF	9
RFT	9
RET	9
REV	9
RLX	9
RKO	9
RDS	9
RDI	9
RCN	9
RBT	9
RBL	9
RIS	9
RIV	9
RIF	9
RIE	9
RHK	9
ROM	9
RUP	9
RUL	9
RXO	9
WJB	9
WAX	9
WTK	9
WTD	9
WTH	9
WGD	9
WMQ	9
WMX	9
WPH	9
WPO	9
WSS	9
WSU	9
WVM	9
WVC	9
WFF	9
WQT	9
WQG	9
WQB	9
WEF	9
WDG	9
WCS	9
WCD	9
WCR	9
WCW	9
WBT	9
WBS	9
WBF	9
WOX	9
WUK	9
WXN	9
WRM	9
WRD	9
WRC	9
WWB	9
JTJ	8
JTS	8
JVW	8
TMS	8
TEL	8
MUO	8
PVS	8
PRU	8
STN	8
SVM	8
SEP	8
VIU	8
NTV	8
NKR	8
NRS	8
FVL	8
LPV	8
LNR	8
LQS	8
LHU	8
KSU	8
KHV	8
DSL	8
ISV	8
IVV	8
IQV	8
ICU	8
IRT	8
IRV	8
OSM	8
OCQ	8
UTO	8
ULV	8
UKS	8
XJL	8
XPR	8
XWS	8
RXW	8
RWQ	8
WTQ	8
WMT	8
WXJ	8
WXL	8
WXO	8
WWJ	8
THR	7
MIV	7
SIE	7
NSA	7
ISC	7
IUF	7
XGF	7
JTG	6
JTM	6
JTE	6
JTH	6
JGA	6
JGK	6
JGX	6
JPT	6
JPV	6
JSO	6
JVG	6
JVM	6
JVI	6
JVX	6
JND	6
JNB	6
JNX	6
JFS	6
JFI	6
JFU	6
JQV	6
JQN	6
JEV	6
JEX	6
JLO	6
JDL	6
JBT	6
JBN	6
JBU	6
JIS	6
JHP	6
JHL	6
JOB	6
JOU	6
JOR	6
JUS	6
JUW	6
JXT	6
JXG	6
JRG	6
JRL	6
JRX	6
AJV	6
AJO	6
ASI	6
ASO	6
AVG	6
AVP	6
AVN	6
ANJ	6
ANR	6
AFW	6
AKO	6
AIO	6
AOM	6
AUN	6
ARV	6
ARN	6
AWJ	6
AWS	6
AWL	6
AWW	6
TJF	6
TJD	6
TJU	6
TJR	6
TAK	6
TAW	6
TGM	6
TGS	6
TMG	6
TMF	6
TMC	6
TMR	6
TPF	6
TPO	6
TNJ	6
TNL	6
TNX	6
TFG	6
TFL	6
TFK	6
TFX	6
TQG	6
TEJ	6
TEP	6
TEW	6
TLP	6
TLQ	6
TLI	6
TKG	6
TKO	6
TDP	6
TDV	6
TDW	6
TCG	6
TCM	6
TCI	6
TCW	6
TBV	6
TBI	6
TBO	6
TIH	6
TIO	6
TIX	6
THM	6
THV	6
TOS	6
TOL	6
TOU	6
TRJ	6
TRF	6
TWV	6
TWD	6
TWC	6
TWH	6
TWR	6
TWW	6
GTL	6
GTK	6
GMQ	6
GMR	6
GSQ	6
GSH	6
GSX	6
GSW	6
GVV	6
GVE	6
GVX	6
GVW	6
GFM	6
GFL	6
GFU	6
GFX	6
GFW	6
GQV	6
GEN	6
GLT	6
GLM	6
GLP	6
GLE	6
GDV	6
GCV	6
GCL	6
GCI	6
GBT	6
GBV	6
GIP	6
GIF	6
GIQ	6
GIO	6
GOJ	6
GOX	6
GXL	6
GRF	6
GRW	6
GWX	6
GWW	6
MJV	6
MJR	6
MAR	6
MAW	6
MTO	6
MGQ	6
MGD	6
MGR	6
MPD	6
MPW	6
MSO	6
MSX	6
MVJ	6
MVT	6
MVG	6
MVQ	6
MVK	6
MVI	6
MVW	6
MFT	6
MFS	6
MFR	6
MQW	6
MLV	6
MKU	6
MBU	6
MHT	6
MHR	6
MOK	6
MUV	6
MUX	6
MXD	6
MXB	6
MXO	6
MXX	6
MRN	6
MRO	6
MRX	6
MWV	6
MWH	6
MWO	6
MWW	6
PJO	6
PAS	6
PTS	6
PTF	6
PTU	6
PGJ	6
PGF	6
PGI	6
PGO	6
PPU	6
PPW	6
PSW	6
PVF	6
PVK	6
PVC	6
PVB	6
PNV	6
PQK	6
PQO	6
PER	6
PLT	6
PLG	6
PLR	6
PDO	6
PDR	6
PCU	6
PBT	6
PBQ	6
POF	6
POQ	6
POB	6
POW	6
PUG	6
PUP	6
PUN	6
PUC	6
PUO	6
PUR	6
PXJ	6
PXG	6
PXL	6
PXR	6
PRT	6
PRL	6
PRH	6
PWB	6
PWI	6
SJV	6
SJN	6
SJH	6
SAO	6
STG	6
STO	6
SGP	6
SGO	6
SGW	6
SMS	6
SMO	6
SMR	6
SPV	6
SPR	6
SVJ	6
SVG	6
SVL	6
SVO	6
SNA	6
SNP	6
SNF	6
SNQ	6
SNE	6
SND	6
SFL	6
SFK	6
SEJ	6
SEL	6
SEI	6
SLD	6
SLH	6
SKU	6
SDV	6
SIG	6
SIS	6
SIW	6
SHN	6
SHO	6
SHW	6
SOE	6
SOH	6
SOX	6
SOR	6
SWE	6
SWC	6
VJM	6
VJS	6
VJF	6
VJL	6
VJI	6
VAJ	6
VAK	6
VAW	6
VTJ	6
VTK	6
VGE	6
VGK	6
VGC	6
VGU	6
VMV	6
VMH	6
VPT	6
VPU	6
VSJ	6
VSL	6
VNA	6
VNE	6
VND	6
VNC	6
VNX	6
VFM	6
VQM	6
VEK	6
VER	6
VLQ	6
VLL	6
VLH	6
VKP	6
VKE	6
VKB	6
VKI	6
VKU	6
VKR	6
VDG	6
VCM	6
VCN	6
VBG	6
VBP	6
VIQ	6
VID	6
VIH	6
VHP	6
VHV	6
VHI	6
VUO	6
VXL	6
VRJ	6
VRT	6
VRG	6
VRP	6
VRH	6
VWH	6
VWU	6
NJF	6
NJQ	6
NJU	6
NAG	6
NAV	6
NAU	6
NAR	6
NTP	6
NTN	6
NTF	6
NTQ	6
NGM	6
NGC	6
NGH	6
NMG	6
NPX	6
NSJ	6
NSI	6
NSR	6
NVP	6
NVC	6
NVB	6
NNV	6
NNQ	6
NNW	6
NFT	6
NFR	6
NQJ	6
NQE	6
NQH	6
NQR	6
NLT	6
NLV	6
NKE	6
NKB	6
NDU	6
NBJ	6
NBP	6
NBV	6
NBN	6
NBR	6
NIM	6
NIV	6
NIQ	6
NIE	6
NHT	6
NHS	6
NOH	6
NUJ	6
NUP	6
NUH	6
NUO	6
NUR	6
NXT	6
NXF	6
NXW	6
NRP	6
NRV	6
NRE	6
NRD	6
NWC	6
FJT	6
FJL	6
FJX	6
FJR	6
FTJ	6
FTM	6
FGM	6
FMG	6
FPL	6
FPO	6
FPU	6
FSL	6
FVI	6
FNT	6
FQV	6
FQL	6
FLP	6
FLS	6
FLU	6
FKS	6
FKV	6
FKN	6
FKQ	6
FIQ	6
FHO	6
FHW	6
FOG	6
FOO	6
FUR	6
FXJ	6
FXO	6
FRT	6
FRP	6
FRI	6
FWG	6
FWR	6
QJA	6
QJV	6
QGS	6
QMW	6
QSP	6
QSN	6
QNA	6
QNT	6
QNM	6
QNB	6
QFG	6
QFN	6
QEP	6
QEL	6
QEW	6
QLT	6
QLN	6
QLO	6
QKP	6
QKE	6
QKH	6
QDJ	6
QCN	6
QCK	6
QCO	6
QBO	6
QIG	6
QHK	6
QOA	6
QOL	6
QOI	6
QOR	6
QRM	6
QRV	6
QRN	6
QRW	6
QWJ	6
QWT	6
QWP	6
QWL	6
EJV	6
EJN	6
EJQ	6
EJL	6
EJX	6
EPQ	6
ESL	6
EVI	6
EKO	6
EKW	6
EIU	6
EOW	6
EXJ	6
ERP	6
ERK	6
ERI	6
ERW	6
EWS	6
EWO	6
LJT	6
LJF	6
LAN	6
LAR	6
LGJ	6
LGM	6
LGX	6
LPT	6
LPW	6
LSV	6
LSF	6
LVT	6
LVP	6
LVF	6
LNQ	6
LND	6
LNU	6
LFV	6
LFU	6
LET	6
LDV	6
LCU	6
LBT	6
LBR	6
LIG	6
LIS	6
LUW	6
LXO	6
LRV	6
LRN	6
LRL	6
LWH	6
KJV	6
KAR	6
KTO	6
KTR	6
KGJ	6
KGS	6
KGO	6
KPR	6
KSF	6
KSO	6
KVP	6
KVV	6
KVQ	6
KNA	6
KNQ	6
KFT	6
KFQ	6
KFX	6
KQG	6
KQC	6
KKG	6
KBN	6
KBO	6
KBX	6
KOB	6
KUJ	6
KUN	6
KUW	6
KXM	6
KXD	6
KRP	6
KRV	6
KRN	6
KWB	6
KWH	6
KWU	6
KWX	6
DJT	6
DJX	6
DJR	6
DGL	6
DGK	6
DMW	6
DPT	6
DPV	6
DSW	6
DNV	6
DNI	6
DNX	6
DNR	6
DQP	6
DQN	6
DQL	6
DLQ	6
DKO	6
DKW	6
DIQ	6
DIX	6
DHW	6
DOM	6
DOL	6
DXN	6
DRJ	6
DRP	6
DRW	6
DWA	6
DWQ	6
CPU	6
CVJ	6
CVK	6
CVW	6
CNP	6
CNI	6
CFO	6
CQW	6
CIN	6
CIW	6
COI	6
CUJ	6
CUN	6
CUO	6
CXW	6
CRW	6
CWW	6
BJN	6
BTJ	6
BTL	6
BTW	6
BGV	6
BMR	6
BSO	6
BVM	6
BVN	6
BQL	6
BKO	6
BOJ	6
BOO	6
BOU	6
BUN	6
BUO	6
BXJ	6
BXO	6
BRN	6
BRL	6
BRW	6
BWJ	6
BWT	6
BWQ	6
BWR	6
IJG	6
IJW	6
ITG	6
IGI	6
IGU	6
IGR	6
IMG	6
IMW	6
IPX	6
ISP	6
ISI	6
IVH	6
IVX	6
INO	6
IFG	6
IFM	6
IFS	6
IFQ	6
IFU	6
IEW	6
ILG	6
IKG	6
IDR	6
IIW	6
IHT	6
IHX	6
IOK	6
IUG	6
IUO	6
IUR	6
IUW	6
IXM	6
IXN	6
IXF	6
IXU	6
IWT	6
IWG	6
IWM	6
IWC	6
IWI	6
IWO	6
IWX	6
HJL	6
HJW	6
HTV	6
HTI	6
HMR	6
HPT	6
HSL	6
HVG	6
HVS	6
HVW	6
HNX	6
HLI	6
HKX	6
HIW	6
HOR	6
HUO	6
HRP	6
HRL	6
HWJ	6
HWV	6
OJN	6
OJD	6
OJX	6
OAF	6
OAO	6
OAU	6
OAR	6
OTM	6
OTP	6
OTN	6
OTL	6
OGU	6
OMT	6
OMC	6
OPT	6
OPW	6
OSQ	6
OSR	6
OVM	6
OQJ	6
OQP	6
OQB	6
OEA	6
OES	6
OEI	6
OLG	6
OLU	6
OLR	6
OKO	6
ODT	6
OCG	6
OCE	6
OCL	6
OCH	6
OBO	6
OBX	6
OIT	6
OIB	6
OHM	6
OHP	6
OHL	6
OHX	6
OOT	6
OOE	6
OOD	6
OOU	6
OOW	6
OUJ	6
OUT	6
OUV	6
OUD	6
OUB	6
OUI	6
OUH	6
OUO	6
OUW	6
OXR	6
ORP	6
ORQ	6
ORE	6
ORO	6
OWG	6
OWO	6
UJP	6
UJE	6
UJD	6
UJB	6
UAV	6
UGS	6
UPR	6
USJ	6
USO	6
UVP	6
UVN	6
UNT	6
UNS	6
UNU	6
UFG	6
UFN	6
UFR	6
ULF	6
ULO	6
UDN	6
UCM	6
UIG	6
UHT	6
UHM	6
UHN	6
UHI	6
UOJ	6
UOE	6
UOL	6
UOI	6
URF	6
UWJ	6
UWS	6
UWC	6
UWO	6
XAJ	6
XAN	6
XAK	6
XAO	6
XAW	6
XTM	6
XGJ	6
XGM	6
XGS	6
XGI	6
XMH	6
XMX	6
XMR	6
XPL	6
XVL	6
XNP	6
XNL	6
XFW	6
XEJ	6
XLJ	6
XLF	6
XLI	6
XLR	6
XKP	6
XKF	6
XDK	6
XCM	6
XCL	6
XBJ	6
XBL	6
XIS	6
XIC	6
XIW	6
XHK	6
XOA	6
XOT	6
XOC	6
XOW	6
XRF	6
XWG	6
XWK	6
RJG	6
RJP	6
RJO	6
RAO	6
RTA	6
RTL	6
RTR	6
RGV	6
RMT	6
RMS	6
RMN	6
RMD	6
RPJ	6
RPF	6
RPI	6
RVF	6
RVB	6
RVU	6
RNA	6
RNB	6
RFM	6
RFP	6
RFS	6
RFN	6
RFI	6
RFW	6
RQN	6
REP	6
REN	6
REL	6
RLA	6
RLS	6
RLD	6
RKP	6
RKF	6
RKQ	6
RKW	6
RCM	6
RCP	6
RBP	6
RBV	6
RBW	6
RIB	6
RIW	6
RHJ	6
RHT	6
RHN	6
RHW	6
ROH	6
RUK	6
RWA	6
RWE	6
RWC	6
RWI	6
RWW	6
WJP	6
WJL	6
WJI	6
WJR	6
WAT	6
WTP	6
WTN	6
WTB	6
WTO	6
WGP	6
WMC	6
WMB	6
WPM	6
WPP	6
WPK	6
WPC	6
WPU	6
WVW	6
WQP	6
WQS	6
WQC	6
WQI	6
WQU	6
WEJ	6
WEV	6
WEI	6
WLS	6
WLB	6
WLU	6
WLR	6
WKJ	6
WKM	6
WKB	6
WKI	6
WDP	6
WDQ	6
WCT	6
WCV	6
WIA	6
WII	6
WHT	6
WHP	6
WHR	6
WOJ	6
WOP	6
WOB	6
WOR	6
WUJ	6
WUF	6
WUO	6
WXG	6
WXD	6
WRG	6
WRP	6
WRK	6
WWS	6
WWQ	6
WWK	6
WWC	6
JVT	5
JVS	5
JVL	5
JNS	5
TJV	5
TPR	5
THP	5
TWM	5
TWS	5
MXR	5
PRV	5
PWS	5
SRO	5
SWT	5
SWO	5
VJT	5
VSO	5
VVL	5
VLV	5
VIV	5
NSQ	5
FQK	5
FIS	5
QJR	5
QVW	5
LVQ	5
LNT	5
LQM	5
BNQ	5
ISH	5
ISW	5
IRN	5
HVX	5
OTW	5
OSS	5
OSC	5
OQS	5
OLS	5
OUS	5
OWX	5
USF	5
UOC	5
XJT	5
XJO	5
XTL	5
RPS	5
RLR	5
RKX	5
ROW	5
RXJ	5
RXK	5
WQL	5
WQW	5
WIJ	5
WIK	5
WOC	5
MXK	4
VDI	4
IDQ	4
OGF	4
OUG	4
JAV	3
JAO	3
JAR	3
JTP	3
JTL	3
JTB	3
JTI	3
JTR	3
JGT	3
JGS	3
JGF	3
JGU	3
JGR	3
JMX	3
JMW	3
JSG	3
JSW	3
JVJ	3
JVA	3
JVV	3
JVN	3
JVK	3
JVB	3
JVR	3
JNH	3
JNO	3
JFJ	3
JFT	3
JFG	3
JFQ	3
JFX	3
JFR	3
JLG	3
JLS	3
JKG	3
JDT	3
JDV	3
JBV	3
JIW	3
JHV	3
JHO	3
JHU	3
JHR	3
JON	3
JOQ	3
JOE	3
JOL	3
JOK	3
JOC	3
JUR	3
JXJ	3
JXN	3
JRN	3
JRW	3
JWJ	3
JWM	3
JWP	3
JWE	3
JWC	3
JWB	3
JWI	3
JWW	3
AJX	3
AJW	3
ATN	3
APR	3
ASJ	3
ASW	3
AVJ	3
AVL	3
AVK	3
AVO	3
AVW	3
ANT	3
ANV	3
ANQ	3
ANX	3
AQO	3
AKQ	3
AKX	3
AOT	3
AOV	3
AON	3
AOF	3
AOQ	3
ARO	3
AWM	3
AWV	3
AWF	3
AWK	3
TJN	3
TJH	3
TJX	3
TAP	3
TAN	3
TAL	3
TTN	3
TGJ	3
TGP	3
TGQ	3
TGI	3
TGW	3
TMB	3
TSO	3
TVG	3
TVP	3
TVL	3
TVC	3
TVI	3
TNV	3
TNF	3
TND	3
TNC	3
TNB	3
TNI	3
TFJ	3
TFM	3
TFW	3
TQO	3
TLA	3
TLG	3
TLV	3
TCP	3
TBN	3
TBL	3
TIT	3
TIG	3
TIF	3
TIE	3
THN	3
TOJ	3
TOA	3
TOB	3
TUO	3
TXO	3
TRP	3
TRO	3
TRW	3
TWJ	3
TWA	3
TWP	3
TWF	3
TWQ	3
TWE	3
TWL	3
TWB	3
TWO	3
GJP	3
GAN	3
GTQ	3
GGK	3
GMV	3
GMX	3
GSP	3
GSL	3
GSO	3
GSU	3
GVP	3
GVS	3
GVC	3
GVB	3
GNS	3
GNF	3
GNO	3
GFP	3
GFO	3
GQJ	3
GQP	3
GQW	3
GLQ	3
GLI	3
GLU	3
GLR	3
GKG	3
GKM	3
GKS	3
GKN	3
GKQ	3
GKL	3
GKU	3
GKX	3
GII	3
GIR	3
GOT	3
GOF	3
GOR	3
GUN	3
GUI	3
GUO	3
GUW	3
GRK	3
GRO	3
GWT	3
GWP	3
GWQ	3
GWC	3
MJT	3
MJD	3
MJO	3
MAV	3
MAU	3
MTG	3
MGS	3
MGL	3
MPV	3
MSW	3
MNW	3
MFG	3
MFI	3
MQV	3
MEV	3
MLG	3
MCO	3
MCW	3
MHX	3
MHW	3
MOT	3
MOS	3
MOQ	3
MUS	3
MXJ	3
MXG	3
MXP	3
MXN	3
MXL	3
MRG	3
MRV	3
MRL	3
MWL	3
MWD	3
MWI	3
PAV	3
PTN	3
PTQ	3
PTL	3
PTD	3
PTB	3
PTO	3
PTR	3
PGQ	3
PGK	3
PGR	3
PGW	3
PSG	3
PVA	3
PVG	3
PVL	3
PVI	3
PVH	3
PVR	3
PVW	3
PNQ	3
PNB	3
PNO	3
PNR	3
PNW	3
PFT	3
PFR	3
PQG	3
PET	3
PDJ	3
PDQ	3
PCV	3
PCQ	3
PBR	3
PBW	3
PHR	3
POA	3
POS	3
PUV	3
PUW	3
PXT	3
PXM	3
PXU	3
PRM	3
PRP	3
PRN	3
PRO	3
PRX	3
PWJ	3
PWA	3
PWT	3
PWM	3
PWN	3
PWQ	3
PWD	3
PWH	3
PWR	3
PWW	3
SJT	3
SJU	3
SAL	3
SGJ	3
SGT	3
SGM	3
SGS	3
SGF	3
SMW	3
SPT	3
SPU	3
SPX	3
SPW	3
SVK	3
SVI	3
SFQ	3
SFW	3
SLO	3
SKG	3
SKO	3
SDN	3
SDW	3
SCW	3
SBO	3
SIV	3
SIH	3
SIO	3
SHJ	3
SOJ	3
SOA	3
SOM	3
SOK	3
SOD	3
SOO	3
SUG	3
SUO	3
SWV	3
SWF	3
SWD	3
VJD	3
VJH	3
VJX	3
VAM	3
VAS	3
VAO	3
VGT	3
VGM	3
VGO	3
VGR	3
VMG	3
VMK	3
VMO	3
VPJ	3
VPG	3
VPV	3
VPD	3
VPB	3
VPR	3
VSG	3
VSM	3
VSI	3
VSW	3
VVK	3
VNJ	3
VNP	3
VNI	3
VFG	3
VFL	3
VFI	3
VQN	3
VEJ	3
VEO	3
VLA	3
VLN	3
VLF	3
VLK	3
VLB	3
VKS	3
VKN	3
VKQ	3
VKX	3
VDL	3
VCP	3
VCL	3
VCR	3
VBJ	3
VBW	3
VIT	3
VIG	3
VIP	3
VIN	3
VIF	3
VIK	3
VIB	3
VHL	3
VHR	3
VOT	3
VOP	3
VOD	3
VOB	3
VOU	3
VOX	3
VXM	3
VXO	3
VRV	3
VRN	3
VRW	3
VWJ	3
VWT	3
VWM	3
VWS	3
VWV	3
VWN	3
VWE	3
VWL	3
VWC	3
VWB	3
NJA	3
NJT	3
NJG	3
NJV	3
NAT	3
NAS	3
NTJ	3
NTA	3
NTB	3
NGG	3
NGQ	3
NGE	3
NGK	3
NGD	3
NGU	3
NMW	3
NPT	3
NSK	3
NVA	3
NVS	3
NVN	3
NVQ	3
NVI	3
NNG	3
NNR	3
NFJ	3
NFI	3
NQS	3
NQF	3
NQQ	3
NQI	3
NQX	3
NQW	3
NEV	3
NER	3
NLG	3
NKO	3
NDT	3
NDS	3
NDQ	3
NDR	3
NDW	3
NCG	3
NCQ	3
NCI	3
NCX	3
NCR	3
NBT	3
NBO	3
NIO	3
NHJ	3
NHV	3
NHL	3
NOI	3
NOX	3
NOR	3
NOW	3
NUN	3
NXG	3
NXB	3
NRT	3
NRK	3
NRB	3
NRU	3
NWG	3
NWM	3
NWE	3
NWO	3
FJN	3
FJQ	3
FAW	3
FTP	3
FGJ	3
FGQ	3
FGL	3
FGU	3
FGR	3
FMU	3
FMX	3
FMW	3
FPT	3
FPG	3
FPV	3
FSG	3
FSN	3
FNG	3
FFO	3
FQM	3
FQP	3
FQI	3
FQO	3
FLG	3
FKG	3
FKU	3
FKX	3
FKR	3
FDO	3
FBW	3
FIN	3
FIU	3
FIX	3
FOA	3
FOT	3
FON	3
FOC	3
FOB	3
FOX	3
FXP	3
FRV	3
FRN	3
FRL	3
FWA	3
FWT	3
FWV	3
FWL	3
FWD	3
FWB	3
FWH	3
FWO	3
QJT	3
QJG	3
QJN	3
QGJ	3
QGQ	3
QGK	3
QMG	3
QMX	3
QMR	3
QPB	3
QSM	3
QVN	3
QVL	3
QVK	3
QNP	3
QNW	3
QFJ	3
QFK	3
QEJ	3
QLG	3
QLW	3
QKG	3
QKV	3
QKN	3
QKF	3
QKX	3
QKW	3
QDK	3
QCL	3
QOT	3
QOM	3
QOF	3
QOB	3
QOU	3
QWA	3
QWS	3
QWK	3
QWD	3
QWC	3
QWO	3
ETO	3
ETW	3
EMV	3
EMW	3
EVO	3
EVW	3
EFW	3
EQW	3
ELO	3
ELW	3
EBN	3
EBO	3
EIS	3
EON	3
EOQ	3
EUO	3
ERN	3
ERL	3
EWJ	3
EWT	3
EWP	3
EWV	3
EWF	3
EWL	3
EWI	3
EWW	3
LJG	3
LJO	3
LAO	3
LAX	3
LTG	3
LTV	3
LTW	3
LGF	3
LGO	3
LGR	3
LGW	3
LVA	3
LVS	3
LVC	3
LVX	3
LNG	3
LFX	3
LFR	3
LQJ	3
LQN	3
LQO	3
LQW	3
LEO	3
LEW	3
LLV	3
LDG	3
LDQ	3
LCQ	3
LBV	3
LBO	3
LBW	3
LIV	3
LHR	3
LOT	3
LOE	3
LOO	3
LRG	3
LRK	3
LRB	3
LWG	3
LWD	3
KAV	3
KAW	3
KTG	3
KTV	3
KGQ	3
KPT	3
KPV	3
KPF	3
KPW	3
KSV	3
KSW	3
KVG	3
KVX	3
KVR	3
KVW	3
KNG	3
KFG	3
KFU	3
KFR	3
KQS	3
KQV	3
KLW	3
KKW	3
KDS	3
KDV	3
KDO	3
KCV	3
KBT	3
KHR	3
KHW	3
KOG	3
KON	3
KOE	3
KOD	3
KOI	3
KOX	3
KUA	3
KUS	3
KUF	3
KXO	3
KXR	3
KRT	3
KRF	3
KWJ	3
KWA	3
KWT	3
KWG	3
KWV	3
KWC	3
KWW	3
DJG	3
DJV	3
DJN	3
DJW	3
DTO	3
DGV	3
DMR	3
DVG	3
DVK	3
DVI	3
DNJ	3
DNT	3
DNK	3
DFW	3
DQO	3
DLO	3
DIG	3
DIO	3
DOE	3
DOX	3
DOR	3
DUO	3
DRN	3
DWS	3
DWC	3
DWO	3
CGW	3
CMX	3
CPT	3
CVI	3
CNJ	3
CNS	3
CNW	3
CQN	3
CKO	3
COT	3
COR	3
CRO	3
CWT	3
CWP	3
CWR	3
BTM	3
BGI	3
BGW	3
BMW	3
BVJ	3
BVI	3
BVO	3
BVW	3
BNT	3
BNV	3
BNN	3
BNX	3
BNR	3
BFO	3
BLG	3
BLW	3
BKW	3
BOQ	3
BOL	3
BOK	3
BOI	3
BOR	3
BWM	3
BWF	3
BWO	3
IJT	3
IAW	3
IGT	3
IGS	3
IGQ	3
IGL	3
ISN	3
ISF	3
ISL	3
IVG	3
IVP	3
IVD	3
IVI	3
INQ	3
IFT	3
IFR	3
IQG	3
IKV	3
IKU	3
ICX	3
ICW	3
IBV	3
IHW	3
ION	3
IUN	3
IWJ	3
IWA	3
IWS	3
IWV	3
IWN	3
IWL	3
IWK	3
IWD	3
HJT	3
HJS	3
HJV	3
HTN	3
HTW	3
HGN	3
HPV	3
HPR	3
HPW	3
HVL	3
HVK	3
HNT	3
HNG	3
HNQ	3
HFW	3
HQW	3
HLT	3
HLV	3
HOT	3
HOS	3
HOK	3
HUN	3
HXJ	3
HXO	3
HRV	3
HWQ	3
HWL	3
HWO	3
OJG	3
OJQ	3
OJC	3
OAJ	3
OAQ	3
OAL	3
OAC	3
OAX	3
OAW	3
OTJ	3
OTA	3
OTT	3
OTG	3
OTS	3
OTK	3
OTI	3
OTH	3
OGN	3
OGL	3
OGW	3
OMS	3
OMV	3
OSJ	3
OSB	3
OSI	3
OSU	3
OVG	3
ONA	3
ONP	3
ONN	3
ONL	3
ONI	3
ONH	3
ONU	3
ONX	3
OFD	3
OFC	3
OFH	3
OFO	3
OFU	3
OQA	3
OQD	3
OQR	3
OQW	3
OEF	3
OEK	3
OEU	3
OEX	3
OER	3
OLA	3
OLT	3
OLE	3
OLC	3
OLO	3
OKE	3
OKK	3
OKD	3
OKB	3
ODV	3
ODF	3
ODO	3
OCT	3
OCM	3
OCP	3
OCN	3
OCI	3
OCO	3
OCU	3
OBS	3
OBK	3
OBI	3
OBR	3
OBW	3
OIS	3
OIC	3
OIU	3
OIX	3
OHT	3
OHS	3
OOV	3
OOK	3
OUP	3
OUR	3
OXS	3
OXQ	3
OXU	3
ORG	3
ORM	3
ORV	3
ORF	3
OWE	3
OWB	3
OWH	3
UJG	3
UJV	3
UJF	3
UJH	3
UJO	3
UJX	3
UAN	3
UAL	3
UAO	3
UGT	3
UGF	3
UGO	3
UMW	3
UPT	3
UPV	3
UPE	3
UPL	3
USP	3
UVJ	3
UVG	3
UVK	3
UVO	3
UND	3
UNC	3
UNR	3
UFK	3
UFI	3
ULN	3
UKG	3
UDJ	3
UDI	3
UDO	3
UBN	3
UIO	3
UHJ	3
UHP	3
UHO	3
UOT	3
UOG	3
UOS	3
UOF	3
UOB	3
UXJ	3
UXO	3
URM	3
URP	3
URV	3
URN	3
URK	3
URO	3
UWL	3
UWI	3
XJG	3
XJD	3
XJB	3
XTJ	3
XTN	3
XTO	3
XGV	3
XGL	3
XGK	3
XGU	3
XMG	3
XSO	3
XVG	3
XVP	3
XVK	3
XNJ	3
XNA	3
XNG	3
XNQ	3
XNC	3
XFJ	3
XFG	3
XLA	3
XLV	3
XLC	3
XKO	3
XKU	3
XDJ	3
XCJ	3
XCO	3
XBO	3
XIN	3
XIO	3
XOS	3
XOV	3
XOQ	3
XOD	3
XOI	3
XOR	3
XUJ	3
XUO	3
XRG	3
XRN	3
XWF	3
RJT	3
RJV	3
RJN	3
RJF	3
RJL	3
RJD	3
RJW	3
RAN	3
RAL	3
RAW	3
RTJ	3
RTN	3
RTO	3
RGT	3
RGF	3
RGQ	3
RGW	3
RMG	3
RPT	3
RPV	3
RPN	3
RPE	3
RPD	3
RSO	3
RVJ	3
RVN	3
RVK	3
RVI	3
RVH	3
RVR	3
RNJ	3
RNN	3
RNL	3
RND	3
RNC	3
RNI	3
RNH	3
RNX	3
RNR	3
RFJ	3
RFG	3
RFV	3
RFL	3
RFR	3
REW	3
RLM	3
RLP	3
RLV	3
RLE	3
RLL	3
RLH	3
RLU	3
RDP	3
RDL	3
RDW	3
RCW	3
RIR	3
RHO	3
ROA	3
ROG	3
ROS	3
ROE	3
ROL	3
ROB	3
ROI	3
ROX	3
RUO	3
RRL	3
RRO	3
RWJ	3
RWT	3
RWG	3
RWP	3
RWS	3
RWV	3
RWK	3
RWD	3
RWB	3
RWO	3
WJA	3
WJG	3
WJM	3
WJS	3
WJN	3
WJE	3
WJC	3
WJH	3
WJO	3
WAJ	3
WAL	3
WAK	3
WAO	3
WAW	3
WTA	3
WTG	3
WTM	3
WTE	3
WTL	3
WTR	3
WGJ	3
WGS	3
WGF	3
WGQ	3
WGO	3
WGW	3
WMJ	3
WMA	3
WMD	3
WMW	3
WPA	3
WPD	3
WSP	3
WSE	3
WSR	3
WSW	3
WVT	3
WVP	3
WVS	3
WVV	3
WVF	3
WVE	3
WVD	3
WVR	3
WNM	3
WNU	3
WNX	3
WFS	3
WFQ	3
WFH	3
WFU	3
WFX	3
WQJ	3
WQM	3
WQV	3
WQH	3
WET	3
WEP	3
WEO	3
WLT	3
WLF	3
WLK	3
WLD	3
WLH	3
WKL	3
WKK	3
WKH	3
WDM	3
WDS	3
WDU	3
WDW	3
WCK	3
WCU	3
WCX	3
WBM	3
WBQ	3
WBL	3
WBK	3
WBI	3
WBW	3
WIP	3
WIN	3
WIE	3
WIC	3
WIU	3
WIX	3
WIR	3
WHJ	3
WHM	3
WHL	3
WHK	3
WOG	3
WOS	3
WOF	3
WOE	3
WOI	3
WOH	3
WOU	3
WOW	3
WUN	3
WUL	3
WRV	3
WRL	3
WRO	3
WWA	3
WWT	3
WWG	3
WWM	3
WWP	3
WWL	3
WWD	3
WWI	3
COS	2
OCS	2
OOS	2
NSH	1
OID	1
