to	5710
i	5528
the	5427
you	3591
of	3545
and	3300
a	2301
my	2241
it	2230
not	1977
me	1848
in	1781
is	1715
that	1711
be	1540
have	1387
her	1313
for	1291
but	1159
was	1156
this	1131
your	1113
will	1111
with	1107
as	1082
she	983
which	869
at	808
he	784
would	735
so	705
on	651
if	642
de	602
from	588
should	569
am	556
him	553
by	544
are	538
had	537
more	527
what	519
all	519
one	512
or	468
his	445
only	444
any	442
no	440
do	439
letter	427
an	423
shall	408
has	406
much	403
love	403
them	382
when	378
we	367
who	363
even	359
then	357
think	357
very	353
must	348
may	326
know	326
they	324
can	308
those	302
time	298
than	292
myself	289
friend	267
how	266
now	265
make	256
thing	252
been	252
give	252
did	251
could	249
every	248
some	242
without	234
madame	230
little	227
other	225
being	221
never	219
yet	218
us	214
most	212
see	209
our	204
first	202
there	202
valmont	199
such	196
were	188
well	185
own	181
dear	180
up	180
say	177
woman	176
their	176
danceny	176
perhaps	174
made	173
after	173
great	171
heart	170
least	170
viscount	164
take	163
volanges	162
nothing	162
however	161
still	160
out	155
day	151
same	151
let	148
believe	146
happiness	145
tell	141
pleasure	140
wish	139
ever	139
hope	137
always	135
having	134
good	133
before	131
longer	130
also	130
letters	129
friendship	128
soon	128
merteuil	125
adieu	123
return	123
thought	123
happy	121
into	120
m	117
its	116
cannot	116
word	115
too	112
write	111
find	110
leave	109
certainly	108
last	108
said	105
upon	105
about	104
does	104
answer	103
since	102
alone	102
paris	101
where	100
moment	100
come	100
yourself	100
project	99
might	99
man	99
taken	98
two	97
again	96
night	96
madam	96
reason	94
tender	94
often	93
thus	92
over	91
ought	91
women	91
long	90
cecilia	90
here	89
honour	89
go	89
way	88
whom	88
cause	88
morning	87
dont	87
tourvel	87
yesterday	87
right	87
marchioness	86
work	86
opportunity	85
received	85
left	85
means	84
idea	83
chevalier	83
herself	82
why	82
opinion	81
confidence	80
necessary	79
found	79
against	78
obliged	78
gave	77
put	77
presidente	77
sentiments	75
really	75
mind	75
already	74
like	74
use	73
lovely	73
told	73
until	72
read	72
certain	71
days	71
receive	71
wrote	71
given	71
many	70
dangerous	69
virtue	69
speak	69
able	69
another	69
once	69
sufficient	69
both	68
feel	68
dread	68
manner	68
new	68
far	68
ah	68
part	68
less	68
young	67
between	67
rather	67
rosemonde	66
eyes	66
passion	66
daughter	66
better	65
immediately	65
mine	65
enough	65
life	65
because	64
under	64
whole	63
done	63
each	62
doubt	61
whether	61
set	61
keep	61
true	60
came	60
whose	60
went	59
place	59
hand	59
prevan	59
power	58
whilst	58
object	58
mr	58
sir	58
himself	57
mother	57
business	57
notwithstanding	57
charming	57
forget	56
others	56
gutenbergtm	56
off	56
person	55
reasons	54
seeing	54
lover	54
resolution	54
back	54
sensible	54
unhappy	54
giving	54
sometimes	54
desire	53
took	53
bring	53
worthy	53
possible	53
easy	53
beg	53
conversation	52
bed	52
hear	52
company	51
occasion	51
uneasiness	51
assure	51
refuse	51
girl	51
sacrifice	50
informed	50
success	50
account	50
care	50
cant	50
gives	50
few	50
call	50
away	49
tears	49
expect	49
sentiment	49
aug	48
neither	48
conduct	48
almost	48
act	48
advice	48
mamma	47
kind	47
adventure	47
returned	47
imagine	47
look	47
consolation	46
determined	46
public	46
inform	46
dare	46
trouble	46
lost	46
evening	46
state	46
subject	46
want	46
suffer	45
nor	45
send	45
these	45
sept	45
entirely	45
greatest	45
promise	45
grief	45
conceive	45
experience	45
consequence	45
respect	44
men	44
consent	44
world	44
length	44
request	44
pleased	43
order	43
castle	43
present	43
become	43
just	43
effect	43
attention	43
themselves	43
reproach	43
room	42
end	42
near	42
therefore	42
wait	42
knew	42
down	42
satisfied	42
endeavour	42
tomorrow	41
prevent	41
god	41
matter	41
inclined	41
yours	41
writing	41
although	40
necessity	40
brought	40
works	40
observe	40
correspondence	40
fair	40
friends	40
spoke	39
though	39
deal	39
making	39
through	39
moreover	39
imagined	39
lose	38
affection	38
impossible	38
going	38
c	38
three	38
open	38
short	38
called	38
cruel	38
people	38
agree	38
convent	38
sent	38
remember	37
please	37
fear	37
old	37
yes	37
melancholy	37
ill	37
fault	37
difficult	37
indeed	37
makes	37
observed	36
hour	36
afraid	36
gercourt	36
rest	36
husband	36
child	36
arms	36
began	36
head	36
full	36
country	36
pleasing	36
words	35
farther	35
prudence	35
thinking	35
key	35
saw	35
permit	35
mademoiselle	35
pretty	35
case	35
weakness	35
add	35
danger	34
mean	34
value	34
house	34
ask	34
situation	33
instantly	33
bad	33
share	33
instant	33
either	33
deserve	33
avoid	33
thousand	33
mistress	33
during	33
oct	32
proper	32
wanted	32
inclination	32
age	32
follow	32
seemed	32
usual	32
absence	32
vain	32
difficulty	31
deceive	31
home	31
obtain	31
waiting	31
resolved	31
pity	31
turn	31
require	31
truly	31
ones	31
next	31
scarcely	31
agreed	31
character	31
second	31
things	31
thoughts	31
useful	31
till	31
choice	31
together	31
favour	31
gutenberg	30
judge	30
begin	30
proof	30
employ	30
regret	30
name	30
merit	30
secret	30
indulgence	30
silence	30
something	30
equally	30
valmonts	30
forgive	29
misfortune	29
quite	29
apartment	29
while	29
fly	29
oh	29
method	29
poor	29
soul	29
notice	29
events	29
wrong	29
door	29
readily	29
orders	29
endeavoured	29
appear	29
instead	29
temper	28
assured	28
dec	28
among	28
example	28
seem	28
astonished	28
used	28
promised	28
bear	28
fate	28
step	28
seen	28
truth	28
fixed	28
appearance	28
totally	28
strength	28
today	28
ridiculous	28
expected	28
convinced	28
four	28
intended	28
electronic	27
complain	27
knows	27
charms	27
delicacy	27
engaged	27
retired	27
ordered	27
appeared	27
employed	27
form	27
remain	27
above	27
met	27
agreeable	27
tone	27
countenance	27
assistance	27
matters	27
gone	27
past	27
fears	27
looks	27
event	26
point	26
despair	26
ideas	26
offer	26
break	26
guess	26
contrary	26
strong	26
terms	26
heard	26
violent	26
possession	26
foundation	26
justice	26
lay	26
shame	26
replied	26
times	26
air	25
maid	25
nevertheless	25
reputation	25
get	25
perceived	25
sure	25
circumstances	25
degree	25
discovered	25
nephew	25
following	25
amiable	25
led	25
experienced	25
expression	24
enjoy	24
felt	24
prudent	24
appears	24
suppose	24
ready	24
pleasures	24
service	24
disorder	24
single	24
surprise	24
supper	24
offered	24
voice	24
fall	24
mentioned	24
happens	24
painful	24
duty	23
mention	23
oblige	23
gratitude	23
support	23
perceive	23
revenge	23
according	23
advantage	23
hopes	23
formed	23
itself	23
nature	23
coming	23
error	23
angry	23
depend	23
seems	23
hands	23
assist	23
virtuous	23
miserable	23
liberty	23
pardon	23
deceived	22
meet	22
severity	22
deliver	22
resist	22
saying	22
becomes	22
suspicion	22
refused	22
sincere	22
sufficiently	22
torments	22
society	22
paid	22
conceal	22
wished	22
blame	22
health	22
taking	22
reflection	22
asked	22
best	22
incessantly	22
youll	22
got	22
devotee	22
seldom	22
reply	22
death	22
visit	22
e	22
misfortunes	22
talk	22
attempt	22
departure	21
important	21
timid	21
recall	21
sleep	21
besides	21
pupil	21
general	21
trifling	21
united	21
guilty	21
author	21
weak	21
distress	21
especially	21
help	21
lead	21
information	21
pretence	21
affliction	21
behaviour	20
candour	20
equal	20
precious	20
probably	20
wishes	20
acquaint	20
force	20
capable	20
defence	20
convince	20
hours	20
scheme	20
married	20
powerful	20
esteem	20
vanity	20
nov	20
easily	20
abuse	20
mama	20
proofs	20
complete	20
answered	20
venture	20
imagination	20
impression	20
acknowledge	20
placed	20
seek	20
live	20
affected	20
servants	20
confidant	20
p	19
understand	19
existence	19
uneasy	19
renew	19
stop	19
lady	19
acquainted	19
cherish	19
agreement	19
thy	19
glad	19
design	19
succeeded	19
satisfaction	19
feigned	19
telling	19
absent	19
desired	19
grant	19
news	19
style	19
reflections	19
small	19
humour	19
provided	19
affair	19
creature	19
otherwise	19
frightened	19
connections	19
soft	19
opera	19
dancenys	19
speaking	19
reserve	19
obstacles	19
refusal	19
towards	18
run	18
loved	18
address	18
scarce	18
delicious	18
fortunately	18
choose	18
none	18
charm	18
modesty	18
else	18
noise	18
repose	18
calm	18
s	18
seriously	18
known	18
thou	18
rival	18
severe	18
interest	18
youth	18
piece	18
utmost	18
forced	18
pass	18
preserve	18
sufferings	18
doubtless	18
loss	18
view	18
related	18
express	18
says	18
dreadful	18
play	18
enjoyment	18
purpose	18
late	18
sudden	18
struck	18
consequences	18
farewell	18
sorrow	18
whatever	17
became	17
undoubtedly	17
tenderness	17
constancy	17
reproaches	17
lively	17
particularly	17
embarrassment	17
lest	17
engage	17
carriage	17
master	17
enchanting	17
fix	17
connection	17
kept	17
accept	17
dinner	17
deprived	17
title	17
joy	17
doing	17
sacrificed	17
plainly	17
silent	17
errors	17
homage	17
sorry	17
saloon	17
sight	17
interesting	17
distance	17
deprive	17
different	17
fortune	17
increase	17
credit	17
common	17
ourselves	17
measure	17
copy	17
surprised	17
mistaken	17
meeting	17
adore	17
grand	17
scene	17
motive	17
useless	17
pray	17
receiving	17
obtained	17
tranquillity	17
knowing	17
hold	17
question	17
sense	17
hereafter	17
within	16
eternal	16
abandon	16
passed	16
change	16
overcome	16
persuaded	16
hide	16
timidity	16
post	16
pretended	16
obstacle	16
compassion	16
mere	16
altered	16
light	16
secrets	16
need	16
ten	16
shut	16
enemy	16
easier	16
resistance	16
risk	16
revenged	16
family	16
worse	16
curiosity	16
prude	16
prove	16
happened	16
misery	16
emotion	16
beloved	16
money	16
relate	16
discover	16
indifference	16
delivered	15
states	15
kiss	15
recollect	15
triumph	15
persons	15
indebted	15
confident	15
sooner	15
carried	15
required	15
collection	15
alarmed	15
greater	15
consented	15
slight	15
natural	15
preserved	15
servant	15
granted	15
produced	15
town	15
arrival	15
extraordinary	15
several	15
adorable	15
reward	15
afterwards	15
archive	15
continue	15
o	15
sole	15
aunt	15
followed	15
seized	15
accustomed	15
inspire	15
charge	15
stronger	15
dreaded	15
chamber	15
favourable	15
added	15
humble	15
drew	15
desires	15
punish	15
respectable	15
thee	15
freely	15
emily	15
license	15
sophia	15
custom	15
sat	15
eight	15
chance	15
handsome	15
daily	15
confusion	15
seduced	15
blush	15
sincerity	15
worth	15
excuse	15
donations	15
settled	15
attached	15
indisposed	14
fit	14
pleases	14
objects	14
remained	14
goodness	14
additional	14
literary	14
thence	14
th	14
body	14
forgot	14
affect	14
vexed	14
accepted	14
accident	14
destroy	14
close	14
attachment	14
sake	14
particular	14
sorrows	14
prefer	14
lovers	14
presence	14
possessed	14
oppose	14
action	14
ashamed	14
indulgent	14
embrace	14
picture	14
scandal	14
sought	14
decide	14
side	14
perfectly	14
sex	14
marriage	14
laid	14
reduced	14
zeal	14
hurt	14
raised	14
pay	14
carry	14
celestial	14
prevail	14
treat	14
possess	14
looked	14
owe	14
forth	14
comes	14
sacrifices	14
enclosed	14
gained	14
justification	14
gain	14
praise	14
intention	14
show	14
pretensions	14
apt	14
thinks	14
thank	14
future	14
simple	14
succeed	14
table	14
course	13
language	13
remedy	13
loving	13
compliance	13
takes	13
hearing	13
foresee	13
fail	13
remorse	13
concern	13
road	13
inspired	13
circle	13
confess	13
repeat	13
permitted	13
delight	13
raise	13
loves	13
perfect	13
father	13
recovered	13
infidelity	13
memory	13
heaven	13
cease	13
die	13
marechale	13
innocent	13
combat	13
conquer	13
banish	13
alas	13
allow	13
prejudice	13
figure	13
attend	13
wanting	13
motives	13
troublesome	13
number	13
delicate	13
copyright	13
note	13
save	13
exposed	13
disposition	13
pure	13
fellow	13
knees	13
preference	13
belleroche	13
unfortunate	13
laws	13
affairs	13
drawn	13
unless	13
crime	13
huntsman	13
sup	13
hearts	13
proceed	13
free	13
nonsense	13
published	13
whence	13
rendezvous	13
concerned	12
abroad	12
flatter	12
chose	12
afflicting	12
opposite	12
surely	12
treated	12
goes	12
afflicted	12
real	12
respectful	12
quit	12
abandoned	12
arrived	12
carnay	12
held	12
months	12
distraction	12
convenient	12
birth	12
defend	12
thanks	12
morals	12
provide	12
discretion	12
proposed	12
proceeding	12
stay	12
justify	12
ignorant	12
leaves	12
actions	12
spend	12
committed	12
sophy	12
learn	12
separated	12
feet	12
authorised	12
six	12
faults	12
half	12
julie	12
fond	12
admitted	12
flattered	12
demand	12
emotions	12
believed	12
disturb	12
hitherto	12
flattering	12
exclaimed	12
novels	12
patience	12
eagerness	12
begged	12
principles	12
remains	12
evil	12
folly	12
tourvels	12
im	12
vressac	12
cast	12
determine	12
rupture	12
effort	12
party	12
aid	12
fully	12
years	12
permission	12
changed	12
difference	12
hesitate	12
felicity	12
excess	12
sick	11
projects	11
circumstance	11
papers	11
plain	11
torment	11
deserves	11
mutual	11
carefully	11
hatred	11
certainty	11
propose	11
whenever	11
concerns	11
effects	11
brings	11
impatience	11
terrified	11
children	11
tired	11
instruction	11
false	11
oclock	11
involuntary	11
daughters	11
indulge	11
contains	11
chat	11
interview	11
commit	11
aside	11
ridicule	11
observations	11
beseech	11
virtues	11
laugh	11
rose	11
pressing	11
f	11
angel	11
ebook	11
harpsichord	11
endeavours	11
knowledge	11
merteuils	11
security	11
dress	11
stranger	11
slip	11
indignation	11
injury	11
solitude	11
fell	11
condescension	11
horrible	11
prevented	11
beauty	11
paragraph	11
pain	11
complaint	11
journey	11
hundred	11
phrase	11
suddenly	11
waited	11
breakfast	11
importance	11
glance	11
inspires	11
disagreeable	11
pains	11
unjust	11
produce	11
interests	11
unknown	11
tempted	11
novel	11
apprehension	11
lament	11
unnecessary	11
submit	11
due	11
fancy	11
remembrance	11
punishment	11
pride	11
wept	11
clear	11
laudable	11
betrayed	11
rage	11
execution	10
regard	10
anxiety	10
impatient	10
draw	10
taste	10
soften	10
escaped	10
curious	10
paper	10
box	10
anxious	10
seducing	10
rid	10
duties	10
astonishment	10
adventures	10
spent	10
copies	10
retire	10
trademark	10
crying	10
submission	10
greatly	10
fatality	10
ladies	10
morality	10
scandalous	10
early	10
escape	10
surrounded	10
scold	10
possibly	10
innocence	10
augment	10
proceeds	10
employment	10
delightful	10
strange	10
physician	10
fine	10
persuade	10
applaud	10
retreat	10
midst	10
witness	10
jealousy	10
entreat	10
struggle	10
characters	10
absolutely	10
spread	10
sentence	10
sensibility	10
inclinations	10
moments	10
art	10
render	10
bosom	10
rendered	10
beforehand	10
dead	10
fatal	10
suffered	10
generous	10
reflect	10
offers	10
intend	10
faithful	10
tells	10
announced	10
precaution	10
ruined	10
mothers	10
disturbed	10
plan	10
fulfil	10
yield	10
remaining	10
trembling	10
listen	10
refund	10
access	10
successful	10
causes	10
reading	10
except	10
five	10
doubts	10
intoxication	10
whim	10
conditions	10
troubles	10
direct	10
pretend	10
ground	10
efforts	10
profound	10
partly	10
viscountess	10
vice	10
entertain	10
sentimental	10
proceedings	10
awkwardness	10
delirium	10
forbid	10
requested	10
acquaintance	10
dared	10
endeavouring	10
bliss	10
vows	10
partake	10
settle	10
quarrel	10
maternal	10
cover	9
porter	9
terminate	9
methods	9
brilliant	9
nearly	9
law	9
contain	9
remarked	9
steps	9
adds	9
suppress	9
conqueror	9
safe	9
story	9
considerations	9
finished	9
wit	9
talents	9
reader	9
keeping	9
eleven	9
admit	9
including	9
disconcerted	9
prospect	9
swear	9
burst	9
walk	9
humbled	9
quitted	9
countess	9
womans	9
intrigue	9
office	9
concluded	9
rise	9
foolish	9
arguments	9
turned	9
repeated	9
victoire	9
opened	9
paying	9
apparent	9
comply	9
confide	9
guide	9
repair	9
ruin	9
declared	9
quiet	9
relative	9
running	9
female	9
exceedingly	9
miseries	9
breaking	9
highest	9
resemblance	9
resource	9
serve	9
puts	9
double	9
commodious	9
round	9
properly	9
guard	9
transports	9
ttette	9
disposed	9
criminal	9
proceeded	9
arm	9
wicked	9
high	9
afflict	9
deceitful	9
renewing	9
fled	9
daring	9
incapable	9
interrupted	9
active	9
twenty	9
behind	9
constant	9
neglect	9
anguish	9
assumed	9
austere	9
marked	9
congratulate	9
romance	9
unworthy	9
anger	9
approve	9
tolerable	9
sensation	9
talent	9
principle	9
directly	9
harm	9
renounce	9
slave	9
arrive	9
accustom	9
wretch	9
deserved	9
regular	9
foreseen	9
alteration	9
gaiety	9
consider	9
artifice	9
regulate	9
distant	9
former	9
resolve	9
obstinately	9
decency	9
exempt	8
mercy	8
ardent	8
indisposition	8
shocking	8
numerous	8
prayers	8
display	8
illusion	8
entire	8
happen	8
deposit	8
peace	8
wisdom	8
terror	8
whoever	8
twice	8
defeat	8
sweet	8
generosity	8
judgment	8
violence	8
apprehensions	8
j	8
dearest	8
relating	8
domain	8
pursue	8
explanation	8
putting	8
injuries	8
ardour	8
declare	8
grateful	8
bound	8
ungrateful	8
injustice	8
completed	8
suspect	8
insisted	8
destroyed	8
depart	8
concerning	8
discreet	8
advise	8
attended	8
contrast	8
education	8
engaging	8
awkward	8
frenzy	8
waitingmaid	8
imprudence	8
amusement	8
couple	8
attack	8
dangers	8
suspicions	8
parted	8
insensible	8
hero	8
obligations	8
amusements	8
happier	8
implore	8
village	8
devote	8
compliments	8
reconciliation	8
formidable	8
thrown	8
sincerely	8
console	8
books	8
alter	8
sit	8
relief	8
facility	8
count	8
mammas	8
returning	8
formerly	8
suitable	8
betray	8
leisure	8
suit	8
ignorance	8
compassionate	8
designs	8
reasonable	8
extent	8
epistle	8
shape	8
hardly	8
expose	8
obey	8
entitled	8
modest	8
seduction	8
unfortunately	8
cares	8
strongest	8
third	8
concealing	8
addresses	8
sum	8
presume	8
foreign	8
cry	8
teach	8
separate	8
broke	8
condition	8
accompanied	8
private	8
fee	8
anselmus	8
haste	8
embellish	8
claim	8
superior	8
fill	8
providence	8
blow	8
honours	8
reciprocal	8
entered	8
recital	8
circumstanced	8
associated	8
divinity	8
dictated	8
crowd	8
undone	8
acts	8
cost	8
consideration	8
hate	8
gratify	8
childish	8
precautions	8
censure	8
reflected	7
happily	7
labour	7
showed	7
consoled	7
divested	7
judged	7
bertrand	7
indifferent	7
confessor	7
attempted	7
humiliating	7
facts	7
satisfy	7
stopped	7
volume	7
recollected	7
lasted	7
truths	7
affecting	7
depends	7
deceit	7
authority	7
accomplishments	7
ascendant	7
impose	7
valuable	7
weep	7
conclude	7
entering	7
book	7
turns	7
promises	7
miss	7
insult	7
grow	7
signal	7
using	7
existed	7
match	7
blend	7
creating	7
divine	7
neglected	7
expence	7
sensations	7
measures	7
afternoon	7
victim	7
languishing	7
understanding	7
hurts	7
oppressed	7
generally	7
earnest	7
favours	7
blind	7
similar	7
fatigue	7
increased	7
practice	7
class	7
threw	7
remainder	7
exact	7
ago	7
thats	7
disorders	7
command	7
defect	7
informs	7
mild	7
strangers	7
saved	7
writes	7
humiliation	7
fits	7
privations	7
manners	7
concealed	7
conjure	7
started	7
senses	7
justified	7
resolutions	7
qualities	7
monsieur	7
charmer	7
watch	7
profligate	7
glory	7
b	7
section	7
disappointed	7
dispel	7
strike	7
scholar	7
taught	7
served	7
naturally	7
astray	7
induced	7
difficulties	7
solicitations	7
badly	7
decided	7
field	7
bringing	7
opposed	7
intelligence	7
talking	7
history	7
human	7
genius	7
nay	7
resources	7
fulfilled	7
interval	7
solemn	7
period	7
appointed	7
distributing	7
surrender	7
wretched	7
sort	7
exists	7
displeased	7
ceremony	7
offering	7
distinction	7
conquest	7
ebooks	7
frequent	7
chagrin	7
result	7
trifles	7
evils	7
invitation	7
insupportable	7
tax	7
sensibly	7
opportunities	7
street	7
jealous	7
declaration	7
assume	7
remark	7
offend	7
resume	7
finish	7
bury	7
seven	7
prepare	7
relation	7
prey	7
passions	7
enter	7
informing	7
amends	7
sublime	7
tale	7
beginning	7
syllable	7
remove	7
defer	7
spite	7
stand	7
finding	7
softer	7
transitory	7
admire	7
pocket	7
acquired	6
immense	6
celebrity	6
dejected	6
thursday	6
leads	6
affections	6
mei	6
condemned	6
quoted	6
distribute	6
learned	6
portrait	6
transport	6
cold	6
avoided	6
occasioned	6
veneration	6
absolute	6
explain	6
symptoms	6
constantly	6
calling	6
slept	6
tormented	6
flight	6
obstinacy	6
suspected	6
fatigued	6
deny	6
speedily	6
solicitude	6
utility	6
falling	6
pointed	6
jest	6
delay	6
diffidence	6
court	6
proved	6
eloquence	6
deserving	6
astonishing	6
discourse	6
annexed	6
feign	6
announce	6
aunts	6
mortal	6
questions	6
fondness	6
keeps	6
positively	6
date	6
behave	6
wager	6
caused	6
religion	6
create	6
surprising	6
josephine	6
career	6
tie	6
exclusive	6
wholly	6
expectations	6
cried	6
flung	6
requisition	6
villa	6
behold	6
continued	6
intimate	6
acquiesced	6
apprehensive	6
fickle	6
trial	6
scrupulous	6
pronounced	6
essential	6
dijon	6
repentance	6
content	6
punished	6
rate	6
avowal	6
undertake	6
owing	6
enclose	6
instructions	6
prejudicial	6
lie	6
beside	6
medium	6
oftener	6
lately	6
coquetry	6
ton	6
quietly	6
rigorous	6
removed	6
fever	6
assisting	6
distribution	6
vocation	6
boast	6
fails	6
frankness	6
dispose	6
examine	6
furnish	6
dissipate	6
devoted	6
tolerably	6
cards	6
persist	6
printed	6
viewed	6
uncommon	6
written	6
requests	6
stifle	6
armed	6
exist	6
conversations	6
sigh	6
successfully	6
recommend	6
complaints	6
recalled	6
imprudent	6
secrecy	6
solely	6
perform	6
ease	6
crimes	6
insurmountable	6
arise	6
occasions	6
sorrowful	6
serenity	6
squeezed	6
library	6
sing	6
reserved	6
obtaining	6
reformation	6
sharing	6
becoming	6
task	6
obliging	6
victims	6
perpetual	6
negligence	6
fool	6
concert	6
wants	6
impart	6
requires	6
minds	6
leaving	6
preserves	6
redoubled	6
rivals	6
inconstant	6
dissemble	6
plunged	6
eye	6
apology	6
rights	6
accompany	6
chambermaid	6
kisses	6
talked	6
patient	6
narrative	6
resentment	6
try	6
asleep	6
remarks	6
complaining	6
ardently	6
summit	6
attractions	6
honourable	6
lawyers	6
acquiesce	6
follies	6
recover	6
obeyed	6
residence	6
speaks	6
wrongs	6
feeling	6
bounds	6
deceiving	6
reports	6
fact	6
convey	6
gentleman	6
dream	6
born	6
wise	6
reality	6
rejected	6
volunteers	6
strengthened	6
acquire	6
recalls	6
avail	6
frame	6
contribute	6
probability	6
model	6
considerable	6
line	6
mystery	6
performance	6
hers	6
destroying	5
deference	5
awoke	5
enthusiasm	5
rich	5
refuses	5
liking	5
condescended	5
consoling	5
anyone	5
rapture	5
ways	5
search	5
theatre	5
disturbance	5
skilful	5
wander	5
excursions	5
hurried	5
brain	5
applauded	5
highly	5
desk	5
studied	5
schemes	5
copied	5
face	5
conjugal	5
fortitude	5
convert	5
speech	5
everlasting	5
dulness	5
copying	5
encounter	5
authorise	5
libertine	5
insist	5
compose	5
mark	5
unexperienced	5
dispositions	5
individual	5
imitate	5
grounded	5
heavens	5
triple	5
unhappiness	5
beyond	5
tonight	5
almighty	5
trust	5
join	5
mouth	5
neighbourhood	5
arrangement	5
disgust	5
assurance	5
london	5
morose	5
fight	5
foot	5
afflicts	5
scruples	5
understood	5
web	5
frightful	5
personal	5
replace	5
cecilias	5
stupid	5
forms	5
enjoyments	5
accused	5
praises	5
softest	5
calls	5
veil	5
improve	5
withdraw	5
wood	5
monster	5
throw	5
voluptuousness	5
admittance	5
reject	5
forcibly	5
management	5
l	5
mass	5
intolerable	5
vexation	5
announces	5
tremble	5
unfavourable	5
collected	5
abandonment	5
expectation	5
penetrating	5
publish	5
examined	5
mischievous	5
vengeance	5
faith	5
solicit	5
advantageous	5
snare	5
sacrificing	5
secured	5
animated	5
purchased	5
glass	5
whimsical	5
heat	5
flattery	5
incoherent	5
seal	5
repaired	5
treatment	5
wherein	5
conscience	5
renewed	5
cases	5
wild	5
asking	5
friendly	5
confidential	5
adopted	5
visits	5
rousseau	5
prayer	5
offended	5
spare	5
guilt	5
lord	5
laughing	5
restraint	5
damages	5
performed	5
shameful	5
pitied	5
politeness	5
constrained	5
enraged	5
culpable	5
french	5
consolations	5
commands	5
independent	5
dissipation	5
corrupt	5
rules	5
corps	5
presented	5
suspense	5
particulars	5
union	5
tenderest	5
repent	5
holy	5
cure	5
mission	5
adores	5
destruction	5
willingly	5
utter	5
reproached	5
hoped	5
relieve	5
seeking	5
eve	5
vainly	5
flowed	5
inflamed	5
despicable	5
situated	5
relates	5
embellished	5
eagerly	5
twelve	5
defects	5
adding	5
unites	5
sealed	5
amazingly	5
locked	5
privation	5
empire	5
wwwgutenbergorg	5
contempt	5
girls	5
progress	5
arises	5
grace	5
owner	5
assisted	5
shudder	5
oblivion	5
loud	5
fright	5
hasten	5
moral	5
obedience	5
nearer	5
obedient	5
discovery	5
advances	5
rosemondes	5
rarely	5
despise	5
honoured	5
displaying	5
filled	5
renders	5
aim	5
dissimulation	5
year	5
offence	5
frequently	5
hence	5
tumult	5
purity	5
accomplish	5
bedside	5
prevailed	5
costs	5
fortunate	5
rigour	5
deportment	5
awaited	5
heroine	5
phrases	5
established	5
perfection	5
dreads	5
silently	5
excessive	5
expressions	5
mistresss	5
flow	5
composed	5
inferior	5
nine	5
condemn	5
watched	5
game	5
applicable	5
seated	5
issue	5
links	5
chimerical	5
limited	5
instance	5
answers	5
mad	5
replacement	5
curtains	4
intoxicated	4
beat	4
living	4
confided	4
stuff	4
coolly	4
nights	4
uniting	4
conceived	4
finds	4
prevans	4
receipt	4
creatures	4
habitude	4
stayed	4
comprehend	4
occur	4
increasing	4
heap	4
sacred	4
chair	4
repay	4
study	4
supposition	4
inseparable	4
editions	4
flame	4
execute	4
expresses	4
considering	4
lived	4
consulted	4
afflictions	4
sees	4
produces	4
abominable	4
merited	4
format	4
overpowered	4
honest	4
accordingly	4
surmount	4
alarms	4
softened	4
decent	4
disguise	4
executed	4
lies	4
walks	4
unconcerned	4
ye	4
converted	4
surrendered	4
oath	4
gentlemen	4
meaning	4
disgusted	4
fees	4
amuse	4
belongs	4
stories	4
regularly	4
bathed	4
favourite	4
site	4
peaceful	4
promising	4
holds	4
intentions	4
bond	4
gods	4
influences	4
schoolboy	4
procure	4
awake	4
publication	4
infallibly	4
located	4
marechales	4
umbrage	4
omitted	4
religious	4
reunite	4
feels	4
owed	4
broken	4
holder	4
rule	4
original	4
continues	4
extract	4
habit	4
extremely	4
augmented	4
benefit	4
fresh	4
forward	4
continually	4
confession	4
eloise	4
imaginations	4
noon	4
kindness	4
status	4
courage	4
gentle	4
enterprise	4
gate	4
invention	4
circumspect	4
husbands	4
adored	4
immensely	4
affectionately	4
preparations	4
amused	4
openness	4
designedly	4
dressed	4
ont	4
fortnight	4
converse	4
precisely	4
feared	4
approach	4
stood	4
suppressed	4
barely	4
sunk	4
exhibit	4
endearing	4
refrain	4
foresaw	4
advantages	4
dint	4
possessing	4
recompence	4
degraded	4
malta	4
odious	4
colours	4
acknowledged	4
laughs	4
contact	4
ventured	4
employing	4
providing	4
efficacious	4
dependent	4
replete	4
fixing	4
consistent	4
romances	4
delights	4
embraces	4
victory	4
doubted	4
detail	4
duration	4
feeble	4
actual	4
preparing	4
submissive	4
rebellious	4
admirable	4
image	4
denial	4
grievous	4
raising	4
reposes	4
headach	4
inconsequence	4
horror	4
justly	4
impulse	4
labours	4
caresses	4
prudes	4
names	4
connected	4
strengthen	4
treasure	4
defective	4
pace	4
loose	4
crown	4
participate	4
owned	4
guarded	4
joined	4
strongly	4
v	4
engrossed	4
enjoyed	4
displease	4
haughty	4
seize	4
unite	4
looking	4
exception	4
void	4
preserving	4
quick	4
lawsuit	4
capriciousness	4
practised	4
ascendancy	4
enraptured	4
shared	4
deprives	4
shock	4
large	4
restrained	4
missed	4
compliment	4
disapprove	4
daylight	4
commission	4
gallery	4
confirmed	4
bears	4
submitted	4
thirst	4
hair	4
contend	4
unaffected	4
vol	4
undergo	4
diffident	4
commanded	4
tire	4
shorten	4
dexterously	4
slow	4
failed	4
enjoys	4
youi	4
toilet	4
appearing	4
low	4
dissipated	4
recovery	4
tiresome	4
bureau	4
deplore	4
month	4
reluctance	4
appeal	4
wear	4
losing	4
requirements	4
smile	4
condescend	4
domestic	4
wife	4
silly	4
convinces	4
attending	4
dive	4
insipid	4
apologies	4
hard	4
peculiar	4
war	4
venerable	4
move	4
posted	4
afford	4
walked	4
proves	4
current	4
alarm	4
ends	4
suffers	4
regulated	4
deficient	4
report	4
livres	4
serious	4
press	4
linked	4
wishing	4
attacked	4
reconcile	4
fire	4
supportable	4
lift	4
slander	4
induce	4
comedy	4
rung	4
replaced	4
singing	4
pencil	4
unacquainted	4
pref	4
leagues	4
rely	4
dispatch	4
amongst	4
foreseeing	4
novice	4
minute	4
exhausted	4
visible	4
bell	4
gloom	4
assiduity	4
consequently	4
remarkable	4
encourage	4
asserted	4
france	4
performing	4
online	4
described	4
abused	4
seduce	4
influence	4
cries	4
preface	4
saint	4
disturbing	4
addressed	4
rank	4
admits	4
seat	4
flies	4
lamented	4
pronounce	4
defending	4
cleared	4
unaccountable	4
actors	4
flew	4
alternately	4
meant	4
advanced	4
interested	4
property	4
striking	4
mortifying	4
attain	4
laughed	4
levity	4
worst	4
pledge	4
tried	4
prudery	4
mankind	4
exalted	4
weight	4
irresistible	4
toilette	4
bounty	4
madness	4
seeming	4
lock	4
obstinate	4
successes	4
winter	4
excite	4
reach	4
societies	4
attaches	4
spy	4
detrimental	4
start	4
tranquil	4
available	4
intends	4
feelings	4
approbation	4
self	4
increases	4
amorous	4
president	4
darkness	4
nuns	4
extreme	4
gently	4
submitting	4
possesses	4
distracted	4
flatters	4
founded	4
system	4
observation	4
frighten	4
deeply	4
quarter	4
attribute	4
bare	4
loaded	4
inconceivable	4
bustle	4
beds	4
distributed	4
fruits	4
lesson	4
drawing	4
overjoyed	3
exceed	3
seconded	3
treachery	3
motions	3
punishing	3
inseparables	3
agitations	3
argument	3
rational	3
receives	3
disposal	3
blamed	3
impetuosity	3
steal	3
affectation	3
collect	3
successor	3
wedding	3
heretofore	3
reparation	3
squeeze	3
exposes	3
t	3
materials	3
treating	3
challenge	3
eclaircissements	3
vague	3
downright	3
origin	3
wonder	3
coachman	3
reasoning	3
species	3
attentively	3
assiduous	3
warranties	3
startled	3
chains	3
heavy	3
coach	3
considered	3
partner	3
approved	3
govern	3
foundations	3
customs	3
sending	3
imperceptibly	3
delighted	3
painted	3
directed	3
annihilate	3
transaction	3
solicited	3
subservient	3
sometime	3
consistency	3
squeezing	3
wonderfully	3
sang	3
contriving	3
safety	3
diminishing	3
distracts	3
charity	3
confirm	3
passionately	3
faint	3
murder	3
captivated	3
merely	3
strikes	3
imbibed	3
expressing	3
valet	3
withdrawn	3
occupying	3
prepared	3
entertaining	3
vow	3
pursuit	3
wide	3
authorises	3
trick	3
la	3
shows	3
unalterable	3
motion	3
retrieve	3
speedy	3
behaves	3
desponding	3
option	3
plead	3
accomplice	3
compensate	3
serene	3
livery	3
unison	3
position	3
delays	3
mortification	3
quitting	3
unadorned	3
dexterous	3
decisive	3
paragraphs	3
imposes	3
bishop	3
exhibition	3
caress	3
murderer	3
novelty	3
smooth	3
expeditiously	3
boarder	3
defy	3
accuse	3
recognised	3
forgiven	3
dispense	3
tapestry	3
closed	3
propriety	3
hast	3
expire	3
competitor	3
covering	3
struggles	3
matches	3
possibility	3
gracefulness	3
wretches	3
strive	3
packet	3
refusals	3
forgetting	3
pensioner	3
passes	3
expiate	3
shown	3
volumes	3
treats	3
decrees	3
sleeps	3
around	3
corruption	3
entity	3
sinking	3
regain	3
attempting	3
abrupt	3
roused	3
begs	3
milder	3
severely	3
drive	3
steward	3
miracle	3
purchase	3
troubled	3
assures	3
attendant	3
dwell	3
storm	3
lighted	3
enquire	3
exercise	3
derivative	3
d	3
iti	3
inconsolable	3
vile	3
complying	3
included	3
strain	3
aspect	3
restored	3
impaired	3
forming	3
moving	3
indiscretion	3
opens	3
wipe	3
apprehended	3
exert	3
solid	3
comfort	3
finest	3
beautiful	3
peevishness	3
forcible	3
pensive	3
swain	3
intimately	3
oppression	3
decides	3
mistresses	3
covers	3
slightest	3
overwhelmed	3
communication	3
desert	3
fills	3
evasion	3
payments	3
frustrated	3
preferred	3
strict	3
widow	3
gather	3
cxxii	3
generality	3
favourably	3
autumn	3
chatting	3
secure	3
judging	3
detain	3
resignation	3
discussion	3
puerile	3
readers	3
guessing	3
admiration	3
deception	3
stratagem	3
libraries	3
attach	3
variety	3
multitude	3
unequal	3
animate	3
executing	3
inside	3
envy	3
blameable	3
testify	3
volangess	3
ceasd	3
drove	3
presents	3
raises	3
convulsions	3
macedoine	3
liability	3
touch	3
actually	3
risking	3
royalty	3
discarded	3
complaisant	3
selflove	3
distrust	3
philip	3
tractable	3
frivolous	3
mistake	3
lassitude	3
tedious	3
limitation	3
searcher	3
agitation	3
infernal	3
brother	3
devout	3
absurd	3
marquis	3
cultivated	3
inexperienced	3
begins	3
implores	3
grieved	3
singular	3
denouement	3
vanish	3
unmoved	3
devotees	3
lad	3
awkwardly	3
fashionable	3
endure	3
disclaimer	3
contemptible	3
disconcert	3
griefs	3
hint	3
depended	3
season	3
julia	3
commonly	3
explicit	3
begging	3
liked	3
resumed	3
skill	3
exactitude	3
indulged	3
relieved	3
contrived	3
suggested	3
faithfully	3
requisitions	3
ingenuously	3
lasting	3
cheerfulness	3
subdued	3
mortals	3
quickly	3
conquests	3
heated	3
apply	3
ridiculed	3
divert	3
nobly	3
beneath	3
dismal	3
absorbed	3
burning	3
places	3
solitary	3
furnishing	3
traces	3
reverence	3
notion	3
declaring	3
accidentally	3
getting	3
assuming	3
guardian	3
inestimable	3
views	3
stops	3
leap	3
dawn	3
iii	3
distressed	3
science	3
supported	3
covered	3
exceeding	3
tales	3
energy	3
enhance	3
mewhat	3
slaves	3
gaining	3
pleasant	3
minutes	3
convincing	3
infinite	3
score	3
prejudices	3
esteemed	3
disconcerts	3
thoughtless	3
calumny	3
appoint	3
pressed	3
attributed	3
desiring	3
blessings	3
productions	3
existing	3
overturned	3
dignity	3
pour	3
dropped	3
illusory	3
charges	3
memoirs	3
weaken	3
st	3
abide	3
precedent	3
ascertained	3
awe	3
inconstancy	3
romantic	3
throwing	3
blood	3
drunk	3
prohibition	3
improbable	3
sword	3
mingle	3
violently	3
expressed	3
innocently	3
adapted	3
oaths	3
donate	3
laying	3
doors	3
introduced	3
acquainting	3
younger	3
complied	3
complaisance	3
prevents	3
deep	3
conscious	3
likewise	3
disgrace	3
pierre	3
chosen	3
officers	3
contemplate	3
arbitress	3
messenger	3
below	3
poison	3
pick	3
surpassed	3
hindered	3
shell	3
incline	3
city	3
scenes	3
devil	3
eclat	3
sickness	3
bloom	3
enjoying	3
childrens	3
instrument	3
determination	3
pen	3
dearer	3
minutely	3
ensure	3
amend	3
omit	3
observing	3
resembles	3
infinitely	3
embraced	3
choderlos	3
supped	3
languish	3
bands	3
prosecute	3
hid	3
authors	3
entertains	3
insists	3
necessarily	3
anticipate	3
owes	3
spot	3
secretly	3
susceptible	3
deaths	3
blinded	3
illusive	3
exploit	3
seducer	3
appearances	3
encouraged	3
owns	3
azolan	3
compelled	3
deceives	3
scolded	3
continual	3
follows	3
impressions	3
mortified	3
divide	3
email	3
louis	3
wrath	3
hurry	3
proposition	3
aver	3
corner	3
somewhat	3
user	3
belonging	3
overheard	3
altogether	3
curate	3
apathy	3
politely	3
official	3
contents	3
payment	3
approaching	3
alternative	3
dull	3
instances	3
attentive	3
acting	3
stage	3
parting	3
confounded	3
opening	3
depraved	3
sound	3
masterpiece	3
advises	3
ruining	3
victories	3
earth	3
stir	3
confiding	3
path	3
natured	3
immoderately	3
accusers	3
happiest	3
equipment	3
invite	3
exertions	3
vouchsafe	3
taxes	3
behaved	3
trio	3
outside	3
sopha	3
protestations	3
countesses	3
busy	3
page	3
monday	3
shooting	3
safely	3
desirous	3
check	3
resisted	3
completely	3
wonderful	3
probable	3
unpardonable	3
treaty	3
expired	3
fulfilling	3
curtain	3
attained	3
prodigies	3
transmit	3
opinions	3
seizing	3
establish	3
separation	3
undressed	3
speeches	3
undertook	3
dwelt	3
chatted	3
stifled	3
contrive	3
threaten	3
diverts	3
youyou	3
remedies	3
hunting	3
terrifying	3
confidentially	3
accomplished	3
cxxviii	3
denied	3
laclos	3
boasted	3
quality	3
diverted	3
indelible	3
candle	3
presuming	3
argue	3
acceptable	3
prosecution	3
precipices	3
source	3
enemies	3
consult	3
handsomer	3
space	3
sink	3
asylum	3
created	3
occupation	3
instinct	3
knights	3
sets	3
plausible	3
disordered	3
allied	3
abusing	3
edition	3
polite	3
faithless	3
horses	3
attaching	3
spectacle	3
closet	3
furnished	3
fatally	3
beats	3
sister	3
supply	3
breach	3
hazard	3
exactly	3
cruelly	3
gazing	3
agitated	3
decision	3
divided	3
series	3
unsullied	3
rapidity	3
ended	3
trivial	3
overwhelm	3
inaction	3
temporary	3
regaining	3
forgetful	3
blushes	3
idle	3
presumption	3
detained	3
dedicated	3
favoured	3
voluminous	3
objection	3
agent	3
heloise	3
rising	3
cool	3
features	3
thousands	3
advance	3
spirits	3
yielded	3
appreciate	3
selected	3
decree	3
harbouring	3
explained	3
souls	3
widowhood	3
abandoning	3
discovering	3
dessert	3
pathetic	3
distinguished	3
fervent	3
customary	3
gamester	3
contained	3
tear	3
cloak	3
wound	2
languished	2
ruminate	2
gifts	2
handwriting	2
ties	2
itthe	2
uncertain	2
wheedling	2
religiously	2
searching	2
beauties	2
invincible	2
caprice	2
edification	2
ingrate	2
manoeuvres	2
swallowed	2
paces	2
insure	2
vegetate	2
positive	2
surround	2
abbess	2
retain	2
exercises	2
illustrate	2
artful	2
scrutiny	2
withstand	2
forgetfulness	2
disobey	2
physicians	2
interpreted	2
merits	2
commander	2
swore	2
fundamental	2
ecstasy	2
personally	2
crumbs	2
presumptuous	2
fixes	2
henceforward	2
stammered	2
viewing	2
redouble	2
bore	2
vex	2
penetrated	2
restore	2
disguised	2
theres	2
resembled	2
overpowering	2
waking	2
resolute	2
unconscious	2
physical	2
ravishing	2
physic	2
relinquished	2
apprised	2
load	2
hell	2
offensive	2
famous	2
hesitating	2
infuse	2
imprisonment	2
fascinated	2
accepting	2
recommendation	2
pacified	2
unable	2
dupes	2
personages	2
total	2
clothes	2
generations	2
fame	2
interrupting	2
employs	2
ahunting	2
computer	2
mans	2
occupied	2
regularity	2
empty	2
malice	2
sincerest	2
stormy	2
respects	2
dates	2
triumphs	2
imposed	2
kings	2
alighted	2
waste	2
houses	2
asserts	2
inquire	2
embellishes	2
cxxx	2
survived	2
administered	2
aversion	2
murmurs	2
director	2
cited	2
mdcclxxxiv	2
obliges	2
approached	2
lips	2
subscribe	2
military	2
manage	2
conclusion	2
calculated	2
ravished	2
references	2
entangled	2
excused	2
dissatisfied	2
mehow	2
special	2
commenced	2
suffering	2
expenses	2
unequivocal	2
yon	2
unreserved	2
anywhere	2
chagrined	2
demands	2
capitulation	2
production	2
racks	2
epocha	2
formats	2
intent	2
offending	2
inhuman	2
reunited	2
displayed	2
excusable	2
disappointment	2
injure	2
boy	2
arose	2
lxxxv	2
effected	2
artifices	2
acted	2
banished	2
advised	2
listened	2
volatile	2
protect	2
graces	2
permanent	2
shapes	2
educated	2
million	2
itthen	2
nowadays	2
dupe	2
suffice	2
contributions	2
minethe	2
stale	2
internet	2
jaunt	2
supplied	2
declined	2
indubitably	2
carrying	2
cunning	2
patiently	2
discourses	2
mixed	2
proving	2
genteel	2
warranty	2
local	2
corsica	2
gallants	2
doubled	2
demanded	2
immoderate	2
avenged	2
coffee	2
describe	2
allpowerful	2
fifty	2
tainted	2
attends	2
water	2
cautious	2
contrasted	2
green	2
apart	2
acquires	2
dependence	2
expeditious	2
incurable	2
likely	2
ensured	2
centered	2
harbour	2
gloomy	2
unhappily	2
excellent	2
avidity	2
calculate	2
prescribe	2
hurting	2
sweetest	2
refusing	2
worship	2
durable	2
letterit	2
thirty	2
perish	2
somebody	2
sultan	2
guiding	2
prisoner	2
whims	2
hot	2
destitute	2
practise	2
constraint	2
forgotten	2
himand	2
price	2
gesture	2
ceremonies	2
vindication	2
pushed	2
obligation	2
enquiries	2
indemnify	2
recant	2
supposed	2
relieves	2
correspondent	2
ascribed	2
inexpressible	2
breathing	2
attachments	2
amusing	2
intrust	2
augments	2
lengths	2
fancies	2
eclaircissement	2
cruelty	2
stab	2
convention	2
ravages	2
marc	2
delivering	2
sign	2
gay	2
committing	2
tuition	2
shelter	2
tremor	2
diversion	2
prolong	2
gradually	2
struggling	2
lightning	2
wounds	2
valid	2
profit	2
provoked	2
recourse	2
files	2
comparison	2
circulating	2
faculties	2
wheedle	2
formation	2
usefully	2
prettiest	2
bitterness	2
imaginary	2
drop	2
exhibited	2
exclude	2
effectually	2
toils	2
audacity	2
verify	2
indiscretions	2
fidelity	2
assent	2
leading	2
exasperated	2
displeasing	2
accusing	2
inquiries	2
relinquish	2
lastly	2
sobs	2
youthful	2
intendante	2
prophecy	2
torn	2
temerity	2
chimeras	2
contributed	2
avow	2
preliminary	2
acrimony	2
jests	2
reuse	2
weeks	2
intrigues	2
mortify	2
red	2
rough	2
employments	2
belong	2
shot	2
exclusion	2
unmask	2
incessant	2
boldness	2
wounded	2
ripe	2
sworn	2
palpitate	2
serviceable	2
defenceless	2
drowsiness	2
ingenious	2
enigma	2
remarking	2
languid	2
calculates	2
holding	2
renewal	2
signifies	2
chief	2
wandering	2
rash	2
utterly	2
totality	2
pious	2
dissuade	2
deemed	2
sported	2
ingenuity	2
officiousness	2
accomplishment	2
composure	2
creates	2
stoop	2
penetration	2
joke	2
congratulating	2
savage	2
ample	2
quarrels	2
justifiable	2
impatiently	2
widest	2
ordinary	2
signed	2
depriving	2
muse	2
incredible	2
persists	2
bind	2
supplications	2
dressing	2
petrified	2
attacking	2
imploring	2
masters	2
opposition	2
fruitless	2
revived	2
charged	2
struggled	2
advancing	2
twentyfour	2
clearly	2
equality	2
kissed	2
played	2
allmerciful	2
suspicious	2
mood	2
window	2
legal	2
substituted	2
laboured	2
powerfully	2
scurvy	2
growing	2
marry	2
insomuch	2
tricked	2
directing	2
respective	2
interruption	2
inexorable	2
dealt	2
confounding	2
summons	2
agreeably	2
wickedness	2
shunned	2
strangely	2
ink	2
communicate	2
aggravate	2
rats	2
xlvi	2
addition	2
drapery	2
preferable	2
warmth	2
deity	2
reform	2
rehearse	2
excuses	2
despotism	2
disengaging	2
doubtful	2
temple	2
estimate	2
intellectual	2
desperate	2
risks	2
versailles	2
knight	2
interviews	2
questioned	2
apologise	2
alleviated	2
reproaching	2
contracted	2
sixty	2
perfidiousness	2
probity	2
grievances	2
refined	2
bestow	2
handi	2
cherishing	2
ingenuousness	2
youthen	2
softness	2
admired	2
exceptions	2
credulous	2
soothing	2
propitious	2
trustee	2
inexhaustible	2
essay	2
wwwgutenbergorgdonate	2
itwhose	2
averse	2
ingratitude	2
confound	2
egregious	2
cheerful	2
resuming	2
womens	2
appointments	2
vicious	2
redistributing	2
dishonour	2
sold	2
lodge	2
drawers	2
everything	2
concept	2
fury	2
worked	2
gazette	2
detests	2
shuddered	2
bewitching	2
marrying	2
meyou	2
unmerciful	2
accepts	2
confine	2
lawyer	2
attempts	2
oneself	2
depravity	2
promoting	2
falls	2
rancour	2
expedient	2
seemingly	2
federal	2
gates	2
research	2
penitent	2
dramatic	2
gallantry	2
worn	2
conversing	2
containing	2
kindled	2
indication	2
edified	2
enhances	2
replies	2
oddities	2
dhooghe	2
dubious	2
interrogated	2
alleviating	2
non	2
differ	2
excited	2
transition	2
lawful	2
sage	2
standing	2
foreigners	2
themi	2
asserting	2
foregoing	2
doubly	2
angelic	2
integrity	2
ascii	2
maids	2
vanilla	2
stared	2
passing	2
veracity	2
saving	2
claims	2
embark	2
adorns	2
profligates	2
retirement	2
directions	2
consents	2
approaches	2
disadvantageous	2
occupations	2
characteristic	2
indirectly	2
recollection	2
breakfasted	2
confidently	2
nephews	2
insolence	2
allurements	2
attractive	2
regretting	2
neighbour	2
apprehend	2
courting	2
ribband	2
salutary	2
applied	2
obligingly	2
proposal	2
rob	2
confused	2
track	2
moroseness	2
searched	2
acknowledging	2
dying	2
occurred	2
seeks	2
melted	2
raptures	2
momentary	2
expences	2
wives	2
desirable	2
hinder	2
propensity	2
interfere	2
retiring	2
swerve	2
prize	2
contract	2
dilatory	2
implied	2
criminality	2
inconvenience	2
possessor	2
adelaide	2
banter	2
goodnatured	2
ascertain	2
soninlaw	2
suffocating	2
shoemaker	2
rare	2
locations	2
terrors	2
believing	2
prominently	2
bid	2
entreated	2
responsible	2
black	2
invalid	2
specified	2
constrain	2
departed	2
inspiring	2
conjecture	2
inspection	2
compiled	2
protest	2
dares	2
whispered	2
resisting	2
himi	2
overruling	2
imitating	2
dispatched	2
hootings	2
electronically	2
clemency	2
voluntary	2
rural	2
garden	2
wring	2
park	2
vigilance	2
incomprehensible	2
assuring	2
specific	2
unavoidable	2
engagement	2
sinks	2
computers	2
october	2
dreading	2
expects	2
ministry	2
qualification	2
damage	2
diffuse	2
oil	2
adopt	2
journal	2
suffocation	2
invoke	2
prostrate	2
confirms	2
suggest	2
influenced	2
ultimatum	2
print	2
restrains	2
incident	2
uniformity	2
benevolence	2
changing	2
meanness	2
fifteen	2
coolness	2
restrictions	2
derive	2
habituated	2
driving	2
charmed	2
plunges	2
screen	2
signification	2
aware	2
shrieked	2
settling	2
prepossession	2
foibles	2
strenuously	2
profane	2
counteract	2
presses	2
michael	2
clarissa	2
string	2
proud	2
concur	2
infected	2
defiance	2
sexes	2
cxx	2
deter	2
stretched	2
reckon	2
burned	2
willing	2
chides	2
repays	2
passionate	2
revolt	2
agreeing	2
various	2
torrent	2
prescribed	2
sensitive	2
counsel	2
indispensable	2
hastened	2
mamas	2
insulting	2
thoroughly	2
trifle	2
viscounts	2
petition	2
scruple	2
superiority	2
twentyfive	2
diabolical	2
instruct	2
mentions	2
distinctly	2
justifies	2
rent	2
thunder	2
hark	2
bargain	2
corresponding	2
supposing	2
correct	2
repaid	2
glances	2
anxiously	2
mutually	2
vivacity	2
assemble	2
neighbours	2
matrimonial	2
distressing	2
titles	2
contemptuously	2
gratified	2
mirth	2
portress	2
hit	2
abilities	2
detach	2
precipitately	2
repetition	2
studiously	2
died	2
uninteresting	2
games	2
iv	2
marks	2
guesses	2
altering	2
dispute	2
imputed	2
lxxxi	2
forbear	2
rumour	2
services	2
muster	2
pockets	2
yards	2
younot	2
arranged	2
chariot	2
cautiously	2
scholars	2
urgent	2
anything	2
smallest	2
imprint	2
undeceive	2
decorated	2
ebers	2
survive	2
surgeon	2
beware	2
cheerfully	2
tortures	2
parties	2
easiness	2
calumniate	2
inconsiderate	2
answering	2
exertion	2
fatigues	2
absorbs	2
killed	2
march	2
celebrated	2
generously	2
assert	2
blindness	2
acknowledgment	2
stress	2
inanimate	2
separates	2
wiser	2
commonplace	2
italian	2
rivalship	2
kill	2
terrifies	2
reigning	2
hookham	2
seraglio	2
admirer	2
tenacious	2
music	2
exquisite	2
strings	2
sheltered	2
whats	2
gift	2
comfortable	2
colour	2
valetdechambre	2
distract	2
intriguer	2
satiate	2
robber	2
sequel	2
dismission	2
mediocrity	2
exacted	2
tongue	2
governed	2
mien	2
plainer	2
withered	2
brag	2
horrors	2
unanswerable	2
feast	2
alarming	2
maxim	2
disfigured	2
induces	2
communicating	2
constitute	2
sobbed	2
counteracted	2
trembled	2
froid	2
circumspection	2
confessions	2
grievously	2
plume	2
whither	2
extravagance	2
purchasing	2
prodigal	2
blushing	2
irregularities	2
austerity	2
insolent	2
employees	2
repetitions	2
meand	2
continuing	2
consequential	2
duped	2
dissipations	2
unsufferable	2
perfidious	2
lot	2
cursed	2
frankly	2
fashion	2
forty	2
elsewhere	2
relish	2
rashly	2
regiment	2
replication	2
presidentes	2
precept	2
appointment	2
regimen	2
embracing	2
affects	2
breathed	2
accordance	2
completion	2
abject	2
dexterity	2
causing	2
chastity	2
lengthened	2
discouraged	2
lansquenet	2
nuptials	2
coldness	2
conferences	2
equivocal	2
subjects	2
brave	2
reached	2
engraved	2
shine	2
aggressor	2
deplored	2
tincture	2
sadness	2
wrought	2
murmuring	2
lodged	2
images	2
ours	2
neglects	2
inexpressibly	2
discuss	2
observable	2
dutchman	2
wishedfor	2
dated	2
immediate	2
beings	2
unanimous	2
registered	2
impudence	2
flying	2
attorney	2
activity	2
occurs	2
perusal	2
limit	2
poignant	2
infamous	2
include	2
unthinking	2
airs	2
revolution	2
hopeless	2
reprimand	2
commandant	2
enable	2
futurity	2
timorous	2
gercourts	2
fainted	2
whist	2
base	2
priest	2
illness	2
managed	2
tore	2
louisdors	2
dr	2
astonishes	2
compensated	2
readable	2
horse	2
avenge	2
allowed	2
machines	2
crosses	2
idiot	2
pox	2
apologised	2
represented	2
tomb	2
hart	2
sprightly	2
grotesque	2
lieu	2
drawer	2
locks	2
ii	2
praised	2
retard	2
helped	2
spreading	2
assuredly	2
ball	2
pages	2
pangs	2
insults	2
subdue	2
arrange	2
file	2
details	2
disengaged	2
stuffed	2
disappeared	2
unsuccessful	2
scraps	2
fervour	2
devoured	2
application	2
visithe	2
condescending	2
touching	2
frightens	2
debauchery	2
balance	2
reverie	2
strictest	2
xlvii	2
invent	2
thisi	2
fallen	2
simplicity	2
entertained	2
ring	2
blunder	2
spirit	2
amazing	2
pursuits	2
sepulchre	2
whatsoever	2
gratification	2
vices	2
neck	2
royalties	2
communicated	2
rests	2
judges	2
intimacy	2
villainy	2
reported	2
desperation	2
abominations	2
melting	2
consenting	2
penance	2
injured	2
regrets	2
weather	2
sofa	2
grew	2
ceases	2
clare	2
libertinism	2
revenges	2
httpwwwfreeliteratureorg	2
banishes	2
insignificancy	2
bold	2
bruton	2
rousing	2
refinement	2
moved	2
rightly	2
noble	2
heads	2
recur	2
quarrelled	2
motionless	2
redistribution	2
liable	2
degrees	2
undertaken	2
brink	2
confined	2
composition	2
deshabille	2
pleaded	2
supreme	2
combated	2
based	2
pens	2
involved	2
mockery	2
pretension	2
farthest	2
eat	2
runs	2
begun	2
incredulous	2
corroborate	2
answerable	2
senseless	2
noblest	2
doctrine	2
graham	2
pretenders	2
perturbed	2
amply	2
counsels	2
conversion	2
readiness	2
stipulate	2
wine	2
softly	2
reflecting	2
solicitation	2
accessible	2
ay	2
chaste	2
irritates	2
immaculate	2
paternal	2
complained	2
sitting	2
resemble	2
definitive	2
porters	2
blaze	2
effrontery	2
chevaliers	2
compressed	2
historians	2
embarrassed	2
hastily	2
depth	2
exile	2
satisfactory	2
edifying	2
fatiguing	2
originals	2
authorities	2
libertines	2
atrocious	2
minors	2
debt	2
impunity	2
discontent	2
trace	2
sings	2
parents	2
multiplies	2
letting	2
pardoned	2
grasped	2
pupils	2
consecrated	2
unexpected	2
gallant	2
lucky	2
naughty	2
joys	2
corrected	2
son	2
unsealed	2
irreparable	2
affectionsbut	2
prioress	2
eligible	2
discharged	2
exiled	2
dearly	2
older	2
playing	2
compel	2
irrevocable	2
compare	2
scoundrel	2
principal	2
profusely	2
monsters	2
scrutinize	2
humiliated	2
expecting	2
strictly	2
paint	2
dors	2
youif	2
despondency	2
anecdotes	2
envious	2
commence	2
affirmative	2
robbers	2
diamonds	1
gutenbergtms	1
finishes	1
preferring	1
narrowly	1
wishd	1
devotions	1
combined	1
returns	1
obligato	1
applications	1
matrimony	1
endsno	1
stipulatedfor	1
overpowers	1
commits	1
opposes	1
burgundy	1
procured	1
victimyes	1
concurrence	1
depository	1
wet	1
didi	1
boasts	1
revive	1
bashfulness	1
pretences	1
everi	1
finally	1
retrieved	1
depicted	1
antidote	1
cx	1
baffle	1
stilled	1
meilcourts	1
seductions	1
banks	1
sighted	1
meif	1
consume	1
unreasonableness	1
construe	1
jewel	1
inconsistency	1
mineand	1
omen	1
zara	1
teeth	1
clearer	1
mebefore	1
burnt	1
soulnothing	1
administer	1
invariable	1
frankest	1
array	1
unpolished	1
applicablebetween	1
authenticity	1
material	1
tormenting	1
melan	1
dreams	1
front	1
pledges	1
visage	1
merchantability	1
clothespress	1
justness	1
expanding	1
hated	1
comprehension	1
maybe	1
revolting	1
indignitiesbut	1
idolize	1
tendency	1
utterance	1
walkshe	1
renamed	1
accosted	1
abate	1
collections	1
ignominious	1
absurdity	1
elegance	1
unjustifiable	1
lxxxii	1
alleged	1
criminalalas	1
tied	1
promulgated	1
impossiblefirst	1
turbulent	1
preux	1
frivolity	1
visibly	1
conclusions	1
distressingly	1
xxxvi	1
theme	1
virgin	1
foresees	1
entreatiesi	1
rivalled	1
learnt	1
xxxi	1
recompensed	1
necessaries	1
donation	1
timeif	1
familiar	1
abound	1
recovers	1
againwhat	1
twoandtwenty	1
buried	1
appellations	1
evidently	1
untroubled	1
respectfully	1
jostled	1
cxxxiv	1
discompose	1
denying	1
scamper	1
disadvantageously	1
travelling	1
defeating	1
imputation	1
deaf	1
machine	1
cerberus	1
monarch	1
indissoluble	1
sides	1
humorous	1
satisfiedmr	1
movements	1
overwhelms	1
chords	1
essentially	1
pleasd	1
fruitful	1
inviolable	1
attacks	1
disastrous	1
indicate	1
extricated	1
await	1
enquired	1
sinners	1
baseness	1
types	1
arbiter	1
recreations	1
unenforceability	1
suffused	1
attire	1
colonel	1
displeasureto	1
lend	1
duchess	1
knewthen	1
binary	1
amusementwhen	1
newby	1
invited	1
prattled	1
lent	1
deceivd	1
moralists	1
assented	1
timethis	1
figured	1
april	1
irretrievable	1
retaliation	1
supporting	1
unfortunatemy	1
stupify	1
version	1
compromise	1
swayed	1
estates	1
corrodes	1
forsakes	1
neighbouring	1
increasedthus	1
indiscriminately	1
disclaim	1
ofand	1
compassionheavens	1
lessbut	1
enjoymenta	1
nowbut	1
rationally	1
selfaccusation	1
againwill	1
citations	1
welcome	1
judicious	1
fields	1
comparable	1
sufferingsi	1
fighting	1
lxi	1
simpletoni	1
heinous	1
fruit	1
freshness	1
intercepted	1
xlviii	1
repress	1
caressing	1
employee	1
burn	1
loveat	1
depression	1
drowned	1
precede	1
differed	1
distractions	1
lovethen	1
credited	1
commencing	1
fanatical	1
peals	1
shore	1
affright	1
expediting	1
comical	1
remind	1
efface	1
clxxv	1
achilles	1
contrivd	1
unforeseen	1
assignation	1
converses	1
rosebud	1
entitles	1
declivity	1
draft	1
wheedled	1
ideasdont	1
wrecks	1
recoils	1
cxvi	1
stamp	1
fathom	1
diminished	1
xxiii	1
fiction	1
message	1
swimmers	1
hackneycoach	1
civ	1
probabilities	1
uncertaintyi	1
dilemma	1
grieve	1
freed	1
viscountessit	1
hastens	1
occasiondid	1
pastor	1
conversed	1
confirmation	1
doeuvre	1
commercial	1
irreproachable	1
suffocated	1
bleeding	1
progeny	1
fired	1
prejudicing	1
sobbing	1
credentials	1
rumours	1
courtesy	1
eminent	1
unfeigned	1
epistolary	1
thrusts	1
clxviii	1
raw	1
mysteriousness	1
decreesi	1
claimed	1
victoires	1
blundering	1
physiciansi	1
continuance	1
physiognomy	1
thatthe	1
lack	1
viscountbut	1
named	1
himeven	1
faintings	1
rome	1
tutelar	1
answerit	1
companies	1
warn	1
invective	1
intrinsic	1
duke	1
clxix	1
thither	1
boarding	1
unintelligible	1
realize	1
sanctioned	1
meditates	1
mar	1
halfconfidence	1
perseverance	1
nudities	1
teasing	1
tenor	1
carnival	1
doses	1
foreigner	1
anticipated	1
creaturebut	1
replyah	1
fruitlessly	1
indicating	1
sly	1
mastered	1
peacei	1
dethroned	1
hersuch	1
saluting	1
diverting	1
extending	1
asis	1
unavailable	1
importunes	1
prepossessions	1
bountiful	1
occurrences	1
imply	1
pursues	1
diving	1
urging	1
scandalize	1
preferences	1
favourites	1
financial	1
sphere	1
longwishedfor	1
thieves	1
careful	1
defame	1
proselytes	1
postmarkwho	1
loosest	1
opposers	1
ambassador	1
exculpate	1
parasitical	1
unfavourably	1
control	1
investigated	1
classes	1
disappointments	1
newsletter	1
shares	1
fleure	1
reasonably	1
nauseates	1
dialogue	1
conflict	1
cxvii	1
glanced	1
tricksoh	1
train	1
disburthened	1
againhowremember	1
christian	1
supplicate	1
band	1
weaknessavaunt	1
lvii	1
ut	1
greedy	1
follyi	1
sweetness	1
ursulines	1
antiquity	1
sport	1
shelters	1
improved	1
exacting	1
manly	1
greedily	1
closetdoor	1
oracle	1
downloading	1
practicable	1
shrieks	1
cholics	1
tenderly	1
plays	1
frequented	1
lovein	1
bastia	1
observedthe	1
succession	1
requisite	1
clix	1
debts	1
redistribute	1
lettersurely	1
bougie	1
cvi	1
memust	1
inability	1
adversarys	1
themvalmontvalmont	1
enslave	1
lands	1
test	1
tacked	1
ceremonious	1
higher	1
alleviates	1
cxxxiii	1
infancy	1
cloud	1
unreasonable	1
ornaments	1
combating	1
unmerited	1
inclines	1
interrogatories	1
expressive	1
fortified	1
advocate	1
folded	1
enhancing	1
sin	1
auspices	1
timely	1
envied	1
reuniting	1
identification	1
barbarism	1
harkee	1
encomiums	1
wrap	1
repeating	1
annihilating	1
tremendous	1
indecision	1
impropitious	1
depositing	1
fifteenth	1
imbibe	1
staff	1
spectator	1
madambut	1
unsteady	1
ancient	1
triumphed	1
calais	1
immediatelythat	1
modernize	1
thread	1
undetermined	1
suited	1
bonds	1
widely	1
eighth	1
moulded	1
clxv	1
closely	1
repels	1
neverending	1
inconvenient	1
updated	1
excel	1
prince	1
numbers	1
wariness	1
posterity	1
succeededi	1
motionwhat	1
ensued	1
reconnoitre	1
demonstrating	1
arrogance	1
lessen	1
helps	1
dominion	1
methodical	1
goyou	1
recognize	1
elapsing	1
myselfbut	1
lxxv	1
prematurely	1
gerstenfeld	1
relaxing	1
laughter	1
outdone	1
unbounded	1
nations	1
duennas	1
articulated	1
idling	1
clxvii	1
enormous	1
afforded	1
ideal	1
agrees	1
incontestable	1
models	1
considerably	1
richardsons	1
relaxed	1
enliven	1
reads	1
conception	1
lap	1
bystanders	1
spiritual	1
impressed	1
censurable	1
callous	1
temporal	1
manoeuverer	1
mourning	1
lets	1
bewildered	1
experiencing	1
compass	1
moore	1
repliedthe	1
xxxiii	1
hurling	1
counterpoise	1
philosopher	1
practical	1
tasted	1
memorial	1
soulwhat	1
vitiate	1
relations	1
betimes	1
eulogiums	1
greatness	1
reservd	1
throb	1
reclaim	1
discussed	1
somethingand	1
childishness	1
thoughtful	1
orosmane	1
heats	1
succeededbut	1
transcendent	1
misrepresent	1
itbut	1
vi	1
bargaining	1
unremitting	1
forgets	1
everywhere	1
backstairs	1
wellknown	1
wifes	1
heavenly	1
hotel	1
deservei	1
uncertainty	1
submissively	1
negligent	1
debating	1
engross	1
mischievousness	1
illusions	1
cxl	1
clxiv	1
coffeehouses	1
mediation	1
bottom	1
parent	1
conditionto	1
inaccurate	1
invitations	1
creep	1
pouring	1
inconveniencies	1
ithe	1
debtor	1
warmly	1
engraven	1
binds	1
scarcity	1
waist	1
pliant	1
dextrous	1
grove	1
fataland	1
loveyet	1
league	1
data	1
feasible	1
egad	1
salutation	1
preacher	1
tutor	1
rested	1
advices	1
invade	1
adhered	1
reveries	1
partition	1
sinecure	1
insisting	1
catechises	1
despaired	1
acceding	1
iswhat	1
consumed	1
interrogate	1
direction	1
mistressthe	1
contradiction	1
entendre	1
sentimentswhy	1
enslaved	1
relished	1
secures	1
learning	1
occasionally	1
iniquity	1
pronouncei	1
misanthropy	1
obscurity	1
inand	1
wwwgutenbergorgcontact	1
unfaithful	1
handbut	1
remonstrances	1
felicitated	1
methodically	1
varies	1
tap	1
traveller	1
xx	1
disapproving	1
infringement	1
humoured	1
trunk	1
xl	1
xxxii	1
promisd	1
tearmy	1
captious	1
cli	1
suppresses	1
list	1
heirs	1
caught	1
subsist	1
theft	1
piques	1
forgiveness	1
xxiv	1
vowed	1
welli	1
retract	1
capacity	1
amazed	1
fiochi	1
incumbent	1
immersed	1
chevalierare	1
robe	1
pleading	1
dining	1
reposeall	1
ix	1
vilest	1
expressiveness	1
warning	1
womanlet	1
interspersed	1
revolutions	1
sermons	1
privately	1
calculation	1
adoration	1
themwhen	1
hesitates	1
deeprooted	1
stomach	1
lasses	1
cxix	1
helpless	1
sustained	1
postoffice	1
knowhad	1
chef	1
outstrip	1
raving	1
weaker	1
forces	1
vanished	1
applies	1
lavished	1
solidity	1
sentimenti	1
originator	1
cliv	1
disease	1
liberties	1
depreciated	1
reunites	1
perplexity	1
fateforget	1
stiffened	1
discord	1
divulging	1
familiarly	1
tortured	1
lxxix	1
procedure	1
godoh	1
prudential	1
orator	1
myrtle	1
lxxxiii	1
intriguing	1
uttering	1
embleman	1
evident	1
requesting	1
distilled	1
surprisingly	1
goals	1
caution	1
corsicaa	1
scorn	1
descriptions	1
roof	1
criticism	1
discredit	1
attracting	1
wrongi	1
burgomasters	1
downi	1
middle	1
meetings	1
shuddering	1
unwelcome	1
sufficed	1
rubs	1
land	1
repining	1
cogent	1
reduces	1
conformably	1
consequent	1
forgeta	1
oblivionbut	1
lxxx	1
xxvi	1
halves	1
inactivity	1
bidding	1
compared	1
glancedo	1
assimilated	1
circumlocution	1
launched	1
stiff	1
supremest	1
pledged	1
idolatry	1
gratifies	1
handall	1
poignancy	1
guiltthose	1
tuned	1
rat	1
regulating	1
fooleries	1
suspecting	1
evidence	1
pleasantry	1
comedian	1
creditors	1
imparting	1
daysalthough	1
xix	1
chorus	1
vortex	1
prolix	1
miserableyou	1
reposed	1
cxxxviii	1
posthorses	1
perceives	1
intensely	1
lix	1
li	1
reformed	1
womenat	1
turning	1
cxviii	1
wellbred	1
proportion	1
irrecoverable	1
extracts	1
err	1
drawings	1
corporation	1
persuasion	1
immutable	1
slanderers	1
repentant	1
swamp	1
insensibly	1
closing	1
hesitated	1
humorously	1
roving	1
sarcastical	1
trophies	1
plagues	1
frailty	1
maximum	1
asunder	1
proffered	1
attract	1
cxliii	1
powder	1
disquietude	1
ornamented	1
detest	1
nephewgood	1
geneva	1
incitement	1
eyed	1
attaining	1
xxxvii	1
differences	1
xxxv	1
spell	1
departdepart	1
prudently	1
chalked	1
mons	1
feuillant	1
shamethere	1
temptations	1
vigilant	1
consistently	1
uniform	1
bs	1
jan	1
youindeed	1
supernatural	1
lots	1
estimation	1
altar	1
methis	1
appeased	1
characterises	1
portraits	1
armsand	1
exculpation	1
miserableoh	1
reiterated	1
differently	1
epithet	1
despite	1
isthere	1
evade	1
campaign	1
xci	1
himhowever	1
joyous	1
xviii	1
xcvii	1
losers	1
dizziness	1
lxxxix	1
lxxvi	1
metamorphosed	1
sully	1
granting	1
warfare	1
stipulations	1
magistrate	1
numerical	1
constitutes	1
processing	1
across	1
winning	1
homages	1
contemptibly	1
ruddy	1
cii	1
gratitudebut	1
trait	1
artless	1
exhausts	1
outstrips	1
subside	1
hideous	1
revel	1
stopher	1
characterhow	1
lxxxiv	1
embellishment	1
selfcontempt	1
prefacethe	1
dalilah	1
fast	1
song	1
warm	1
critical	1
enlivened	1
powers	1
profits	1
lxxii	1
springs	1
bowed	1
meis	1
designed	1
beforehandmy	1
qualify	1
redden	1
honor	1
skip	1
abashed	1
construed	1
stagnation	1
barbarity	1
criterion	1
persecuting	1
indirect	1
elements	1
airforgive	1
xxxiv	1
comparisons	1
longs	1
bandied	1
scolding	1
absencelet	1
asperity	1
delayshe	1
disk	1
smiles	1
antecedent	1
vanquished	1
bebut	1
tend	1
fermented	1
swelled	1
cxlix	1
accountable	1
astraythis	1
equals	1
thenmy	1
ordering	1
explicitly	1
outdated	1
confining	1
debased	1
weddingday	1
sincerityi	1
fiftysix	1
counterfeited	1
rewardi	1
resourcesat	1
difficultyi	1
loosened	1
nobleman	1
floor	1
comer	1
partaking	1
cavils	1
nausea	1
slower	1
poem	1
puzzles	1
unconsciously	1
handkerchief	1
recluseness	1
allotted	1
producing	1
intendedi	1
relishing	1
wasi	1
daytime	1
lxx	1
precipitation	1
scale	1
pitywere	1
enormities	1
cured	1
clxxii	1
schemethat	1
pause	1
renounces	1
xvii	1
cxv	1
calmness	1
heartfelt	1
lxxxvii	1
improper	1
exerting	1
galant	1
horrid	1
enamoured	1
aggravated	1
verbally	1
emblem	1
purifies	1
solicits	1
forerunner	1
tragic	1
impetuous	1
illmay	1
composing	1
visiting	1
contributes	1
industry	1
mobile	1
accumulated	1
undeserved	1
unconcern	1
exclamation	1
carries	1
advicei	1
station	1
adieuremember	1
shant	1
lethargicsome	1
shakes	1
thingare	1
injuring	1
violating	1
chapel	1
officious	1
seals	1
happinessthe	1
saddles	1
provision	1
charitable	1
enthusiastically	1
sections	1
intimidate	1
untractable	1
international	1
oursthey	1
mississippi	1
youon	1
irksome	1
catechism	1
liii	1
sea	1
dissent	1
ein	1
unfold	1
capua	1
beheld	1
ranged	1
incapacity	1
pleasingnot	1
conspirators	1
qualifications	1
arrives	1
lxxxvi	1
operates	1
refers	1
principally	1
unlink	1
despised	1
nanine	1
ruled	1
incur	1
impeach	1
malicious	1
guards	1
evenings	1
departurecan	1
ienlarging	1
overrun	1
usurped	1
scipio	1
despises	1
incertitude	1
infinity	1
reprisal	1
stick	1
repulse	1
slender	1
silentand	1
lays	1
barrier	1
withinside	1
diversity	1
needful	1
indelicacy	1
commandery	1
lean	1
victorious	1
agony	1
incidental	1
viscountesss	1
practically	1
transcription	1
implicit	1
fatiguei	1
advancement	1
english	1
xciii	1
sheyou	1
scatter	1
swooned	1
consequencesi	1
babble	1
vincennes	1
messalinas	1
allowable	1
citation	1
cxiv	1
performers	1
suspended	1
supping	1
exhibits	1
brags	1
selecting	1
grasp	1
network	1
quashed	1
fellows	1
dissidence	1
judgei	1
testified	1
rainy	1
abruptly	1
performs	1
recite	1
bashful	1
bursts	1
hominum	1
patienti	1
deali	1
naples	1
arranging	1
tartness	1
discerning	1
translated	1
existencei	1
topic	1
dresses	1
representation	1
diffusion	1
brisk	1
lxii	1
anonymous	1
prone	1
overrule	1
murmur	1
lxviii	1
portion	1
yoked	1
succeeding	1
hearti	1
obduracy	1
hundreds	1
womankind	1
reanimate	1
wastes	1
academicians	1
reunion	1
gracious	1
deceiver	1
candidly	1
lifetime	1
trembledi	1
imaginable	1
killing	1
lxxiii	1
surprises	1
counterbalance	1
fromthis	1
fermentation	1
doneat	1
owning	1
incitements	1
lifecustom	1
sola	1
decorate	1
adorn	1
capitulate	1
sleeper	1
methe	1
epithets	1
remainsi	1
telemachus	1
stairs	1
derived	1
feeds	1
indifferently	1
wedlock	1
uneasinessat	1
enervated	1
rites	1
recommending	1
xiii	1
pursuance	1
consonant	1
represent	1
otheryou	1
debauching	1
xliii	1
inquietude	1
quote	1
reaching	1
proverb	1
extensive	1
mischance	1
strives	1
polished	1
residing	1
unskilful	1
apple	1
yawns	1
fetch	1
excursion	1
cviii	1
gbnewbypglaforg	1
pays	1
braggart	1
abundantly	1
irretrievably	1
misses	1
unrevenged	1
muslin	1
privilege	1
echo	1
signing	1
exaggeration	1
affords	1
minetotally	1
gazed	1
persisted	1
suggests	1
ensuring	1
impress	1
indelicate	1
severities	1
unintentional	1
occurrence	1
extolled	1
knave	1
enhancd	1
inquired	1
straw	1
mebut	1
packed	1
range	1
lxxvii	1
hunted	1
lxiv	1
institutrix	1
eightyfour	1
defiled	1
docility	1
salt	1
cix	1
simply	1
extinguish	1
ithow	1
exalts	1
ifbut	1
slowest	1
fatei	1
thingnow	1
adversity	1
prescribing	1
lessened	1
improves	1
disclosed	1
muscles	1
stupidity	1
itand	1
laurel	1
tormentthou	1
clime	1
delusion	1
buzzing	1
hisah	1
transgressor	1
patron	1
bathd	1
relapse	1
stupified	1
educational	1
manyyet	1
cxlvi	1
stupifies	1
commendations	1
corresponds	1
profaning	1
fondly	1
lowi	1
supplies	1
betrays	1
deliverance	1
samsons	1
modification	1
pillow	1
contempthis	1
overcomes	1
desisting	1
eloquent	1
fonder	1
forest	1
valour	1
elevation	1
dreary	1
discharging	1
prodigy	1
duel	1
poorly	1
mischief	1
cypher	1
conspires	1
moderate	1
indubitable	1
whomto	1
impartial	1
accelerate	1
persecution	1
awaking	1
chagrines	1
megera	1
emilys	1
postmark	1
unreservedly	1
extended	1
inarticulate	1
ravage	1
smart	1
virtuously	1
inconsiderable	1
luxury	1
consummation	1
nonproprietary	1
preaching	1
witnesses	1
complexion	1
depressed	1
usually	1
entreaty	1
clv	1
codes	1
wits	1
lxxi	1
symptom	1
release	1
enterprising	1
xiv	1
eager	1
pickpocket	1
postpone	1
ridiculing	1
poacher	1
socrates	1
vanishedwhat	1
thankd	1
snatch	1
benefactor	1
main	1
dog	1
clxii	1
undeceived	1
ceremonial	1
ran	1
predicted	1
planning	1
moralist	1
justificationbut	1
loiter	1
tracing	1
reserving	1
complicity	1
ak	1
weeps	1
rust	1
unworthily	1
inventions	1
elegant	1
xcv	1
eternally	1
harvest	1
necessaryand	1
weigh	1
extends	1
disburthen	1
frown	1
extremes	1
impute	1
miscellaneous	1
negociation	1
bleed	1
tires	1
mildness	1
therebut	1
airing	1
wherewithal	1
officer	1
push	1
pronouncedwell	1
deferring	1
timidyou	1
suffocate	1
regards	1
trademarkcopyright	1
lxix	1
disobeys	1
doctor	1
throughout	1
convenience	1
siege	1
wake	1
affront	1
subsided	1
hooted	1
prepares	1
statei	1
ensnare	1
inclinationthe	1
limits	1
prefers	1
respirationassumed	1
exclaim	1
fresher	1
gercourtmust	1
illtempered	1
humanity	1
disregarded	1
virtuevirtue	1
loins	1
arrest	1
inseparably	1
foretell	1
lull	1
entrusted	1
informations	1
lii	1
excusing	1
taxed	1
repel	1
againoh	1
disgusting	1
comeatable	1
ladys	1
forgives	1
decypher	1
mingled	1
infused	1
throws	1
tranquility	1
burthen	1
adventuresa	1
fought	1
sincerelystruck	1
dined	1
recruit	1
afflictionto	1
sups	1
undistinguishable	1
vouchsafed	1
rewarded	1
pardons	1
depravation	1
brains	1
niceties	1
betterso	1
declaiming	1
leaned	1
blackest	1
huffed	1
cherished	1
plentiful	1
involuntarilyscarce	1
seats	1
traitor	1
tempestuous	1
tree	1
impossibility	1
shed	1
extatic	1
fulfilin	1
kindnessthey	1
mixture	1
antichamber	1
maturing	1
unworthiness	1
darted	1
metaphysics	1
indecently	1
tormentsno	1
absolution	1
highness	1
evaporated	1
aggravating	1
publishing	1
annex	1
dispelled	1
sue	1
cloister	1
digested	1
incidents	1
bundle	1
moretake	1
tenth	1
plied	1
piqued	1
centre	1
defaced	1
inadequate	1
torture	1
jargon	1
xxx	1
snares	1
daysi	1
benevolent	1
dwelling	1
ornamenting	1
casting	1
slide	1
samson	1
pulse	1
sooth	1
unfashionable	1
concerted	1
realizing	1
arrangements	1
duchesss	1
reservedness	1
cxli	1
ceased	1
strangest	1
strangerit	1
saluted	1
mute	1
retiredwhat	1
esteems	1
elevate	1
moderated	1
liv	1
bar	1
horribly	1
finishing	1
happyand	1
magic	1
refines	1
imputations	1
contented	1
urges	1
rashness	1
rigorists	1
naming	1
raisd	1
kneesalas	1
amours	1
soothingly	1
impelled	1
avails	1
vanishes	1
quicker	1
ambitious	1
disingenuity	1
lxxviii	1
veins	1
uneasinessi	1
headmy	1
orbut	1
variegated	1
freelywhat	1
formally	1
perspicuity	1
indefatigable	1
lxv	1
clx	1
amicable	1
misanthropes	1
resulted	1
wrings	1
fro	1
ranks	1
distinguish	1
warmed	1
group	1
disdaining	1
rightstrike	1
factors	1
politicians	1
inconsistent	1
curiously	1
erecting	1
stone	1
philosophers	1
presenting	1
destructive	1
consolationpity	1
overcoming	1
gardendoor	1
fund	1
kentzinger	1
gauze	1
regained	1
tended	1
theni	1
breathe	1
successors	1
praising	1
ridiculousness	1
chase	1
zealit	1
raillery	1
fartheryour	1
supplicating	1
estate	1
feelis	1
unmarried	1
glorious	1
compassionated	1
entrapped	1
sinister	1
rustic	1
refuted	1
educate	1
profligacy	1
manes	1
phraseswhat	1
sympathetic	1
diffuses	1
collectionhere	1
convulsionsthose	1
sounding	1
secrecythat	1
cxlvii	1
inflicted	1
transactions	1
blast	1
deplorable	1
trials	1
graceful	1
remonstrate	1
axiom	1
testimony	1
creator	1
hastening	1
sad	1
evenunhappy	1
listening	1
bon	1
usthus	1
armour	1
adverse	1
blooming	1
legally	1
alterations	1
conspicuous	1
negligences	1
dose	1
duplicity	1
converts	1
tyrant	1
foolery	1
errori	1
advantageously	1
demonstrable	1
rates	1
mehe	1
lviii	1
consigned	1
objected	1
consolationsthe	1
confinement	1
xcviii	1
exploded	1
monastic	1
superscribed	1
confessed	1
paristwo	1
bodily	1
inviting	1
enchanted	1
glancing	1
requiring	1
lance	1
countenances	1
proofread	1
poured	1
backstairsas	1
apologists	1
writingat	1
comte	1
candourif	1
neveri	1
crave	1
relent	1
xxviii	1
merciful	1
inevitable	1
himnot	1
readiest	1
attracted	1
consecrate	1
clxx	1
atone	1
ranked	1
exempts	1
votaries	1
phraseit	1
defended	1
drunken	1
themit	1
onethe	1
broils	1
defamed	1
snatched	1
tea	1
omnipotent	1
repine	1
mansion	1
presages	1
negative	1
temporising	1
bribe	1
thorns	1
itwhat	1
reasonings	1
unpleasing	1
illustrious	1
plenitude	1
root	1
affluent	1
convulsionsyou	1
lustre	1
embellishments	1
relax	1
cordiality	1
undertaking	1
unprincipled	1
ells	1
abyss	1
feather	1
xlii	1
respiration	1
piercing	1
reconsidering	1
infor	1
prejudiced	1
eloisa	1
ails	1
dedicate	1
impassible	1
cavalier	1
yearsan	1
adjourned	1
scarlet	1
comebut	1
tiberiuses	1
feelthat	1
pattern	1
ensue	1
cabinet	1
xc	1
translate	1
assigning	1
neglecting	1
premises	1
adoptedit	1
fulli	1
disengage	1
heedless	1
fret	1
professor	1
recluse	1
implored	1
withdrew	1
weaknesses	1
abb	1
twig	1
college	1
cut	1
arch	1
birds	1
dothis	1
actuated	1
xciv	1
windowbut	1
dispels	1
roombut	1
pedantic	1
plate	1
dark	1
shipwreck	1
barefaced	1
dealings	1
inadvertency	1
courts	1
gravely	1
adversaries	1
palliate	1
condemnation	1
vehemence	1
blended	1
architect	1
cl	1
joining	1
entreaties	1
coalesced	1
indigested	1
accuracy	1
weepit	1
rub	1
progressions	1
breeding	1
perplexed	1
scattered	1
pretexts	1
lulls	1
forcing	1
merry	1
mannerjust	1
fontaines	1
bubbled	1
cite	1
affable	1
queen	1
furniture	1
fitness	1
thwarting	1
propositions	1
opportunityit	1
aliment	1
goddess	1
morehow	1
halfraised	1
abdication	1
enchantress	1
splendour	1
acknowledgementsit	1
reign	1
punctuality	1
steals	1
pleasingly	1
precedes	1
dejectedmadame	1
degreein	1
continuation	1
decisions	1
expiations	1
disposing	1
du	1
exporting	1
castleand	1
unopenednot	1
whilenothing	1
unbecoming	1
broth	1
sanctuary	1
waters	1
alternate	1
families	1
shook	1
vaunted	1
grossly	1
meshe	1
pompous	1
accosting	1
baffled	1
toilsome	1
cxxvi	1
youit	1
further	1
draws	1
infer	1
inferiority	1
critics	1
famed	1
observer	1
nothwithstanding	1
determinedto	1
holland	1
insufficient	1
operate	1
weighed	1
bewitched	1
treasured	1
cxxxvi	1
enjoin	1
subaltern	1
exposing	1
panic	1
checks	1
trained	1
cheer	1
mentioning	1
speakher	1
conducting	1
perseveres	1
banner	1
violate	1
occupy	1
minister	1
felicities	1
thisit	1
diminution	1
literally	1
halfway	1
fools	1
capacities	1
disclose	1
eveningi	1
climb	1
animates	1
eating	1
visited	1
afterbut	1
prodigious	1
interposition	1
peevish	1
identify	1
provoking	1
authoritysure	1
excesses	1
celadon	1
hearty	1
rascal	1
provisions	1
whining	1
comprehending	1
togetherhave	1
insulted	1
watching	1
chapter	1
europe	1
spleen	1
persecute	1
prevention	1
alcibiades	1
continence	1
condemns	1
contemplating	1
acquisition	1
analogy	1
representing	1
selfish	1
surprisedthe	1
ungenerous	1
clxi	1
currency	1
consoles	1
shadow	1
soliciting	1
perfections	1
joints	1
knock	1
interestingafter	1
wherever	1
formality	1
dealing	1
breaks	1
dissolved	1
wwwgutenbergorglicense	1
blown	1
founder	1
scissars	1
somuchboasted	1
courtezan	1
falsity	1
friendshipit	1
revenue	1
fewmen	1
allthis	1
shes	1
distributor	1
lonely	1
idol	1
busied	1
hersi	1
cuts	1
conflicts	1
congratulated	1
elect	1
annihilation	1
genteelest	1
volunteer	1
licentious	1
cxlii	1
petyour	1
shrewd	1
volatility	1
turbulence	1
encounterhow	1
disaster	1
painfully	1
bill	1
disclaimers	1
prying	1
panted	1
progression	1
infidelities	1
subsisted	1
endorsed	1
audacious	1
conjectured	1
stored	1
virus	1
chivalry	1
babe	1
diminish	1
disowned	1
studies	1
sighing	1
xxi	1
xliv	1
securely	1
zealously	1
storms	1
friday	1
maude	1
timeand	1
seductor	1
wanton	1
calmed	1
cowardly	1
wont	1
boulevard	1
internal	1
clouds	1
wellplaced	1
reigned	1
ccas	1
tricks	1
antique	1
practising	1
professed	1
pand	1
longspun	1
calash	1
driven	1
borders	1
roch	1
cxlv	1
imprecations	1
prosperity	1
conference	1
punctually	1
slanders	1
reduce	1
mediator	1
gentleness	1
politically	1
stirred	1
cameit	1
genus	1
enquiry	1
establishment	1
unction	1
clxiii	1
club	1
meditation	1
applause	1
resurrection	1
declining	1
exceptionable	1
xxii	1
conventual	1
separatedthe	1
ruffs	1
invalidity	1
mournful	1
distaste	1
ailed	1
eighty	1
invisible	1
gregory	1
chin	1
valmontwhat	1
mix	1
rapidly	1
sung	1
heryes	1
overheardi	1
dancenythe	1
simplest	1
article	1
posture	1
lasts	1
furnishes	1
choke	1
cometell	1
indictment	1
reposing	1
immensity	1
wrapt	1
pglaf	1
extinct	1
zip	1
statements	1
achieved	1
reckoned	1
debasing	1
rudiments	1
critically	1
heroics	1
splendid	1
manuscript	1
detestable	1
clock	1
feetinto	1
horridly	1
cxxxvii	1
encourager	1
amuses	1
selfevident	1
terrify	1
income	1
indiscreet	1
genuine	1
aggregate	1
premeditated	1
loses	1
expend	1
restricted	1
neatness	1
fib	1
attains	1
explanations	1
abortive	1
confidences	1
frozen	1
hurries	1
injuriously	1
frantic	1
seduces	1
doleful	1
meansand	1
respite	1
proscribe	1
embarrassmenthowever	1
interrupt	1
notifies	1
reviving	1
permits	1
heating	1
pennypost	1
obsolete	1
frivolousness	1
accomplices	1
magdalen	1
cxxv	1
prate	1
characterthe	1
transitions	1
shortly	1
pained	1
tribute	1
clandestine	1
gentlest	1
irritate	1
reproachhis	1
preparatory	1
rude	1
prophesy	1
yonder	1
rocks	1
goodnature	1
involuntarily	1
xxvii	1
felicitate	1
companion	1
annotations	1
singly	1
pacific	1
insinuate	1
housekeeper	1
mannerthat	1
licensed	1
acquiescing	1
relationship	1
fatiguedi	1
resort	1
pant	1
itthis	1
yetthe	1
clvii	1
debauchee	1
lx	1
breathefeel	1
finale	1
afraidthat	1
lingering	1
exacttake	1
forwarded	1
regale	1
treble	1
totallydo	1
ringing	1
comprehends	1
medea	1
merteuili	1
stolen	1
ages	1
bath	1
examining	1
upright	1
comic	1
weaknessthose	1
assailed	1
confessors	1
cheap	1
sacraments	1
tis	1
sorts	1
soured	1
satiated	1
indeedshe	1
untinctured	1
performances	1
praying	1
pretending	1
arisen	1
cxi	1
palpitated	1
punishit	1
thereby	1
cxiii	1
perusing	1
lighter	1
reception	1
quantity	1
perishing	1
yesterdayor	1
exactingso	1
hearted	1
purse	1
lxvii	1
catch	1
reverted	1
sway	1
strengthens	1
anticipates	1
stray	1
circumstantial	1
justificationperhaps	1
abode	1
exclusively	1
amendment	1
youa	1
entwined	1
hush	1
bride	1
playwe	1
relaxation	1
along	1
forthis	1
gets	1
earliest	1
remembered	1
modish	1
females	1
drops	1
lxiii	1
sultana	1
companions	1
consultation	1
otheralthough	1
superfluities	1
meone	1
yourselfand	1
deferred	1
week	1
essence	1
points	1
hissings	1
revered	1
aspire	1
acrimonious	1
introduces	1
ingenuous	1
curing	1
exciting	1
promotion	1
strains	1
flyhe	1
obscure	1
depute	1
cxxiii	1
offends	1
consciousness	1
revealing	1
parts	1
infect	1
xxxviii	1
inn	1
looby	1
description	1
cognisance	1
applauding	1
equivalent	1
redoublest	1
kneel	1
periodic	1
staid	1
midnight	1
industrious	1
comei	1
untie	1
distinguishes	1
themnow	1
devotion	1
indiscreetly	1
scream	1
examinei	1
threatening	1
multiplying	1
gratefully	1
thwarted	1
epicurism	1
nonewhilst	1
ranging	1
battle	1
fredericks	1
unanswered	1
demon	1
rejoice	1
temptationi	1
thankful	1
swallow	1
operations	1
friendi	1
preparation	1
xv	1
rapturous	1
lovd	1
mediatrix	1
forego	1
censured	1
latest	1
exhortation	1
lifted	1
chid	1
fairbanks	1
miraculous	1
eternity	1
irs	1
philosophy	1
superfluous	1
disburden	1
mask	1
exercised	1
lovefor	1
includes	1
renewedi	1
smaller	1
shuts	1
halfhour	1
rapid	1
letterand	1
dissertation	1
substituting	1
hateful	1
outlines	1
criticisms	1
food	1
dispensation	1
tomorrowi	1
initiate	1
defeats	1
gainers	1
ultimately	1
dangled	1
enlightening	1
decidedly	1
fie	1
deign	1
consequencehe	1
reliefi	1
embarrassments	1
foils	1
partook	1
successi	1
dissembled	1
instilled	1
writer	1
excelling	1
apprehending	1
hinges	1
childhood	1
worthless	1
panegyric	1
shuffle	1
sanction	1
admission	1
faded	1
challenges	1
dangerousand	1
loveronly	1
confidents	1
keyhole	1
debase	1
excruciating	1
sends	1
bitterly	1
unintentionally	1
recovering	1
cxxxi	1
courtship	1
considerate	1
delineate	1
perturbation	1
ornament	1
forwardthis	1
peaceably	1
destiny	1
crownd	1
triumphal	1
agonies	1
recitative	1
misunderstanding	1
memorythis	1
occasionallydont	1
complacency	1
happinessi	1
viii	1
forefathers	1
quoting	1
absolve	1
tribe	1
roads	1
trade	1
remonstrated	1
athenian	1
ditch	1
piquet	1
hides	1
unoccupied	1
hath	1
disperse	1
disappoint	1
viscountgood	1
untainted	1
passionthis	1
permitting	1
knewfrom	1
motivei	1
styleand	1
panting	1
resolvedbut	1
hypertext	1
extacy	1
contaminated	1
grandeur	1
obtains	1
ideahowever	1
eventual	1
technical	1
maturer	1
footmans	1
embarrassing	1
encountering	1
disgraces	1
indemnity	1
mutability	1
faintness	1
weighs	1
forfeit	1
sinner	1
intimidates	1
suits	1
guaranteed	1
clxxi	1
needcertainly	1
reprobate	1
laments	1
bewail	1
slides	1
competing	1
pierced	1
murmurings	1
barren	1
spectators	1
members	1
specimen	1
insensibleyesterday	1
heres	1
saves	1
fervently	1
subjecting	1
diligently	1
abundance	1
overpower	1
thyselfwhat	1
confluent	1
threatens	1
mildnesswhere	1
sentences	1
svigns	1
contagion	1
disclosing	1
discontinue	1
epoch	1
inflicting	1
clears	1
countries	1
folding	1
cxxxv	1
unexamined	1
ferocious	1
disturbs	1
roux	1
contrivers	1
safer	1
carei	1
stylea	1
closedwhen	1
prevailing	1
monk	1
compliant	1
conventional	1
theatrical	1
bellois	1
watchful	1
entice	1
amorously	1
antipathy	1
madding	1
boils	1
proposing	1
shake	1
nocturnal	1
knocking	1
tyrants	1
bestthe	1
urged	1
previous	1
reflectionsit	1
level	1
comedyi	1
arbour	1
wherefore	1
destroys	1
extol	1
illhumour	1
luxurious	1
attendance	1
josephines	1
additions	1
cvii	1
deliberate	1
finis	1
risked	1
sightshe	1
adoring	1
functions	1
respected	1
samethe	1
unmeaning	1
uncovered	1
retains	1
wain	1
heels	1
turennes	1
unanimously	1
ancients	1
representations	1
department	1
obtaind	1
subtle	1
function	1
consists	1
sensual	1
engrave	1
jj	1
numberless	1
relying	1
forever	1
conforming	1
benediction	1
contrives	1
touched	1
racking	1
prophesies	1
exulted	1
lxxxviii	1
cxxiv	1
inconsistently	1
achieve	1
wast	1
censures	1
awayyou	1
church	1
assemblage	1
deductible	1
meal	1
notorious	1
humanly	1
besets	1
dancenyim	1
unfolding	1
opportunely	1
plaintive	1
middleaged	1
finery	1
strokes	1
placing	1
mistakenhe	1
west	1
tongueit	1
distresses	1
revere	1
severest	1
sermonize	1
incentive	1
marplots	1
exchanged	1
roomshall	1
resolves	1
confer	1
salvation	1
youd	1
wasting	1
loveyes	1
beggd	1
voices	1
charities	1
overload	1
embarrass	1
expedition	1
affirm	1
wrapped	1
regretbut	1
dutch	1
indifferencea	1
displays	1
rulesif	1
unwilling	1
blockhead	1
mentes	1
fingers	1
steady	1
consummate	1
experiencedat	1
noticeuntil	1
historian	1
odalisk	1
dislike	1
letterwoman	1
expense	1
unconnected	1
harp	1
expiation	1
existencenothing	1
unhappyhow	1
warded	1
mould	1
roll	1
transcribe	1
tempts	1
convulsive	1
supplanted	1
sighi	1
rouge	1
mysterious	1
unentertaining	1
prolonged	1
giddy	1
believes	1
cv	1
xii	1
tumultuously	1
card	1
hannibal	1
duos	1
extinguished	1
foe	1
clviii	1
prized	1
alarmingi	1
stays	1
prognosticate	1
ditty	1
diffused	1
allfor	1
appease	1
superiors	1
school	1
hired	1
boulogne	1
ear	1
shone	1
viscountis	1
petulance	1
patriarchal	1
alert	1
diminishes	1
bandsalready	1
byeroads	1
altercation	1
mischiefs	1
footing	1
lake	1
visitor	1
guarantied	1
inquiry	1
reducing	1
freedom	1
modern	1
disrelish	1
revealed	1
tediousness	1
scared	1
ruminated	1
togetheri	1
thin	1
contradict	1
frivolities	1
crowded	1
quicken	1
lamentationnothing	1
ratified	1
restrain	1
remonstrance	1
stipulated	1
morally	1
lv	1
timelet	1
sportsmen	1
elucidation	1
recopied	1
preceding	1
threats	1
ruffling	1
forebodings	1
partizansstill	1
paperwork	1
varied	1
assurances	1
solicitous	1
displeasure	1
stronglyno	1
maintaining	1
coquettes	1
youbut	1
plaintiff	1
tormentsyou	1
reasonsi	1
recollects	1
xxv	1
godexcessive	1
smitten	1
donors	1
chambre	1
incited	1
harmless	1
turnd	1
proprietary	1
briskly	1
exordium	1
damned	1
journeys	1
gloryi	1
incrusted	1
disquietedas	1
morningif	1
weakening	1
accompaniment	1
pulpit	1
enlightened	1
wellbut	1
moreyou	1
tragedy	1
hangs	1
differs	1
amidst	1
demoniac	1
strongerwhat	1
nose	1
pg	1
bordering	1
separately	1
fourth	1
flutters	1
panegyrist	1
declares	1
cousin	1
trammels	1
gloryno	1
ostler	1
participating	1
traced	1
prosecuting	1
serving	1
congenial	1
entail	1
possiblenothing	1
inflict	1
methen	1
squeezd	1
contradicting	1
excellence	1
wellbeloveds	1
drink	1
griefbut	1
shining	1
valmontbut	1
etiquette	1
frets	1
sallies	1
impracticable	1
outrageous	1
excessall	1
nurse	1
criminali	1
primum	1
modified	1
sighed	1
subjection	1
containsbut	1
camethe	1
unattended	1
undeserving	1
smoothed	1
managing	1
sheis	1
frolic	1
retrenchments	1
lettercase	1
introducing	1
ingredient	1
collector	1
wafts	1
itthus	1
xlix	1
lamode	1
formher	1
feed	1
irreversible	1
cherishes	1
mutter	1
italy	1
sleeping	1
procuring	1
failings	1
soup	1
hang	1
accessed	1
collects	1
undressing	1
grows	1
uncertainties	1
perplexing	1
yourselfhe	1
publicly	1
damaged	1
truebut	1
abates	1
removal	1
riches	1
richardson	1
closeness	1
habits	1
defeated	1
doubling	1
violates	1
fortieth	1
catchword	1
circumstantially	1
desist	1
insures	1
himat	1
undisturbed	1
offerings	1
mustno	1
fickleness	1
organized	1
illwill	1
leaning	1
dejection	1
happyi	1
rack	1
pernicious	1
male	1
habitual	1
forfeited	1
subterfuge	1
outward	1
plungesremorse	1
additionally	1
expiring	1
accidental	1
cxlviii	1
boardingschool	1
entangle	1
imaginablethe	1
flightoh	1
lavish	1
misconduct	1
abased	1
itshe	1
julias	1
magisterial	1
dissatisfiedi	1
opposing	1
laboursthat	1
cxxxix	1
denials	1
blends	1
forehead	1
prognostics	1
defensive	1
impels	1
luckily	1
tendernessnot	1
abettor	1
tournaments	1
reprobated	1
lamentation	1
clxxiii	1
thanked	1
uselessto	1
explosions	1
annum	1
nighther	1
xvi	1
beer	1
addressing	1
dishonoured	1
lawsuits	1
vs	1
fashions	1
dreadedthen	1
protract	1
lightly	1
surpass	1
lxxiv	1
succeeds	1
prop	1
ruling	1
slipped	1
scrutoire	1
deposited	1
indemnified	1
formalities	1
livresit	1
translator	1
superscription	1
cxxvii	1
thicket	1
cxii	1
multiplied	1
thingwhy	1
depending	1
sustain	1
bankruptcy	1
demur	1
gross	1
appreciated	1
timeit	1
profession	1
ultimate	1
bless	1
annoying	1
clii	1
latteri	1
guiltythou	1
httpwwwgutenbergorg	1
rigourist	1
executive	1
familiarises	1
enchantment	1
graciously	1
saturday	1
outcry	1
errant	1
exploits	1
clxvi	1
stem	1
drama	1
rendering	1
enchantingly	1
tanville	1
onei	1
paltry	1
lovewhere	1
childs	1
bought	1
themthey	1
fenillants	1
heartyour	1
digressions	1
futile	1
eveningthe	1
preach	1
fostersister	1
escapes	1
successorwhat	1
authenticated	1
hopesthe	1
imagines	1
cliii	1
incurred	1
preservation	1
hungry	1
interrogating	1
torturing	1
infatuation	1
sayi	1
entities	1
ripen	1
assembled	1
xli	1
clever	1
astonish	1
fairly	1
overthrown	1
objections	1
lvi	1
clxxiv	1
movement	1
extricate	1
everoh	1
hideously	1
coquet	1
thomas	1
themlet	1
conquered	1
ascertaining	1
authenticate	1
infatuated	1
conviction	1
incurring	1
outset	1
editor	1
working	1
avers	1
offspring	1
hourly	1
efficaciously	1
incomplete	1
compliances	1
powersproceed	1
framed	1
lawn	1
uttered	1
intelligencei	1
lantern	1
rated	1
almanack	1
advantagei	1
synonymous	1
lethargy	1
unceasingly	1
levee	1
maintain	1
uneasinessevery	1
amount	1
shafts	1
xcvi	1
quarters	1
ciii	1
exactitudei	1
september	1
shoulders	1
tasting	1
formerlyadieu	1
renews	1
surmounted	1
shocks	1
contemplation	1
xcii	1
blue	1
xlv	1
retards	1
fugitive	1
vii	1
couched	1
redressing	1
requeststhat	1
breath	1
sprightliness	1
xcix	1
undertakings	1
voltaires	1
humours	1
downwards	1
mineshe	1
faintly	1
acknowledgments	1
pale	1
offhis	1
clvi	1
compiler	1
prophet	1
recommended	1
exclaiming	1
arts	1
verses	1
lives	1
conformable	1
familiarity	1
termination	1
vressacs	1
styx	1
welltimed	1
text	1
eminently	1
chooses	1
undiscoverable	1
misleads	1
acknowledges	1
desolated	1
mingling	1
oldhe	1
discharge	1
postponed	1
momentbut	1
booby	1
contested	1
lines	1
cxliv	1
dictates	1
causethe	1
intelligible	1
insidious	1
sharpers	1
sheer	1
tho	1
jewels	1
presage	1
preliminaries	1
curse	1
amour	1
unsolicited	1
appellation	1
guessed	1
contended	1
acquaintances	1
fantastical	1
valiant	1
prognosticated	1
commissioners	1
murderous	1
resolutely	1
problem	1
noted	1
rheumatism	1
diction	1
untimely	1
disappear	1
creation	1
agreeableness	1
advertisement	1
cutting	1
bandages	1
talisman	1
examplary	1
withhold	1
ci	1
props	1
lenity	1
passage	1
fluttered	1
intense	1
credulity	1
surest	1
lenient	1
afteri	1
irremediable	1
insupportableleave	1
rapturebehold	1
chagrins	1
prouder	1
pusillanimous	1
slips	1
palliatives	1
reestablish	1
whiner	1
swearbut	1
attraction	1
abandons	1
invokes	1
likes	1
hurtful	1
crowned	1
demonstration	1
yields	1
underwent	1
alexanders	1
xxxix	1
tuesday	1
henrietta	1
wellpractised	1
entreating	1
regnards	1
beaten	1
detected	1
youo	1
wonders	1
passable	1
confidants	1
selfexception	1
aloneher	1
intervals	1
xxix	1
clamours	1
engrosses	1
txt	1
commiseration	1
adorned	1
basely	1
condole	1
extracted	1
mannerit	1
peaceable	1
stealth	1
innocenti	1
branch	1
x	1
overlook	1
chimneypiece	1
discountenancing	1
calculating	1
compilation	1
devoting	1
trembles	1
solve	1
pointing	1
debarred	1
woes	1
juvenile	1
admonitions	1
cxxix	1
gains	1
disavowed	1
itno	1
accursed	1
theirs	1
spur	1
elegantly	1
rewarding	1
caresi	1
rigid	1
soand	1
delicacies	1
morrow	1
feelor	1
evermy	1
rapturously	1
deletions	1
expectancy	1
north	1
feigning	1
beneficence	1
expressly	1
lxvi	1
escrutoire	1
universal	1
knavery	1
spark	1
guided	1
lusty	1
consummated	1
pensioners	1
ornamental	1
protests	1
apologize	1
tempered	1
menchmus	1
unskilfully	1
undertakes	1
piteously	1
lethargic	1
themno	1
revoked	1
footman	1
meas	1
shades	1
wearing	1
thick	1
debates	1
flatterer	1
irreconcileable	1
zealous	1
consternation	1
needs	1
againon	1
blows	1
surrenders	1
animals	1
per	1
hogshead	1
letterjulie	1
warns	1
whosoever	1
robbery	1
usages	1
objectman	1
remote	1
wore	1
allowance	1
crisis	1
deliriousness	1
protection	1
punitive	1
youthat	1
vacant	1
messalina	1
repeats	1
xi	1
cxxxii	1
inflexibility	1
slowly	1
benedictions	1
wan	1
flutter	1
