E2.0 F2.0 E-2.0 E1.0 F#1.0 E1.0 F#1.0 G1.0 A2.0 G1.0 F#1.0 G2.0 F#2.0 E2.0 G2.0 F1.0 E1.0 D2.0 C#2.0 D2.0 A2.0 G1.0 F#1.0 E2.0 E-2.0 E2.0 E2.0 D1.0 C1.0 B1.0 C2.0 B1.0 C1.0 D2.0 E1.0 F2.0 E2.0 A1.0 G1.0 F2.0 E1.0 D1.0 C1.0 D1.0 E1.0 A1.0 F#2.0 G1.0 A1.0 B-2.0 A2.0 G2.0 F2.0 E2.0 D1.0 C1.0 D1.0 E1.0 F1.0 G2.0 F1.0 F2.0 E2.0 D1.0 C1.0 F#2.0 G1.0 A1.0 G1.0 F#1.0 E1.0 E-2.0 E1.0 F#1.0 B1.0 E2.0 E-1.0 E1.0 D1.0 C1.0 B1.0 A1.0 B1.0 C2.0 B1.0 C1.0 D2.0 C1.0 D1.0 E1.0 F2.0 E1.0 D1.0 C1.0 D1.0 C1.0 B1.0 A1.0 A-2.0 A2.0 A-2.0 A2.0 G2.0 F1.0 E1.0 C1.0 D1.0 E1.0 F1.0 E1.0 D1.0 C#1.0 D1.0 G1.0 F1.0 E1.0 F2.0 E2.0 D2.0 D2.0 E-2.0 C#2.0 D1.0 E1.0 D1.0 E1.0 F1.0 G2.0 F1.0 E1.0 F2.0 E2.0 D1.0 A2.0 G1.0 F#1.0 D1.0 E1.0 F#1.0 G1.0 F1.0 E1.0 D1.0 E2.0 A1.0 D2.0 F1.0 E1.0 D1.0 C1.0 E1.0 A2.0 F#1.0 G1.0 E2.0 C#1.0 E-2.0 E2.0 G2.0 F1.0 E1.0 D2.0 C#2.0 D2.0 F2.0 E1.0 D1.0 C2.0 B2.0 C1.0 C2.0 B1.0 B-1.0 F#1.0 A-1.0 B-1.0 B1.0 A1.0 A-1.0 F#1.0 E2.0 A2.0 G1.0 F#2.0 F2.0 E2.0 E2.0 C2.0 E2.0 F2.0 E-2.0 E1.0 F#1.0 E1.0 F#1.0 A-1.0 A2.0 G1.0 F#1.0 G2.0 F2.0 E2.0 E2.0 A1.0 B1.0 C1.0 D1.0 F1.0 E1.0 D1.0 C2.0 B2.0 A2.0
A2.0 B-2.0 A-2.0 A1.0 B1.0 A1.0 B1.0 C1.0 D2.0 C1.0 B1.0 C2.0 B2.0 A2.0 A2.0 F#1.0 G1.0 E1.0 E-2.0 E1.0 E2.0 E2.0 E-2.0 E2.0 B1.0 E1.0 C#1.0 D1.0 E1.0 F2.0 E2.0 D2.0 A1.0 D1.0 B1.0 C1.0 D1.0 E2.0 D2.0 E2.0 F2.0 B2.0 A2.0 E2.0 E2.0 F2.0 E1.0 D1.0 E1.0 E2.0 D1.0 C1.0 B1.0 A2.0 B2.0 A1.0 B1.0 C2.0 B1.0 A1.0 B2.0 B2.0 E2.0 E2.0 F2.0 E-2.0 E1.0 F#1.0 E1.0 F#1.0 G1.0 A2.0 G1.0 F#1.0 G2.0 F#2.0 E2.0 E2.0 F2.0 F#2.0 G2.0 A-2.0 A2.0 G1.0 F1.0 E1.0 D2.0 E2.0 F2.0 E1.0 F1.0 D1.0 E1.0 E2.0 D1.0 C#1.0 A1.0 B1.0 C#1.0 D1.0 C1.0 B1.0 A1.0 G2.0 G2.0 C1.0 C2.0 B-1.0 A1.0 F1.0 G1.0 A1.0 B-2.0 A1.0 G1.0 A2.0 A2.0 D2.0 A2.0 B-2.0 A-2.0 A1.0 B1.0 A1.0 B1.0 C#1.0 D2.0 C1.0 B1.0 C2.0 B2.0 A2.0 D2.0 C1.0 B1.0 G1.0 A1.0 B1.0 C1.0 A1.0 B1.0 C#1.0 D1.0 C1.0 B1.0 A1.0 A-1.0 E1.0 F#1.0 A-1.0 A1.0 G1.0 F#1.0 E1.0 E-2.0 E1.0 E1.0 B2.0 B2.0 E2.0 E1.0 D1.0 C#2.0 A2.0 A2.0 G1.0 F1.0 E1.0 D1.0 C1.0 B1.0 D1.0 G2.0 G2.0 F1.0 E1.0 G1.0 C2.0 E2.0 D1.0 C#1.0 A1.0 B1.0 C#1.0 D1.0 C1.0 B1.0 A1.0 A-1.0 E1.0 A2.0 B-2.0 A-2.0 A1.0 B1.0 A1.0 B1.0 C1.0 D2.0 C1.0 B1.0 C2.0 B2.0 A2.0 A1.0 B1.0 C#1.0 D1.0 C1.0 B1.0 A1.0 A-2.0 A1.0 D1.0 E2.0 E2.0 A2.0
E2.0 F2.0 E-2.0 E1.0 F#1.0 E1.0 F#1.0 G1.0 A2.0 G1.0 F#1.0 G2.0 F#2.0 E2.0 G2.0 F1.0 E1.0 D2.0 C#2.0 D2.0 A2.0 G1.0 F#1.0 E2.0 E-2.0 E2.0 E2.0 D1.0 C1.0 B1.0 C2.0 B1.0 C1.0 D2.0 E1.0 F2.0 E2.0 A1.0 G1.0 F2.0 E1.0 D1.0 C1.0 D1.0 E1.0 A1.0 F#2.0 G1.0 A1.0 B-2.0 A2.0 G2.0 F2.0 E2.0 D1.0 C1.0 D1.0 E1.0 F1.0 G2.0 F1.0 F2.0 E2.0 D1.0 C1.0 F#2.0 G1.0 A1.0 G1.0 F#1.0 E1.0 E-2.0 E1.0 F#1.0 B1.0 E2.0 E-1.0 E1.0 D1.0 C1.0 B1.0 A1.0 B1.0 C2.0 B1.0 C1.0 D2.0 C1.0 D1.0 E1.0 F2.0 E1.0 D1.0 C1.0 D1.0 C1.0 B1.0 A1.0 A-2.0 A2.0 A-2.0 A2.0 G2.0 F1.0 E1.0 C1.0 D1.0 E1.0 F1.0 E1.0 D1.0 C#1.0 D1.0 G1.0 F1.0 E1.0 F2.0 E2.0 D2.0 D2.0 E-2.0 C#2.0 D1.0 E1.0 D1.0 E1.0 F1.0 G2.0 F1.0 E1.0 F2.0 E2.0 D1.0 A2.0 G1.0 F#1.0 D1.0 E1.0 F#1.0 G1.0 F1.0 E1.0 D1.0 E2.0 A1.0 D2.0 F1.0 E1.0 D1.0 C1.0 E1.0 A2.0 F#1.0 G1.0 E2.0 C#1.0 E-2.0 E2.0 G2.0 F1.0 E1.0 D2.0 C#2.0 D2.0 F2.0 E1.0 D1.0 C2.0 B2.0 C1.0 C2.0 B1.0 B-1.0 F#1.0 A-1.0 B-1.0 B1.0 A1.0 A-1.0 F#1.0 E2.0 A2.0 G1.0 F#2.0 F2.0 E2.0 E2.0 C2.0 E2.0 F2.0 E-2.0 E1.0 F#1.0 E1.0 F#1.0 A-1.0 A2.0 G1.0 F#1.0 G2.0 F2.0 E2.0 E2.0 A1.0 B1.0 C1.0 D1.0 F1.0 E1.0 D1.0 C2.0 B2.0 A2.0
E2.0 F2.0 E-2.0 E1.0 F#1.0 E1.0 F#1.0 G1.0 A2.0 G1.0 F#1.0 G2.0 F#2.0 E2.0 G2.0 F1.0 E1.0 D2.0 C#2.0 D2.0 A2.0 G1.0 F#1.0 E2.0 E-2.0 E2.0 E2.0 D1.0 C1.0 B1.0 C2.0 B1.0 C1.0 D2.0 E1.0 F2.0 E2.0 A1.0 G1.0 F2.0 E1.0 D1.0 C1.0 D1.0 E1.0 A1.0 F#2.0 G1.0 A1.0 B-2.0 A2.0 G2.0 F2.0 E2.0 D1.0 C1.0 D1.0 E1.0 F1.0 G2.0 F1.0 F2.0 E2.0 D1.0 C1.0 F#2.0 G1.0 A1.0 G1.0 F#1.0 E1.0 E-2.0 E1.0 F#1.0 B1.0 E2.0 E-1.0 E1.0 D1.0 C1.0 B1.0 A1.0 B1.0 C2.0 B1.0 C1.0 D2.0 C1.0 D1.0 E1.0 F2.0 E1.0 D1.0 C1.0 D1.0 C1.0 B1.0 A1.0 A-2.0 A2.0 A-2.0 A2.0 G2.0 F1.0 E1.0 C1.0 D1.0 E1.0 F1.0 E1.0 D1.0 C#1.0 D1.0 G1.0 F1.0 E1.0 F2.0 E2.0 D2.0 D2.0 E-2.0 C#2.0 D1.0 E1.0 D1.0 E1.0 F1.0 G2.0 F1.0 E1.0 F2.0 E2.0 D1.0 A2.0 G1.0 F#1.0 D1.0 E1.0 F#1.0 G1.0 F1.0 E1.0 D1.0 E2.0 A1.0 D2.0 F1.0 E1.0 D1.0 C1.0 E1.0 A2.0 F#1.0 G1.0 E2.0 C#1.0 E-2.0 E2.0 G2.0 F1.0 E1.0 D2.0 C#2.0 D2.0 F2.0 E1.0 D1.0 C2.0 B2.0 C1.0 C2.0 B1.0 B-1.0 F#1.0 A-1.0 B-1.0 B1.0 A1.0 A-1.0 F#1.0 E2.0 A2.0 G1.0 F#2.0 F2.0 E2.0 E2.0 C2.0 E2.0 F2.0 E-2.0 E1.0 F#1.0 E1.0 F#1.0 A-1.0 A2.0 G1.0 F#1.0 G2.0 F2.0 E2.0 E2.0 A1.0 B1.0 C1.0 D1.0 F1.0 E1.0 D1.0 C2.0 B2.0 A2.0
A2.0 B-2.0 A-2.0 A1.0 B1.0 A1.0 B1.0 C1.0 D2.0 C1.0 B1.0 C2.0 B2.0 A2.0 A2.0 F#1.0 G1.0 E1.0 E-2.0 E1.0 E2.0 E2.0 E-2.0 E2.0 B1.0 E1.0 C#1.0 D1.0 E1.0 F2.0 E2.0 D2.0 A2.0 B2.0 B2.0 A2.0 G1.0 F#1.0 A-1.0 A2.0 A-2.0 A2.0 B-2.0 A-2.0 A1.0 B1.0 A1.0 B1.0 C1.0 D2.0 C1.0 B1.0 C2.0 B2.0 A2.0 C2.0 B-1.0 A1.0 G2.0 F#2.0 G2.0 D2.0 C1.0 B1.0 A2.0 A-2.0 A2.0 E2.0 D1.0 C1.0 B1.0 C2.0 B1.0 A1.0 B2.0 A2.0 A-2.0 A2.0 A1.0 G1.0 A1.0 B2.0 A1.0 B1.0 C#1.0 D2.0 C1.0 B1.0 A1.0 A-2.0 A-1.0 A1.0 B2.0 A1.0 F1.0 E2.0 E2.0 E2.0 D2.0 C1.0 B1.0 G1.0 A1.0 B1.0 C1.0 B-1.0 A1.0 G1.0 F2.0 G1.0 A1.0 B-1.0 A2.0 A2.0 B-2.0 A-2.0 A1.0 B1.0 A1.0 B1.0 C1.0 D2.0 C1.0 B1.0 C2.0 B2.0 A2.0 E2.0 A1.0 B1.0 C1.0 D2.0 G1.0 A1.0 B-1.0 C2.0 F1.0 B-2.0 A2.0 B2.0 C2.0 D2.0 A2.0 A2.0 A1.0 E2.0 D1.0 C#1.0 A1.0 B1.0 C#1.0 D1.0 C1.0 B1.0 A1.0 G2.0 F2.0 E1.0 A-1.0 A1.0 B1.0 C1.0 A1.0 E-1.0 E1.0 F#2.0 B2.0 B2.0 B2.0 E2.0 A2.0 B1.0 C#1.0 D2.0 E2.0 A2.0 D1.0 D1.0 B1.0 C1.0 D1.0 E2.0 D2.0 C2.0 F#2.0 E1.0 E-1.0 B1.0 C#1.0 E-1.0 E1.0 D1.0 C#1.0 B1.0 A2.0 A-1.0 A1.0 B2.0 A2.0 D2.0 C1.0 B2.0 B1.0 C1.0 F#2.0 B2.0 A1.0 B1.0 C1.0 D1.0 G2.0 D1.0 D1.0 E1.0 A2.0 A-1.0 A2.0 A2.0 A1.0 A-1.0 A1.0 B1.0 D1.0 C1.0 B1.0 A2.0 A-2.0 E2.0
A2.0 B-2.0 A-2.0 A1.0 B1.0 A1.0 B1.0 C1.0 D2.0 C1.0 B1.0 C2.0 B2.0 A2.0 A2.0 F#1.0 G1.0 E1.0 E-2.0 E1.0 E2.0 E2.0 E-2.0 E2.0 B1.0 E1.0 C#1.0 D1.0 E1.0 F2.0 E2.0 D2.0 A1.0 D1.0 B1.0 C1.0 D1.0 E2.0 D2.0 E2.0 F2.0 B2.0 A2.0 E2.0 E2.0 F2.0 E1.0 D1.0 E1.0 E2.0 D1.0 C1.0 B1.0 A2.0 B2.0 A1.0 B1.0 C2.0 B1.0 A1.0 B2.0 B2.0 E2.0 E2.0 F2.0 E-2.0 E1.0 F#1.0 E1.0 F#1.0 G1.0 A2.0 G1.0 F#1.0 G2.0 F#2.0 E2.0 E2.0 F2.0 F#2.0 G2.0 A-2.0 A2.0 G1.0 F1.0 E1.0 D2.0 E2.0 F2.0 E1.0 F1.0 D1.0 E1.0 E2.0 D1.0 C#1.0 A1.0 B1.0 C#1.0 D1.0 C1.0 B1.0 A1.0 G2.0 G2.0 C1.0 C2.0 B-1.0 A1.0 F1.0 G1.0 A1.0 B-2.0 A1.0 G1.0 A2.0 A2.0 D2.0 A2.0 B-2.0 A-2.0 A1.0 B1.0 A1.0 B1.0 C#1.0 D2.0 C1.0 B1.0 C2.0 B2.0 A2.0 D2.0 C1.0 B1.0 G1.0 A1.0 B1.0 C1.0 A1.0 B1.0 C#1.0 D1.0 C1.0 B1.0 A1.0 A-1.0 E1.0 F#1.0 A-1.0 A1.0 G1.0 F#1.0 E1.0 E-2.0 E1.0 E1.0 B2.0 B2.0 E2.0 E1.0 D1.0 C#2.0 A2.0 A2.0 G1.0 F1.0 E1.0 D1.0 C1.0 B1.0 D1.0 E1.0 F1.0 G2.0 F1.0 E1.0 G1.0 C2.0 E2.0 D1.0 C#1.0 A1.0 B1.0 C#1.0 D1.0 C1.0 B1.0 A1.0 A-1.0 E1.0 A2.0 B-2.0 A-2.0 A1.0 B1.0 A1.0 B1.0 C1.0 D2.0 C1.0 B1.0 C2.0 B2.0 A2.0 A1.0 B1.0 C#1.0 D1.0 C1.0 B1.0 A1.0 A-2.0 A1.0 D1.0 E2.0 E2.0 A2.0
A2.0 D2.0 C2.0 D2.0 E1.0 F1.0 E1.0 F1.0 D1.0 E1.0 A2.0 A-1.0 A0.5 B0.5 C2.0 B0.5 A0.5 B2.0 A1.0 G1.0 C2.0 A2.0 B2.0 A1.0 G1.0 F#1.0 E1.0 D1.0 C#1.0 E1.0 A2.0 A2.0 G1.0 F1.0 E1.0 D1.0 C1.0 B1.0 D1.0 G2.0 G2.0 F1.0 E1.0 D1.0 E2.0 D1.0 C1.0 F2.0 D2.0 E1.0 E2.0 D1.0 C1.0 B1.0 A2.0 B2.0 A1.0 B1.0 C2.0 B1.0 A1.0 B2.0 B2.0 E2.0 E2.0 A1.0 B1.0 C#1.0 D1.0 F1.0 G1.0 A1.0 D1.0 E1.0 D1.0 C1.0 B1.0 B1.0 C#1.0 E-1.0 E1.0 G1.0 A1.0 B1.0 C2.0 C#2.0 D2.0 E-2.0 E2.0 E1.0 E1.0 F1.0 E1.0 D1.0 C1.0 B1.0 C1.0 B1.0 A1.0 A-1.0 A1.0 A-1.0 F#1.0 E2.0 F2.0 D2.0 E2.0 A2.0 A2.0 D2.0 E-2.0 E2.0 D1.0 C1.0 B2.0 C1.0 D1.0 E1.0 E2.0 D2.0 C#1.0 D1.0 E1.0 F2.0 D2.0 E2.0 F2.0 E-2.0 E1.0 F#1.0 E1.0 F#1.0 G1.0 A2.0 G1.0 F#1.0 G2.0 F#2.0 E2.0 E2.0 F2.0 F#2.0 G2.0 A-2.0 A2.0 G1.0 F1.0 E1.0 D2.0 E2.0 F2.0 E1.0 F1.0 D1.0 E1.0 E2.0 D1.0 C#1.0 A1.0 B1.0 C#1.0 D1.0 C1.0 B1.0 A1.0 G2.0 G2.0 C1.0 C2.0 B-1.0 A1.0 F1.0 G1.0 A1.0 B-2.0 A1.0 G1.0 A2.0 A2.0 D2.0 D2.0 C1.0 B1.0 A2.0 F#1.0 G1.0 E1.0 B2.0 E2.0 E1.0 E1.0 D1.0 C#1.0 A1.0 B1.0 C#1.0 D1.0 D1.0 D1.0 C1.0 B1.0 G1.0 A1.0 B1.0 C1.0 C1.0 C1.0 B-1.0 A1.0 F1.0 G1.0 A1.0 B-2.0 A1.0 G1.0 A2.0 D2.0 C2.0 B1.0 A1.0 B1.0 C#1.0 D2.0 C1.0 B1.0 C2.0 B2.0 A2.0 D2.0 C1.0 B1.0 G1.0 A1.0 B1.0 C1.0 A1.0 B1.0 C#1.0 D1.0 C1.0 B1.0 A1.0 A-1.0 E1.0 F#1.0 A-1.0 A1.0 G1.0 F#1.0 E1.0 E-2.0 E2.0 B2.0 B2.0 E1.0 F1.0 E1.0 D1.0 C#1.0 E1.0 A2.0 A2.0 G1.0 F1.0 E1.0 D1.0 C1.0 B1.0 D1.0 G2.0 G2.0 F1.0 E2.0 E2.0 E-1.0 E1.0 F#1.0 B2.0 E2.0 D1.0 C#1.0 A1.0 B1.0 C#1.0 D1.0 C1.0 B1.0 A1.0 A-1.0 E1.0 A1.0 G1.0 F1.0 E1.0 D2.0 C1.0 B1.0 A1.0 B1.0 A1.0 B1.0 C1.0 D2.0 C1.0 B1.0 C2.0 B2.0 A2.0 A1.0 B1.0 C#1.0 D1.0 C1.0 B1.0 A1.0 A-2.0 A1.0 D1.0 E2.0 E2.0 A2.0
E2.0 F2.0 E-2.0 E1.0 F#1.0 E1.0 F#1.0 G1.0 A2.0 G1.0 F#1.0 G2.0 F#2.0 E2.0 G2.0 F1.0 E1.0 D2.0 C#2.0 D2.0 F2.0 E1.0 D1.0 C2.0 B2.0 C#2.0 D2.0 B1.0 C1.0 A1.0 A-2.0 A1.0 A2.0 A2.0 A-2.0 A2.0 C2.0 B2.0 B1.0 G1.0 A2.0 F#2.0 E2.0 C2.0 B2.0 A1.0 G1.0 F#1.0 E1.0 D1.0 C#1.0 E1.0 A2.0 A2.0 G1.0 F1.0 G1.0 F1.0 E1.0 E-1.0 B1.0 E1.0 F#1.0 G2.0 F#2.0 E2.0 G1.0 C#1.0 D2.0 E-2.0 E2.0 E1.0 E1.0 F2.0 E1.0 D1.0 C1.0 B1.0 C1.0 B1.0 A1.0 A-2.0 A2.0 A-2.0 A2.0 B-1.0 C1.0 D2.0 C2.0 B1.0 B2.0 A1.0 A-1.0 E1.0 A1.0 B1.0 C2.0 B2.0 A2.0 C#2.0 D2.0 A2.0 A-2.0 A2.0 G1.0 F#1.0 E1.0 E-1.0 E1.0 E-1.0 E1.0 F#2.0 E1.0 E-1.0 E2.0 F#2.0 B2.0 E2.0 D2.0 E1.0 F2.0 E2.0 A2.0 B-2.0 A-2.0 A1.0 B1.0 A1.0 B1.0 C1.0 D2.0 C1.0 B1.0 C2.0 B2.0 A1.0 A2.0 G1.0 F#1.0 D1.0 E1.0 F#1.0 G1.0 F1.0 E1.0 D1.0 C2.0 C2.0 B-1.0 A1.0 D2.0 D2.0 D2.0 C#2.0 F2.0 E2.0 F2.0 E-2.0 E1.0 F#1.0 E1.0 F#1.0 G1.0 A2.0 G1.0 F#1.0 G2.0 F1.0 E1.0 F2.0 F2.0 B1.0 C1.0 D1.0 E2.0 A1.0 B-1.0 C1.0 D2.0 G2.0 F2.0 E2.0 D1.0 C1.0 D1.0 E1.0 A1.0 B1.0 C1.0 A1.0 F#2.0 A-2.0 A2.0 G2.0 F1.0 E1.0 C1.0 D1.0 E1.0 F1.0 E1.0 D1.0 C1.0 B1.0 D1.0 C1.0 B1.0 A2.0 C2.0 B2.0 E1.0 G1.0 F#1.0 G1.0 A2.0 G2.0 B1.0 B1.0 E1.0 C#1.0 D1.0 E1.0 F2.0 E2.0 D2.0 A1.0 F1.0 G2.0 G1.0 F1.0 E1.0 F1.0 G2.0 G2.0 B2.0 A1.0 A-1.0 E1.0 F#1.0 A-1.0 A1.0 C#1.0 D1.0 E2.0 A1.0 D2.0 C1.0 C1.0 F2.0 E0.5 D0.5 E2.0 D1.0 A1.0 A2.0 G2.0 F#1.0 G1.0 A1.0 B1.0 E1.0 F1.0 G2.0 C#2.0 D2.0 C#1.0 D1.0 E1.0 F1.0 E1.0 D1.0 C1.0 B2.0 C1.0 F1.0 E2.0 E1.0 D1.0 C#2.0
A2.0 B-2.0 A-2.0 A1.0 B1.0 A1.0 B1.0 C1.0 D2.0 C1.0 B1.0 C2.0 B2.0 A2.0 A2.0 F#1.0 G1.0 E1.0 E-0.5 E0.5 E-0.5 E0.5 E-0.5 E0.5 E-0.5 E0.5 E-0.5 E0.5 E-0.5 E0.5 E1.0 E2.0 E2.0 E-2.0 E2.0 B1.0 E1.0 C#1.0 D1.0 E1.0 F2.0 E2.0 D2.0 A2.0 B2.0 B2.0 A2.0 G1.0 F#1.0 A-1.0 A2.0 A-2.0 A2.0 B-2.0 A-2.0 A1.0 B1.0 A1.0 B1.0 C1.0 D2.0 C1.0 B1.0 C2.0 B2.0 A2.0 C2.0 B-1.0 A1.0 G2.0 F#2.0 G2.0 D2.0 C1.0 B1.0 A2.0 A-2.0 A2.0 E2.0 D1.0 C1.0 B1.0 C2.0 B1.0 A1.0 B2.0 A2.0 A-2.0 A2.0 A1.0 G1.0 A1.0 B2.0 A1.0 B1.0 C#1.0 D2.0 C1.0 B1.0 A1.0 A-2.0 A1.0 B2.0 A1.0 F1.0 E2.0 E2.0 E2.0 D2.0 C1.0 B1.0 G1.0 A1.0 B1.0 C1.0 B-1.0 A1.0 G1.0 F2.0 G1.0 A1.0 B-1.0 A2.0 A2.0 B-2.0 A-2.0 A1.0 B1.0 A1.0 B1.0 C1.0 D2.0 C1.0 B1.0 C2.0 B2.0 A2.0 E2.0 A1.0 B1.0 C1.0 D2.0 G1.0 A1.0 B-1.0 C2.0 F1.0 B-2.0 A2.0 B2.0 C2.0 D2.0 A2.0 A2.0 E2.0 D1.0 C#1.0 A1.0 B1.0 C#1.0 D1.0 C1.0 B1.0 A1.0 G2.0 F2.0 E1.0 A-1.0 A1.0 B1.0 C1.0 A1.0 E-1.0 E1.0 F#2.0 B2.0 B2.0 B2.0 E2.0 A2.0 B1.0 C#1.0 D2.0 E2.0 A2.0 D1.0 D1.0 B1.0 C1.0 D1.0 E2.0 D2.0 C2.0 F#2.0 E1.0 E-1.0 B1.0 C#1.0 E-1.0 E1.0 D1.0 C#1.0 B1.0 A2.0 A-1.0 A1.0 B2.0 A2.0 D2.0 C1.0 B2.0 C1.0 F#2.0 B2.0 A1.0 B1.0 C1.0 D1.0 G2.0 D1.0 D1.0 E1.0 A2.0 A-1.0 A2.0 A2.0 A1.0 A-1.0 A1.0 B1.0 D1.0 C1.0 B1.0 A2.0 A-2.0 E2.0
E2.0 F2.0 E-2.0 E1.0 F#1.0 E1.0 F#1.0 G1.0 A2.0 G1.0 F#1.0 G2.0 F#2.0 E2.0 G2.0 F1.0 E1.0 D2.0 C#2.0 D2.0 A2.0 G1.0 F#1.0 E2.0 E-2.0 E2.0 E2.0 D1.0 C1.0 B1.0 C2.0 B1.0 C1.0 D2.0 E1.0 F2.0 E2.0 A1.0 G1.0 F2.0 E1.0 D1.0 C1.0 D1.0 E1.0 A1.0 F#2.0 G1.0 A1.0 B-2.0 A2.0 G2.0 F2.0 E2.0 D1.0 C1.0 D1.0 E1.0 F1.0 G2.0 F1.0 F2.0 E2.0 D1.0 C1.0 F#2.0 G1.0 A1.0 G1.0 F#1.0 E1.0 E-2.0 E1.0 F#1.0 B1.0 E2.0 E-1.0 E1.0 D1.0 C1.0 B1.0 A1.0 B1.0 C2.0 B1.0 C1.0 D2.0 C1.0 D1.0 E1.0 F2.0 E1.0 D1.0 C1.0 D1.0 C1.0 B1.0 A1.0 A-2.0 A2.0 A-2.0 A2.0 G2.0 F1.0 E1.0 C1.0 D1.0 E1.0 F1.0 E1.0 D1.0 C#1.0 D1.0 G1.0 F1.0 E1.0 F2.0 E2.0 D2.0 D2.0 E-2.0 C#2.0 D1.0 E1.0 D1.0 E1.0 F1.0 G2.0 F1.0 E1.0 F2.0 E2.0 D1.0 A2.0 G1.0 F#1.0 D1.0 E1.0 F#1.0 G1.0 F1.0 E1.0 D1.0 E2.0 A1.0 D2.0 F1.0 E1.0 D1.0 C1.0 E1.0 A2.0 F#1.0 G1.0 E2.0 C#1.0 E-2.0 E2.0 G2.0 F1.0 E1.0 D2.0 C#2.0 D2.0 F2.0 E1.0 D1.0 C2.0 B2.0 C1.0 C2.0 B1.0 B-1.0 F#1.0 A-1.0 B-1.0 B1.0 A1.0 A-1.0 F#1.0 E2.0 A2.0 G1.0 F#2.0 F2.0 E2.0 E2.0 C2.0 E2.0 F2.0 E-2.0 E1.0 F#1.0 E1.0 F#1.0 A-1.0 A2.0 G1.0 F#1.0 G2.0 F2.0 E2.0 E2.0 A1.0 B1.0 C1.0 D1.0 F1.0 E1.0 D1.0 C2.0 B2.0 A2.0
A2.0 B-2.0 A-2.0 A1.0 B1.0 A1.0 B1.0 C1.0 D2.0 C1.0 B1.0 C2.0 B2.0 A2.0 A2.0 F#1.0 G1.0 E1.0 E-0.5 E0.5 E-0.5 E0.5 E-0.5 E0.5 E-0.5 E0.5 E-0.5 E0.5 E-0.5 E0.5 E1.0 E2.0 E2.0 E-2.0 E2.0 B1.0 E1.0 C#1.0 D1.0 E1.0 F2.0 E2.0 D2.0 A2.0 B2.0 B2.0 A2.0 G1.0 F#1.0 A-1.0 A2.0 A-2.0 A2.0 B-2.0 A-2.0 A1.0 B1.0 A1.0 B1.0 C1.0 D2.0 C1.0 B1.0 C2.0 B2.0 A2.0 C2.0 B-1.0 A1.0 G2.0 F#2.0 G2.0 D2.0 C1.0 B1.0 A2.0 A-2.0 A2.0 E2.0 D1.0 C1.0 B1.0 C2.0 B1.0 A1.0 B2.0 A2.0 A-2.0 A2.0 A1.0 G1.0 A1.0 B2.0 A1.0 B1.0 C#1.0 D2.0 C1.0 B1.0 A1.0 A-2.0 A1.0 B2.0 A1.0 F1.0 E2.0 E2.0 E2.0 D2.0 C1.0 B1.0 G1.0 A1.0 B1.0 C1.0 B-1.0 A1.0 G1.0 F2.0 G1.0 A1.0 B-1.0 A2.0 A2.0 B-2.0 A-2.0 A1.0 B1.0 A1.0 B1.0 C1.0 D2.0 C1.0 B1.0 C2.0 B2.0 A2.0 E2.0 A1.0 B1.0 C1.0 D2.0 G1.0 A1.0 B-1.0 C2.0 F1.0 B-2.0 A2.0 B2.0 C2.0 D2.0 A2.0 A2.0 E2.0 D1.0 C#1.0 A1.0 B1.0 C#1.0 D1.0 C1.0 B1.0 A1.0 G2.0 F2.0 E1.0 A-1.0 A1.0 B1.0 C1.0 A1.0 E-1.0 E1.0 F#2.0 B2.0 B2.0 B2.0 E2.0 A2.0 B1.0 C#1.0 D2.0 E2.0 A2.0 D1.0 D1.0 B1.0 C1.0 D1.0 E2.0 D2.0 C2.0 F#2.0 E1.0 E-1.0 B1.0 C#1.0 E-1.0 E1.0 D1.0 C#1.0 B1.0 A2.0 A-1.0 A1.0 B2.0 A2.0 D2.0 C1.0 B2.0 C1.0 F#2.0 B2.0 A1.0 B1.0 C1.0 D1.0 G2.0 D1.0 D1.0 E1.0 A2.0 A-1.0 A2.0 A2.0 A1.0 A-1.0 A1.0 B1.0 D1.0 C1.0 B1.0 A2.0 A-2.0 E2.0
E2.0 F2.0 E-2.0 E1.0 F#1.0 E1.0 F#1.0 G1.0 A2.0 G1.0 F#1.0 G2.0 F#2.0 E2.0 G2.0 F1.0 E1.0 D2.0 C#2.0 D2.0 F2.0 E1.0 D1.0 C2.0 B2.0 C#2.0 D2.0 B1.0 C1.0 A1.0 A-2.0 A1.0 A2.0 A2.0 A-2.0 A2.0 C2.0 B2.0 B1.0 G1.0 A2.0 F#2.0 E2.0 C2.0 B2.0 A1.0 G1.0 F#1.0 E1.0 D1.0 C#1.0 E1.0 A2.0 A2.0 G1.0 F1.0 G1.0 F1.0 E1.0 E-1.0 B1.0 E1.0 F#1.0 G2.0 F#2.0 E2.0 G1.0 C#1.0 D2.0 E-2.0 E2.0 E1.0 E1.0 F2.0 E1.0 D1.0 C1.0 B1.0 C1.0 B1.0 A1.0 A-2.0 A2.0 A-2.0 A2.0 B-1.0 C1.0 D2.0 C2.0 B1.0 B2.0 A1.0 A-1.0 E1.0 A1.0 B1.0 C2.0 B2.0 A2.0 C#2.0 D2.0 A2.0 A-2.0 A2.0 G1.0 F#1.0 E1.0 E-1.0 E1.0 E-1.0 E1.0 F#2.0 E1.0 E-1.0 E2.0 F#2.0 B2.0 E2.0 D2.0 E1.0 F2.0 E2.0 A2.0 B-2.0 A-2.0 A1.0 B1.0 A1.0 B1.0 C1.0 D2.0 C1.0 B1.0 C2.0 B2.0 A1.0 A2.0 G1.0 F#1.0 D1.0 E1.0 F#1.0 G1.0 F1.0 E1.0 D1.0 C2.0 C2.0 B-1.0 A1.0 D2.0 D2.0 C#2.0 F2.0 E2.0 F2.0 E-2.0 E1.0 F#1.0 E1.0 F#1.0 G1.0 A2.0 G1.0 F#1.0 G2.0 F1.0 E1.0 F2.0 F2.0 B1.0 C1.0 D1.0 E2.0 A1.0 B-1.0 C1.0 D2.0 G2.0 F2.0 E2.0 D1.0 C1.0 D1.0 E1.0 A1.0 B1.0 C1.0 A1.0 F#2.0 A-2.0 A2.0 G2.0 F1.0 E1.0 C1.0 D1.0 E1.0 F1.0 E1.0 D1.0 C1.0 B1.0 D1.0 C1.0 B1.0 A2.0 C2.0 B2.0 E1.0 G1.0 F#1.0 G1.0 A2.0 G2.0 B1.0 B1.0 E1.0 C#1.0 D1.0 E1.0 F2.0 E2.0 D2.0 A1.0 F1.0 G2.0 G1.0 F1.0 E1.0 F1.0 G2.0 G2.0 B2.0 A1.0 A-1.0 E1.0 F#1.0 A-1.0 A1.0 C#1.0 D1.0 E2.0 A1.0 D2.0 C2.0 F2.0 E0.5 D0.5 E2.0 D1.0 A1.0 A2.0 G2.0 F#1.0 G1.0 A1.0 B1.0 E1.0 F1.0 G2.0 C#2.0 D2.0 C#1.0 D1.0 E1.0 F1.0 E1.0 D1.0 C1.0 B2.0 C1.0 F1.0 E2.0 E1.0 D1.0 C#2.0
A2.0 D2.0 C2.0 D2.0 E1.0 F1.0 E1.0 F1.0 D1.0 E1.0 A2.0 A-1.0 A0.5 B0.5 C2.0 B0.5 A0.5 B2.0 A1.0 G1.0 C2.0 A2.0 B2.0 A1.0 G1.0 F#1.0 E1.0 D1.0 C#1.0 E1.0 A2.0 A2.0 G1.0 F1.0 E1.0 D1.0 C1.0 B1.0 D1.0 G2.0 G2.0 F1.0 E1.0 D1.0 E2.0 D1.0 C1.0 F2.0 D2.0 E1.0 E2.0 D1.0 C1.0 B1.0 A2.0 B2.0 A1.0 B1.0 C2.0 B1.0 A1.0 B2.0 B2.0 E2.0 E2.0 A1.0 B1.0 C#1.0 D1.0 F1.0 G1.0 A1.0 D1.0 E1.0 D1.0 C1.0 B1.0 B1.0 C#1.0 E-1.0 E1.0 G1.0 A1.0 B1.0 C2.0 C#2.0 D2.0 E-2.0 E2.0 E1.0 E1.0 F1.0 E1.0 D1.0 C1.0 B1.0 C1.0 B1.0 A1.0 A-1.0 A1.0 A-1.0 F#1.0 E2.0 F2.0 D2.0 E2.0 A2.0 A2.0 D2.0 E-2.0 E2.0 D1.0 C1.0 B2.0 C1.0 D1.0 E1.0 E2.0 D2.0 C#1.0 D1.0 E1.0 F2.0 D2.0 E2.0 F2.0 E-2.0 E1.0 F#1.0 E1.0 F#1.0 G1.0 A2.0 G1.0 F#1.0 G2.0 F#2.0 E2.0 E2.0 F2.0 F#2.0 G2.0 A-2.0 A2.0 G1.0 F1.0 E1.0 D2.0 E2.0 F2.0 E1.0 F1.0 D1.0 E1.0 E2.0 D1.0 C#1.0 A1.0 B1.0 C#1.0 D1.0 C1.0 B1.0 A1.0 G2.0 G2.0 C1.0 C2.0 B-1.0 A1.0 F1.0 G1.0 A1.0 B-2.0 A1.0 G1.0 A2.0 A2.0 D2.0 D2.0 C1.0 B1.0 A2.0 F#1.0 G1.0 E1.0 B2.0 E2.0 E1.0 E1.0 D1.0 C#1.0 A1.0 B1.0 C#1.0 D1.0 D1.0 D1.0 C1.0 B1.0 G1.0 A1.0 B1.0 C1.0 C1.0 C1.0 B-1.0 A1.0 F1.0 G1.0 A1.0 B-2.0 A1.0 G1.0 A2.0 D2.0 C2.0 B1.0 A1.0 B1.0 C#1.0 D2.0 C1.0 B1.0 C2.0 B2.0 A2.0 D2.0 C1.0 B1.0 G1.0 A1.0 B1.0 C1.0 A1.0 B1.0 C#1.0 D1.0 C1.0 B1.0 A1.0 A-1.0 E1.0 F#1.0 A-1.0 A1.0 G1.0 F#1.0 E1.0 E-2.0 E2.0 B2.0 B2.0 E1.0 F1.0 E1.0 D1.0 C#1.0 E1.0 A2.0 A2.0 G1.0 F1.0 E1.0 D1.0 C1.0 B1.0 D1.0 G2.0 G2.0 F1.0 E2.0 E2.0 E-1.0 E1.0 F#1.0 B2.0 E2.0 D1.0 C#1.0 A1.0 B1.0 C#1.0 D1.0 C1.0 B1.0 A1.0 A-1.0 E1.0 A1.0 G1.0 F1.0 E1.0 D2.0 C1.0 B1.0 A1.0 B1.0 A1.0 B1.0 C1.0 D2.0 C1.0 B1.0 C2.0 B2.0 A2.0 A1.0 B1.0 C#1.0 D1.0 C1.0 B1.0 A1.0 A-2.0 A1.0 D1.0 E2.0 E2.0 A2.0
A2.0 B-2.0 A-2.0 A1.0 B1.0 A1.0 B1.0 C1.0 D2.0 C1.0 B1.0 C2.0 B2.0 A2.0 A2.0 F#1.0 G1.0 E1.0 E-2.0 E1.0 A2.0 E2.0 F#2.0 E2.0 B1.0 E1.0 C#1.0 D1.0 E1.0 D2.0 C#2.0 D2.0 A2.0 B2.0 B2.0 A2.0 G1.0 F#1.0 D1.0 A2.0 A-2.0 D2.0 E1.0 F2.0 E2.0 A1.0 G1.0 F2.0 B2.0 A2.0 C2.0 G1.0 A1.0 G2.0 F#2.0 G2.0 D2.0 C1.0 B1.0 A2.0 A-2.0 G2.0 D1.0 F2.0 C2.0 B1.0 A1.0 B2.0 A2.0 A-2.0 A2.0 A1.0 G1.0 A1.0 B2.0 A1.0 B1.0 C#1.0 D2.0 C1.0 B1.0 A1.0 A-2.0 B1.0 A1.0 B2.0 A2.0 A-2.0 A2.0 D2.0 C1.0 B1.0 G1.0 A1.0 B1.0 C1.0 C1.0 D1.0 E1.0 F2.0 G1.0 F1.0 E1.0 F2.0 E2.0 D2.0 B-2.0 A-2.0 A1.0 B1.0 A1.0 B1.0 C1.0 D2.0 C1.0 B1.0 C2.0 B2.0 A2.0 E2.0 A1.0 B1.0 C1.0 D2.0 G1.0 A1.0 B-1.0 C2.0 F1.0 E-2.0 C#2.0 D1.0 B2.0 C2.0 G2.0 A2.0 A2.0 D1.0 E2.0 D1.0 C#1.0 A1.0 B1.0 C#1.0 D1.0 D1.0 E1.0 F#1.0 G2.0 F2.0 E1.0 F1.0 A1.0 B1.0 C1.0 A1.0 A2.0 B2.0 E-2.0 E2.0 E2.0 A2.0 B1.0 C#1.0 D2.0 C#2.0 A2.0 D1.0 D1.0 B1.0 C1.0 D1.0 C2.0 B2.0 C2.0 B1.0 B-1.0 F#2.0 E1.0 E-1.0 B1.0 A-1.0 F#1.0 E2.0 A2.0 G1.0 F#2.0 F2.0 E2.0 A2.0 D2.0 C1.0 E2.0 F2.0 E-2.0 E1.0 F#1.0 E1.0 F#1.0 D1.0 A2.0 G1.0 D1.0 G2.0 F2.0 A2.0 A2.0 A1.0 B1.0 A1.0 B1.0 D1.0 C1.0 B1.0 A2.0 B2.0 A2.0 F2.0 E-2.0 F#1.0 E1.0 F#1.0 G1.0 F#1.0 G2.0 G2.0 A2.0 G1.0 F#1.0 E2.0 E-2.0 E2.0 E2.0 C1.0 B1.0 C2.0 B1.0 C1.0 A2.0 B-2.0 A-2.0 A1.0 B1.0 A1.0 B1.0 C1.0 D2.0 E1.0 D1.0 C1.0 D1.0 E1.0 A1.0 F#2.0 F2.0 E2.0 C1.0 D1.0 E1.0 F1.0 A2.0 E2.0 C1.0 B1.0 F#2.0 G1.0 A1.0 G1.0 F#1.0 E1.0 E-2.0 E1.0 F#1.0 E2.0 E-1.0 E1.0 D1.0 C1.0 B1.0 B1.0 C2.0 D1.0 C1.0 F1.0 E2.0 G2.0 F1.0 E1.0 D1.0 C#1.0 D1.0 D2.0 A2.0 E1.0 D1.0 E1.0 F1.0 F1.0 E1.0 F2.0 E2.0 A2.0 G1.0 F1.0 E1.0 D1.0 E2.0 A1.0 D2.0 E-1.0 E1.0 F#1.0 G1.0 E2.0 C#1.0 G2.0 D2.0 F2.0 C2.0 A-1.0 D1.0 C#1.0 B1.0 A2.0 A-1.0 A1.0 C2.0 B1.0 C1.0 F#2.0 B2.0 E1.0 A2.0 A-1.0
A2.0 B-2.0 A-2.0 A1.0 B1.0 A1.0 B1.0 C1.0 D2.0 C1.0 B1.0 C2.0 B2.0 A2.0 A2.0 F#1.0 G1.0 E1.0 E-2.0 E1.0 A2.0 E2.0 F#2.0 E2.0 B1.0 E1.0 C#1.0 D1.0 E1.0 D2.0 C#2.0 D2.0 A1.0 D1.0 B1.0 C1.0 D1.0 C2.0 B2.0 C#2.0 D2.0 A1.0 A-2.0 A1.0 F2.0 A2.0 A-2.0 A2.0 A2.0 B2.0 F#2.0 C2.0 C2.0 B2.0 A1.0 E2.0 E1.0 D1.0 C#1.0 E1.0 A2.0 A2.0 G1.0 F1.0 G1.0 F1.0 E1.0 E-1.0 B1.0 E1.0 F#1.0 G2.0 F#2.0 E2.0 G1.0 C#1.0 D2.0 E-2.0 E2.0 E1.0 E1.0 F2.0 E1.0 D1.0 C1.0 B1.0 C1.0 B1.0 A1.0 A-2.0 A2.0 A-2.0 A2.0 B-1.0 C1.0 D2.0 C2.0 B1.0 B2.0 A1.0 A-1.0 E1.0 A1.0 B1.0 C2.0 B2.0 A2.0 C#2.0 D2.0 A2.0 A-2.0 F2.0 E-2.0 E1.0 F#1.0 E1.0 F#1.0 E1.0 F#2.0 E1.0 F#1.0 E2.0 F#2.0 E2.0 E2.0 F2.0 F#2.0 G2.0 F2.0 A2.0 G1.0 A2.0 B-2.0 E2.0 F2.0 E1.0 F1.0 B1.0 C2.0 B2.0 A1.0 A1.0 B1.0 C#1.0 D1.0 D1.0 E1.0 F#1.0 G2.0 G2.0 C1.0 B-1.0 A1.0 F1.0 G1.0 A1.0 B-2.0 D2.0 D2.0 A2.0 D2.0 E2.0 F2.0 E-2.0 E1.0 F#1.0 E1.0 F#1.0 G1.0 A2.0 G1.0 F#1.0 G2.0 F1.0 E1.0 F2.0 F2.0 B1.0 C1.0 D1.0 E2.0 A1.0 B-1.0 C1.0 D2.0 G2.0 B-2.0 E2.0 B1.0 A1.0 B1.0 C#1.0 D2.0 C1.0 B1.0 F#2.0 B2.0 A2.0 D2.0 C1.0 B1.0 G1.0 A1.0 B1.0 C1.0 A1.0 B1.0 C#1.0 D1.0 C1.0 B1.0 A1.0 B1.0 E1.0 F#1.0 B1.0 A2.0 C2.0 E-2.0 E1.0 E1.0 B2.0 B2.0 E2.0 E1.0 B1.0 C#2.0 A2.0 A2.0 G1.0 D2.0 D1.0 F1.0 G2.0 E1.0 F1.0 G2.0 F1.0 G2.0 C2.0 B2.0 A1.0 A-1.0 E2.0 D1.0 A1.0 A1.0 B1.0 C#1.0 D1.0 A1.0 D2.0 A2.0 B-2.0 A-2.0 A1.0 A2.0 G2.0 D2.0 A1.0 B1.0 C2.0 G2.0 A2.0 A1.0 B1.0 C#1.0 D1.0 C1.0 B1.0 A1.0 B2.0 A1.0 D1.0 E2.0 E2.0 A2.0 F2.0 E-2.0 F#1.0 E1.0 F#1.0 G1.0 F#1.0 G2.0 G2.0 F2.0 F2.0 B1.0 E2.0 E2.0 E1.0 D1.0 E1.0 E2.0 D1.0 C1.0 B1.0 B1.0 G1.0 A2.0 A1.0 B1.0 B1.0 A1.0 B2.0 B2.0 G1.0 F#1.0 A2.0 G1.0 F#1.0 E2.0 D2.0 E1.0 E2.0 F1.0 E1.0 A-2.0 A1.0 B1.0 A1.0 B1.0 C1.0 D2.0 E1.0 E2.0 D1.0 A2.0 G1.0 F1.0 E1.0 D1.0 A1.0 G1.0 A2.0 A-2.0 A1.0 A1.0 B1.0 G2.0 G1.0 F#1.0 E1.0 F#1.0 G1.0 E1.0 C#1.0 D1.0 E1.0 F2.0 E2.0 F1.0 E1.0 B1.0 D1.0 E1.0 F1.0 G2.0 E1.0 G1.0 F#1.0 E2.0 B1.0 A1.0 A-1.0 E1.0 C1.0 C1.0 F2.0 E0.5 D0.5 E2.0 D1.0 B1.0 A1.0 B1.0 C1.0 F#1.0 G1.0 E1.0 F1.0 C#2.0 D2.0 E1.0 D1.0
E2.0 F2.0 E-2.0 E1.0 F#1.0 E1.0 F#1.0 G1.0 A2.0 G1.0 F#1.0 G2.0 F#2.0 E2.0 G2.0 F1.0 E1.0 D2.0 C#2.0 D2.0 A2.0 G1.0 F#1.0 E2.0 E-2.0 E2.0 E2.0 D1.0 C1.0 B1.0 C2.0 B1.0 C1.0 D2.0 E1.0 F2.0 E2.0 A1.0 G1.0 F2.0 E1.0 D1.0 C1.0 D1.0 E1.0 A1.0 F#2.0 G1.0 A1.0 B-2.0 A2.0 G2.0 F2.0 E2.0 D1.0 C1.0 D1.0 E1.0 F1.0 G2.0 F1.0 F2.0 E2.0 D1.0 C1.0 F#2.0 G1.0 A1.0 G1.0 F#1.0 E1.0 E-2.0 E1.0 F#1.0 B1.0 E2.0 E-1.0 E1.0 D1.0 C1.0 B1.0 A1.0 B1.0 C2.0 B1.0 C1.0 D2.0 C1.0 D1.0 E1.0 F2.0 E1.0 D1.0 C1.0 D1.0 C1.0 B1.0 A1.0 A-2.0 A2.0 A-2.0 A2.0 G2.0 F1.0 E1.0 C1.0 D1.0 E1.0 F1.0 E1.0 D1.0 C#1.0 D1.0 G1.0 F1.0 E1.0 F2.0 E2.0 D2.0 D2.0 E-2.0 C#2.0 D1.0 E1.0 D1.0 E1.0 F1.0 G2.0 F1.0 E1.0 F2.0 E2.0 D1.0 A2.0 G1.0 F#1.0 D1.0 E1.0 F#1.0 G1.0 F1.0 E1.0 D1.0 E2.0 A1.0 D2.0 F1.0 E1.0 D1.0 C1.0 E1.0 A2.0 F#1.0 G1.0 E2.0 C#1.0 E-2.0 E2.0 G2.0 F1.0 E1.0 D2.0 C#2.0 D2.0 F2.0 E1.0 D1.0 C2.0 B2.0 C1.0 C2.0 B1.0 B-1.0 F#1.0 A-1.0 B-1.0 B1.0 A1.0 A-1.0 F#1.0 E2.0 A2.0 G1.0 F#2.0 F2.0 E2.0 E2.0 C2.0 E2.0 F2.0 E-2.0 E1.0 F#1.0 E1.0 F#1.0 A-1.0 A2.0 G1.0 F#1.0 G2.0 F2.0 E2.0 E2.0 A1.0 B1.0 C1.0 D1.0 F1.0 E1.0 D1.0 C2.0 B2.0 A2.0
A2.0 B-2.0 A-2.0 A1.0 B1.0 A1.0 B1.0 C1.0 D2.0 C1.0 B1.0 C2.0 B2.0 A2.0 A2.0 F#1.0 G1.0 E1.0 E-2.0 E1.0 E2.0 E2.0 E-2.0 E2.0 B1.0 E1.0 C#1.0 D1.0 E1.0 F2.0 E2.0 D2.0 A1.0 D1.0 B1.0 C1.0 D1.0 E2.0 D2.0 E2.0 F2.0 B2.0 A2.0 E2.0 E2.0 F2.0 E1.0 D1.0 E1.0 E2.0 D1.0 C1.0 B1.0 A2.0 B2.0 A1.0 B1.0 C2.0 B1.0 A1.0 B2.0 B2.0 E2.0 E2.0 F2.0 E-2.0 E1.0 F#1.0 E1.0 F#1.0 G1.0 A2.0 G1.0 F#1.0 G2.0 F#2.0 E2.0 E2.0 F2.0 F#2.0 G2.0 A-2.0 A2.0 G1.0 F1.0 E1.0 D2.0 E2.0 F2.0 E1.0 F1.0 D1.0 E1.0 E2.0 D1.0 C#1.0 A1.0 B1.0 C#1.0 D1.0 C1.0 B1.0 A1.0 G2.0 G2.0 C1.0 C2.0 B-1.0 A1.0 F1.0 G1.0 A1.0 B-2.0 A1.0 G1.0 A2.0 A2.0 D2.0 A2.0 B-2.0 A-2.0 A1.0 B1.0 A1.0 B1.0 C#1.0 D2.0 C1.0 B1.0 C2.0 B2.0 A2.0 D2.0 C1.0 B1.0 G1.0 A1.0 B1.0 C1.0 A1.0 B1.0 C#1.0 D1.0 C1.0 B1.0 A1.0 A-1.0 E1.0 F#1.0 A-1.0 A1.0 G1.0 F#1.0 E1.0 E-2.0 E1.0 E1.0 B2.0 B2.0 E2.0 E1.0 D1.0 C#2.0 A2.0 A2.0 G1.0 F1.0 E1.0 D1.0 C1.0 B1.0 D1.0 G2.0 G2.0 F1.0 E1.0 G1.0 C2.0 E2.0 D1.0 C#1.0 A1.0 B1.0 C#1.0 D1.0 C1.0 B1.0 A1.0 A-1.0 E1.0 A2.0 B-2.0 A-2.0 A1.0 B1.0 A1.0 B1.0 C1.0 D2.0 C1.0 B1.0 C2.0 B2.0 A2.0 A1.0 B1.0 C#1.0 D1.0 C1.0 B1.0 A1.0 A-2.0 A1.0 D1.0 E2.0 E2.0 A2.0
E2.0 F2.0 E-2.0 E1.0 F#1.0 E1.0 F#1.0 G1.0 A2.0 G1.0 F#1.0 G2.0 F#2.0 E2.0 G2.0 F1.0 E1.0 D2.0 C#2.0 D2.0 A2.0 G1.0 F#1.0 E2.0 E-2.0 E2.0 E2.0 D1.0 C1.0 B1.0 C2.0 B1.0 C1.0 D2.0 E1.0 F2.0 E2.0 A1.0 G1.0 F2.0 E1.0 D1.0 C1.0 D1.0 E1.0 A1.0 F#2.0 G1.0 A1.0 B-2.0 A2.0 G2.0 F2.0 E2.0 D1.0 C1.0 D1.0 E1.0 F1.0 G2.0 F1.0 F2.0 E2.0 D1.0 C1.0 F#2.0 G1.0 A1.0 G1.0 F#1.0 E1.0 E-2.0 E1.0 F#1.0 B1.0 E2.0 E-1.0 E1.0 D1.0 C1.0 B1.0 A1.0 B1.0 C2.0 B1.0 C1.0 D2.0 C1.0 D1.0 E1.0 F2.0 E1.0 D1.0 C1.0 D1.0 C1.0 B1.0 A1.0 A-2.0 A2.0 A-2.0 A2.0 G2.0 F1.0 E1.0 C1.0 D1.0 E1.0 F1.0 E1.0 D1.0 C#1.0 D1.0 G1.0 F1.0 E1.0 F2.0 E2.0 D2.0 D2.0 E-2.0 C#2.0 D1.0 E1.0 D1.0 E1.0 F1.0 G2.0 F1.0 E1.0 F2.0 E2.0 D1.0 A2.0 G1.0 F#1.0 D1.0 E1.0 F#1.0 G1.0 F1.0 E1.0 D1.0 E2.0 A1.0 D2.0 F1.0 E1.0 D1.0 C1.0 E1.0 A2.0 F#1.0 G1.0 E2.0 C#1.0 E-2.0 E2.0 G2.0 F1.0 E1.0 D2.0 C#2.0 D2.0 F2.0 E1.0 D1.0 C2.0 B2.0 C1.0 C2.0 B1.0 B-1.0 F#1.0 A-1.0 B-1.0 B1.0 A1.0 A-1.0 F#1.0 E2.0 A2.0 G1.0 F#2.0 F2.0 E2.0 E2.0 C2.0 E2.0 F2.0 E-2.0 E1.0 F#1.0 E1.0 F#1.0 A-1.0 A2.0 G1.0 F#1.0 G2.0 F2.0 E2.0 E2.0 A1.0 B1.0 C1.0 D1.0 F1.0 E1.0 D1.0 C2.0 B2.0 A2.0
E2.0 F2.0 E-2.0 E1.0 F#1.0 E1.0 F#1.0 G1.0 A2.0 G1.0 F#1.0 G2.0 F#2.0 E2.0 G2.0 F1.0 E1.0 D2.0 C#2.0 D2.0 A2.0 G1.0 F#1.0 E2.0 E-2.0 E2.0 E2.0 D1.0 C1.0 B1.0 C2.0 B1.0 C1.0 D2.0 E1.0 F2.0 E2.0 A1.0 G1.0 F2.0 E1.0 D1.0 C1.0 D1.0 E1.0 A1.0 F#2.0 G1.0 A1.0 B-2.0 A2.0 G2.0 F2.0 E2.0 D1.0 C1.0 D1.0 E1.0 F1.0 G2.0 F1.0 F2.0 E2.0 D1.0 C1.0 F#2.0 G1.0 A1.0 G1.0 F#1.0 E1.0 E-2.0 E1.0 F#1.0 B1.0 E2.0 E-1.0 E1.0 D1.0 C1.0 B1.0 A1.0 B1.0 C2.0 B1.0 C1.0 D2.0 C1.0 D1.0 E1.0 F2.0 E1.0 D1.0 C1.0 D1.0 C1.0 B1.0 A1.0 A-2.0 A2.0 A-2.0 A2.0 G2.0 F1.0 E1.0 C1.0 D1.0 E1.0 F1.0 E1.0 D1.0 C#1.0 D1.0 G1.0 F1.0 E1.0 F2.0 E2.0 D2.0 D2.0 E-2.0 C#2.0 D1.0 E1.0 D1.0 E1.0 F1.0 G2.0 F1.0 E1.0 F2.0 E2.0 D1.0 A2.0 G1.0 F#1.0 D1.0 E1.0 F#1.0 G1.0 F1.0 E1.0 D1.0 E2.0 A1.0 D2.0 F1.0 E1.0 D1.0 C1.0 E1.0 A2.0 F#1.0 G1.0 E2.0 C#1.0 E-2.0 E2.0 G2.0 F1.0 E1.0 D2.0 C#2.0 D2.0 F2.0 E1.0 D1.0 C2.0 B2.0 C1.0 C2.0 B1.0 B-1.0 F#1.0 A-1.0 B-1.0 B1.0 A1.0 A-1.0 F#1.0 E2.0 A2.0 G1.0 F#2.0 F2.0 E2.0 E2.0 C2.0 E2.0 F2.0 E-2.0 E1.0 F#1.0 E1.0 F#1.0 A-1.0 A2.0 G1.0 F#1.0 G2.0 F2.0 E2.0 E2.0 A1.0 B1.0 C1.0 D1.0 F1.0 E1.0 D1.0 C2.0 B2.0 A2.0
A2.0 B-2.0 A-2.0 A1.0 B1.0 A1.0 B1.0 C1.0 D2.0 C1.0 B1.0 C2.0 B2.0 A2.0 A2.0 F#1.0 G1.0 E1.0 E-2.0 E1.0 E2.0 E2.0 E-2.0 E2.0 B1.0 E1.0 C#1.0 D1.0 E1.0 F2.0 E2.0 D2.0 A2.0 B2.0 B2.0 A2.0 G1.0 F#1.0 A-1.0 A2.0 A-2.0 A2.0 B-2.0 A-2.0 A1.0 B1.0 A1.0 B1.0 C1.0 D2.0 C1.0 B1.0 C2.0 B2.0 A2.0 C2.0 B-1.0 A1.0 G2.0 F#2.0 G2.0 D2.0 C1.0 B1.0 A2.0 A-2.0 A2.0 E2.0 D1.0 C1.0 B1.0 C2.0 B1.0 A1.0 B2.0 A2.0 A-2.0 A2.0 A1.0 G1.0 A1.0 B2.0 A1.0 B1.0 C#1.0 D2.0 C1.0 B1.0 A1.0 A-2.0 A-1.0 A1.0 B2.0 A1.0 F1.0 E2.0 E2.0 E2.0 D2.0 C1.0 B1.0 G1.0 A1.0 B1.0 C1.0 B-1.0 A1.0 G1.0 F2.0 G1.0 A1.0 B-1.0 A2.0 A2.0 B-2.0 A-2.0 A1.0 B1.0 A1.0 B1.0 C1.0 D2.0 C1.0 B1.0 C2.0 B2.0 A2.0 E2.0 A1.0 B1.0 C1.0 D2.0 G1.0 A1.0 B-1.0 C2.0 F1.0 B-2.0 A2.0 B2.0 C2.0 D2.0 A2.0 A2.0 A1.0 E2.0 D1.0 C#1.0 A1.0 B1.0 C#1.0 D1.0 C1.0 B1.0 A1.0 G2.0 F2.0 E1.0 A-1.0 A1.0 B1.0 C1.0 A1.0 E-1.0 E1.0 F#2.0 B2.0 B2.0 B2.0 E2.0 A2.0 B1.0 C#1.0 D2.0 E2.0 A2.0 D1.0 D1.0 B1.0 C1.0 D1.0 E2.0 D2.0 C2.0 F#2.0 E1.0 E-1.0 B1.0 C#1.0 E-1.0 E1.0 D1.0 C#1.0 B1.0 A2.0 A-1.0 A1.0 B2.0 A2.0 D2.0 C1.0 B2.0 B1.0 C1.0 F#2.0 B2.0 A1.0 B1.0 C1.0 D1.0 G2.0 D1.0 D1.0 E1.0 A2.0 A-1.0 A2.0 A2.0 A1.0 A-1.0 A1.0 B1.0 D1.0 C1.0 B1.0 A2.0 A-2.0 E2.0
A2.0 B-2.0 A-2.0 A1.0 B1.0 A1.0 B1.0 C1.0 D2.0 C1.0 B1.0 C2.0 B2.0 A2.0 A2.0 F#1.0 G1.0 E1.0 E-2.0 E1.0 E2.0 E2.0 E-2.0 E2.0 B1.0 E1.0 C#1.0 D1.0 E1.0 F2.0 E2.0 D2.0 A1.0 D1.0 B1.0 C1.0 D1.0 E2.0 D2.0 E2.0 F2.0 B2.0 A2.0 E2.0 E2.0 F2.0 E1.0 D1.0 E1.0 E2.0 D1.0 C1.0 B1.0 A2.0 B2.0 A1.0 B1.0 C2.0 B1.0 A1.0 B2.0 B2.0 E2.0 E2.0 F2.0 E-2.0 E1.0 F#1.0 E1.0 F#1.0 G1.0 A2.0 G1.0 F#1.0 G2.0 F#2.0 E2.0 E2.0 F2.0 F#2.0 G2.0 A-2.0 A2.0 G1.0 F1.0 E1.0 D2.0 E2.0 F2.0 E1.0 F1.0 D1.0 E1.0 E2.0 D1.0 C#1.0 A1.0 B1.0 C#1.0 D1.0 C1.0 B1.0 A1.0 G2.0 G2.0 C1.0 C2.0 B-1.0 A1.0 F1.0 G1.0 A1.0 B-2.0 A1.0 G1.0 A2.0 A2.0 D2.0 A2.0 B-2.0 A-2.0 A1.0 B1.0 A1.0 B1.0 C#1.0 D2.0 C1.0 B1.0 C2.0 B2.0 A2.0 D2.0 C1.0 B1.0 G1.0 A1.0 B1.0 C1.0 A1.0 B1.0 C#1.0 D1.0 C1.0 B1.0 A1.0 A-1.0 E1.0 F#1.0 A-1.0 A1.0 G1.0 F#1.0 E1.0 E-2.0 E1.0 E1.0 B2.0 B2.0 E2.0 E1.0 D1.0 C#2.0 A2.0 A2.0 G1.0 F1.0 E1.0 D1.0 C1.0 B1.0 D1.0 E1.0 F1.0 G2.0 F1.0 E1.0 G1.0 C2.0 E2.0 D1.0 C#1.0 A1.0 B1.0 C#1.0 D1.0 C1.0 B1.0 A1.0 A-1.0 E1.0 A2.0 B-2.0 A-2.0 A1.0 B1.0 A1.0 B1.0 C1.0 D2.0 C1.0 B1.0 C2.0 B2.0 A2.0 A1.0 B1.0 C#1.0 D1.0 C1.0 B1.0 A1.0 A-2.0 A1.0 D1.0 E2.0 E2.0 A2.0
A2.0 D2.0 C2.0 D2.0 E1.0 F1.0 E1.0 F1.0 D1.0 E1.0 A2.0 A-1.0 A0.5 B0.5 C2.0 B0.5 A0.5 B2.0 A1.0 G1.0 C2.0 A2.0 B2.0 A1.0 G1.0 F#1.0 E1.0 D1.0 C#1.0 E1.0 A2.0 A2.0 G1.0 F1.0 E1.0 D1.0 C1.0 B1.0 D1.0 G2.0 G2.0 F1.0 E1.0 D1.0 E2.0 D1.0 C1.0 F2.0 D2.0 E1.0 E2.0 D1.0 C1.0 B1.0 A2.0 B2.0 A1.0 B1.0 C2.0 B1.0 A1.0 B2.0 B2.0 E2.0 E2.0 A1.0 B1.0 C#1.0 D1.0 F1.0 G1.0 A1.0 D1.0 E1.0 D1.0 C1.0 B1.0 B1.0 C#1.0 E-1.0 E1.0 G1.0 A1.0 B1.0 C2.0 C#2.0 D2.0 E-2.0 E2.0 E1.0 E1.0 F1.0 E1.0 D1.0 C1.0 B1.0 C1.0 B1.0 A1.0 A-1.0 A1.0 A-1.0 F#1.0 E2.0 F2.0 D2.0 E2.0 A2.0 A2.0 D2.0 E-2.0 E2.0 D1.0 C1.0 B2.0 C1.0 D1.0 E1.0 E2.0 D2.0 C#1.0 D1.0 E1.0 F2.0 D2.0 E2.0 F2.0 E-2.0 E1.0 F#1.0 E1.0 F#1.0 G1.0 A2.0 G1.0 F#1.0 G2.0 F#2.0 E2.0 E2.0 F2.0 F#2.0 G2.0 A-2.0 A2.0 G1.0 F1.0 E1.0 D2.0 E2.0 F2.0 E1.0 F1.0 D1.0 E1.0 E2.0 D1.0 C#1.0 A1.0 B1.0 C#1.0 D1.0 C1.0 B1.0 A1.0 G2.0 G2.0 C1.0 C2.0 B-1.0 A1.0 F1.0 G1.0 A1.0 B-2.0 A1.0 G1.0 A2.0 A2.0 D2.0 D2.0 C1.0 B1.0 A2.0 F#1.0 G1.0 E1.0 B2.0 E2.0 E1.0 E1.0 D1.0 C#1.0 A1.0 B1.0 C#1.0 D1.0 D1.0 D1.0 C1.0 B1.0 G1.0 A1.0 B1.0 C1.0 C1.0 C1.0 B-1.0 A1.0 F1.0 G1.0 A1.0 B-2.0 A1.0 G1.0 A2.0 D2.0 C2.0 B1.0 A1.0 B1.0 C#1.0 D2.0 C1.0 B1.0 C2.0 B2.0 A2.0 D2.0 C1.0 B1.0 G1.0 A1.0 B1.0 C1.0 A1.0 B1.0 C#1.0 D1.0 C1.0 B1.0 A1.0 A-1.0 E1.0 F#1.0 A-1.0 A1.0 G1.0 F#1.0 E1.0 E-2.0 E2.0 B2.0 B2.0 E1.0 F1.0 E1.0 D1.0 C#1.0 E1.0 A2.0 A2.0 G1.0 F1.0 E1.0 D1.0 C1.0 B1.0 D1.0 G2.0 G2.0 F1.0 E2.0 E2.0 E-1.0 E1.0 F#1.0 B2.0 E2.0 D1.0 C#1.0 A1.0 B1.0 C#1.0 D1.0 C1.0 B1.0 A1.0 A-1.0 E1.0 A1.0 G1.0 F1.0 E1.0 D2.0 C1.0 B1.0 A1.0 B1.0 A1.0 B1.0 C1.0 D2.0 C1.0 B1.0 C2.0 B2.0 A2.0 A1.0 B1.0 C#1.0 D1.0 C1.0 B1.0 A1.0 A-2.0 A1.0 D1.0 E2.0 E2.0 A2.0
E2.0 F2.0 E-2.0 E1.0 F#1.0 E1.0 F#1.0 G1.0 A2.0 G1.0 F#1.0 G2.0 F#2.0 E2.0 G2.0 F1.0 E1.0 D2.0 C#2.0 D2.0 F2.0 E1.0 D1.0 C2.0 B2.0 C#2.0 D2.0 B1.0 C1.0 A1.0 A-2.0 A1.0 A2.0 A2.0 A-2.0 A2.0 C2.0 B2.0 B1.0 G1.0 A2.0 F#2.0 E2.0 C2.0 B2.0 A1.0 G1.0 F#1.0 E1.0 D1.0 C#1.0 E1.0 A2.0 A2.0 G1.0 F1.0 G1.0 F1.0 E1.0 E-1.0 B1.0 E1.0 F#1.0 G2.0 F#2.0 E2.0 G1.0 C#1.0 D2.0 E-2.0 E2.0 E1.0 E1.0 F2.0 E1.0 D1.0 C1.0 B1.0 C1.0 B1.0 A1.0 A-2.0 A2.0 A-2.0 A2.0 B-1.0 C1.0 D2.0 C2.0 B1.0 B2.0 A1.0 A-1.0 E1.0 A1.0 B1.0 C2.0 B2.0 A2.0 C#2.0 D2.0 A2.0 A-2.0 A2.0 G1.0 F#1.0 E1.0 E-1.0 E1.0 E-1.0 E1.0 F#2.0 E1.0 E-1.0 E2.0 F#2.0 B2.0 E2.0 D2.0 E1.0 F2.0 E2.0 A2.0 B-2.0 A-2.0 A1.0 B1.0 A1.0 B1.0 C1.0 D2.0 C1.0 B1.0 C2.0 B2.0 A1.0 A2.0 G1.0 F#1.0 D1.0 E1.0 F#1.0 G1.0 F1.0 E1.0 D1.0 C2.0 C2.0 B-1.0 A1.0 D2.0 D2.0 D2.0 C#2.0 F2.0 E2.0 F2.0 E-2.0 E1.0 F#1.0 E1.0 F#1.0 G1.0 A2.0 G1.0 F#1.0 G2.0 F1.0 E1.0 F2.0 F2.0 B1.0 C1.0 D1.0 E2.0 A1.0 B-1.0 C1.0 D2.0 G2.0 F2.0 E2.0 D1.0 C1.0 D1.0 E1.0 A1.0 B1.0 C1.0 A1.0 F#2.0 A-2.0 A2.0 G2.0 F1.0 E1.0 C1.0 D1.0 E1.0 F1.0 E1.0 D1.0 C1.0 B1.0 D1.0 C1.0 B1.0 A2.0 C2.0 B2.0 E1.0 G1.0 F#1.0 G1.0 A2.0 G2.0 B1.0 B1.0 E1.0 C#1.0 D1.0 E1.0 F2.0 E2.0 D2.0 A1.0 F1.0 G2.0 G1.0 F1.0 E1.0 F1.0 G2.0 G2.0 B2.0 A1.0 A-1.0 E1.0 F#1.0 A-1.0 A1.0 C#1.0 D1.0 E2.0 A1.0 D2.0 C1.0 C1.0 F2.0 E0.5 D0.5 E2.0 D1.0 A1.0 A2.0 G2.0 F#1.0 G1.0 A1.0 B1.0 E1.0 F1.0 G2.0 C#2.0 D2.0 C#1.0 D1.0 E1.0 F1.0 E1.0 D1.0 C1.0 B2.0 C1.0 F1.0 E2.0 E1.0 D1.0 C#2.0
A2.0 B-2.0 A-2.0 A1.0 B1.0 A1.0 B1.0 C1.0 D2.0 C1.0 B1.0 C2.0 B2.0 A2.0 A2.0 F#1.0 G1.0 E1.0 E-0.5 E0.5 E-0.5 E0.5 E-0.5 E0.5 E-0.5 E0.5 E-0.5 E0.5 E-0.5 E0.5 E1.0 E2.0 E2.0 E-2.0 E2.0 B1.0 E1.0 C#1.0 D1.0 E1.0 F2.0 E2.0 D2.0 A2.0 B2.0 B2.0 A2.0 G1.0 F#1.0 A-1.0 A2.0 A-2.0 A2.0 B-2.0 A-2.0 A1.0 B1.0 A1.0 B1.0 C1.0 D2.0 C1.0 B1.0 C2.0 B2.0 A2.0 C2.0 B-1.0 A1.0 G2.0 F#2.0 G2.0 D2.0 C1.0 B1.0 A2.0 A-2.0 A2.0 E2.0 D1.0 C1.0 B1.0 C2.0 B1.0 A1.0 B2.0 A2.0 A-2.0 A2.0 A1.0 G1.0 A1.0 B2.0 A1.0 B1.0 C#1.0 D2.0 C1.0 B1.0 A1.0 A-2.0 A1.0 B2.0 A1.0 F1.0 E2.0 E2.0 E2.0 D2.0 C1.0 B1.0 G1.0 A1.0 B1.0 C1.0 B-1.0 A1.0 G1.0 F2.0 G1.0 A1.0 B-1.0 A2.0 A2.0 B-2.0 A-2.0 A1.0 B1.0 A1.0 B1.0 C1.0 D2.0 C1.0 B1.0 C2.0 B2.0 A2.0 E2.0 A1.0 B1.0 C1.0 D2.0 G1.0 A1.0 B-1.0 C2.0 F1.0 B-2.0 A2.0 B2.0 C2.0 D2.0 A2.0 A2.0 E2.0 D1.0 C#1.0 A1.0 B1.0 C#1.0 D1.0 C1.0 B1.0 A1.0 G2.0 F2.0 E1.0 A-1.0 A1.0 B1.0 C1.0 A1.0 E-1.0 E1.0 F#2.0 B2.0 B2.0 B2.0 E2.0 A2.0 B1.0 C#1.0 D2.0 E2.0 A2.0 D1.0 D1.0 B1.0 C1.0 D1.0 E2.0 D2.0 C2.0 F#2.0 E1.0 E-1.0 B1.0 C#1.0 E-1.0 E1.0 D1.0 C#1.0 B1.0 A2.0 A-1.0 A1.0 B2.0 A2.0 D2.0 C1.0 B2.0 C1.0 F#2.0 B2.0 A1.0 B1.0 C1.0 D1.0 G2.0 D1.0 D1.0 E1.0 A2.0 A-1.0 A2.0 A2.0 A1.0 A-1.0 A1.0 B1.0 D1.0 C1.0 B1.0 A2.0 A-2.0 E2.0
E2.0 F2.0 E-2.0 E1.0 F#1.0 E1.0 F#1.0 G1.0 A2.0 G1.0 F#1.0 G2.0 F#2.0 E2.0 G2.0 F1.0 E1.0 D2.0 C#2.0 D2.0 A2.0 G1.0 F#1.0 E2.0 E-2.0 E2.0 E2.0 D1.0 C1.0 B1.0 C2.0 B1.0 C1.0 D2.0 E1.0 F2.0 E2.0 A1.0 G1.0 F2.0 E1.0 D1.0 C1.0 D1.0 E1.0 A1.0 F#2.0 G1.0 A1.0 B-2.0 A2.0 G2.0 F2.0 E2.0 D1.0 C1.0 D1.0 E1.0 F1.0 G2.0 F1.0 F2.0 E2.0 D1.0 C1.0 F#2.0 G1.0 A1.0 G1.0 F#1.0 E1.0 E-2.0 E1.0 F#1.0 B1.0 E2.0 E-1.0 E1.0 D1.0 C1.0 B1.0 A1.0 B1.0 C2.0 B1.0 C1.0 D2.0 C1.0 D1.0 E1.0 F2.0 E1.0 D1.0 C1.0 D1.0 C1.0 B1.0 A1.0 A-2.0 A2.0 A-2.0 A2.0 G2.0 F1.0 E1.0 C1.0 D1.0 E1.0 F1.0 E1.0 D1.0 C#1.0 D1.0 G1.0 F1.0 E1.0 F2.0 E2.0 D2.0 D2.0 E-2.0 C#2.0 D1.0 E1.0 D1.0 E1.0 F1.0 G2.0 F1.0 E1.0 F2.0 E2.0 D1.0 A2.0 G1.0 F#1.0 D1.0 E1.0 F#1.0 G1.0 F1.0 E1.0 D1.0 E2.0 A1.0 D2.0 F1.0 E1.0 D1.0 C1.0 E1.0 A2.0 F#1.0 G1.0 E2.0 C#1.0 E-2.0 E2.0 G2.0 F1.0 E1.0 D2.0 C#2.0 D2.0 F2.0 E1.0 D1.0 C2.0 B2.0 C1.0 C2.0 B1.0 B-1.0 F#1.0 A-1.0 B-1.0 B1.0 A1.0 A-1.0 F#1.0 E2.0 A2.0 G1.0 F#2.0 F2.0 E2.0 E2.0 C2.0 E2.0 F2.0 E-2.0 E1.0 F#1.0 E1.0 F#1.0 A-1.0 A2.0 G1.0 F#1.0 G2.0 F2.0 E2.0 E2.0 A1.0 B1.0 C1.0 D1.0 F1.0 E1.0 D1.0 C2.0 B2.0 A2.0
A2.0 B-2.0 A-2.0 A1.0 B1.0 A1.0 B1.0 C1.0 D2.0 C1.0 B1.0 C2.0 B2.0 A2.0 A2.0 F#1.0 G1.0 E1.0 E-0.5 E0.5 E-0.5 E0.5 E-0.5 E0.5 E-0.5 E0.5 E-0.5 E0.5 E-0.5 E0.5 E1.0 E2.0 E2.0 E-2.0 E2.0 B1.0 E1.0 C#1.0 D1.0 E1.0 F2.0 E2.0 D2.0 A2.0 B2.0 B2.0 A2.0 G1.0 F#1.0 A-1.0 A2.0 A-2.0 A2.0 B-2.0 A-2.0 A1.0 B1.0 A1.0 B1.0 C1.0 D2.0 C1.0 B1.0 C2.0 B2.0 A2.0 C2.0 B-1.0 A1.0 G2.0 F#2.0 G2.0 D2.0 C1.0 B1.0 A2.0 A-2.0 A2.0 E2.0 D1.0 C1.0 B1.0 C2.0 B1.0 A1.0 B2.0 A2.0 A-2.0 A2.0 A1.0 G1.0 A1.0 B2.0 A1.0 B1.0 C#1.0 D2.0 C1.0 B1.0 A1.0 A-2.0 A1.0 B2.0 A1.0 F1.0 E2.0 E2.0 E2.0 D2.0 C1.0 B1.0 G1.0 A1.0 B1.0 C1.0 B-1.0 A1.0 G1.0 F2.0 G1.0 A1.0 B-1.0 A2.0 A2.0 B-2.0 A-2.0 A1.0 B1.0 A1.0 B1.0 C1.0 D2.0 C1.0 B1.0 C2.0 B2.0 A2.0 E2.0 A1.0 B1.0 C1.0 D2.0 G1.0 A1.0 B-1.0 C2.0 F1.0 B-2.0 A2.0 B2.0 C2.0 D2.0 A2.0 A2.0 E2.0 D1.0 C#1.0 A1.0 B1.0 C#1.0 D1.0 C1.0 B1.0 A1.0 G2.0 F2.0 E1.0 A-1.0 A1.0 B1.0 C1.0 A1.0 E-1.0 E1.0 F#2.0 B2.0 B2.0 B2.0 E2.0 A2.0 B1.0 C#1.0 D2.0 E2.0 A2.0 D1.0 D1.0 B1.0 C1.0 D1.0 E2.0 D2.0 C2.0 F#2.0 E1.0 E-1.0 B1.0 C#1.0 E-1.0 E1.0 D1.0 C#1.0 B1.0 A2.0 A-1.0 A1.0 B2.0 A2.0 D2.0 C1.0 B2.0 C1.0 F#2.0 B2.0 A1.0 B1.0 C1.0 D1.0 G2.0 D1.0 D1.0 E1.0 A2.0 A-1.0 A2.0 A2.0 A1.0 A-1.0 A1.0 B1.0 D1.0 C1.0 B1.0 A2.0 A-2.0 E2.0
E2.0 F2.0 E-2.0 E1.0 F#1.0 E1.0 F#1.0 G1.0 A2.0 G1.0 F#1.0 G2.0 F#2.0 E2.0 G2.0 F1.0 E1.0 D2.0 C#2.0 D2.0 F2.0 E1.0 D1.0 C2.0 B2.0 C#2.0 D2.0 B1.0 C1.0 A1.0 A-2.0 A1.0 A2.0 A2.0 A-2.0 A2.0 C2.0 B2.0 B1.0 G1.0 A2.0 F#2.0 E2.0 C2.0 B2.0 A1.0 G1.0 F#1.0 E1.0 D1.0 C#1.0 E1.0 A2.0 A2.0 G1.0 F1.0 G1.0 F1.0 E1.0 E-1.0 B1.0 E1.0 F#1.0 G2.0 F#2.0 E2.0 G1.0 C#1.0 D2.0 E-2.0 E2.0 E1.0 E1.0 F2.0 E1.0 D1.0 C1.0 B1.0 C1.0 B1.0 A1.0 A-2.0 A2.0 A-2.0 A2.0 B-1.0 C1.0 D2.0 C2.0 B1.0 B2.0 A1.0 A-1.0 E1.0 A1.0 B1.0 C2.0 B2.0 A2.0 C#2.0 D2.0 A2.0 A-2.0 A2.0 G1.0 F#1.0 E1.0 E-1.0 E1.0 E-1.0 E1.0 F#2.0 E1.0 E-1.0 E2.0 F#2.0 B2.0 E2.0 D2.0 E1.0 F2.0 E2.0 A2.0 B-2.0 A-2.0 A1.0 B1.0 A1.0 B1.0 C1.0 D2.0 C1.0 B1.0 C2.0 B2.0 A1.0 A2.0 G1.0 F#1.0 D1.0 E1.0 F#1.0 G1.0 F1.0 E1.0 D1.0 C2.0 C2.0 B-1.0 A1.0 D2.0 D2.0 C#2.0 F2.0 E2.0 F2.0 E-2.0 E1.0 F#1.0 E1.0 F#1.0 G1.0 A2.0 G1.0 F#1.0 G2.0 F1.0 E1.0 F2.0 F2.0 B1.0 C1.0 D1.0 E2.0 A1.0 B-1.0 C1.0 D2.0 G2.0 F2.0 E2.0 D1.0 C1.0 D1.0 E1.0 A1.0 B1.0 C1.0 A1.0 F#2.0 A-2.0 A2.0 G2.0 F1.0 E1.0 C1.0 D1.0 E1.0 F1.0 E1.0 D1.0 C1.0 B1.0 D1.0 C1.0 B1.0 A2.0 C2.0 B2.0 E1.0 G1.0 F#1.0 G1.0 A2.0 G2.0 B1.0 B1.0 E1.0 C#1.0 D1.0 E1.0 F2.0 E2.0 D2.0 A1.0 F1.0 G2.0 G1.0 F1.0 E1.0 F1.0 G2.0 G2.0 B2.0 A1.0 A-1.0 E1.0 F#1.0 A-1.0 A1.0 C#1.0 D1.0 E2.0 A1.0 D2.0 C2.0 F2.0 E0.5 D0.5 E2.0 D1.0 A1.0 A2.0 G2.0 F#1.0 G1.0 A1.0 B1.0 E1.0 F1.0 G2.0 C#2.0 D2.0 C#1.0 D1.0 E1.0 F1.0 E1.0 D1.0 C1.0 B2.0 C1.0 F1.0 E2.0 E1.0 D1.0 C#2.0
A2.0 D2.0 C2.0 D2.0 E1.0 F1.0 E1.0 F1.0 D1.0 E1.0 A2.0 A-1.0 A0.5 B0.5 C2.0 B0.5 A0.5 B2.0 A1.0 G1.0 C2.0 A2.0 B2.0 A1.0 G1.0 F#1.0 E1.0 D1.0 C#1.0 E1.0 A2.0 A2.0 G1.0 F1.0 E1.0 D1.0 C1.0 B1.0 D1.0 G2.0 G2.0 F1.0 E1.0 D1.0 E2.0 D1.0 C1.0 F2.0 D2.0 E1.0 E2.0 D1.0 C1.0 B1.0 A2.0 B2.0 A1.0 B1.0 C2.0 B1.0 A1.0 B2.0 B2.0 E2.0 E2.0 A1.0 B1.0 C#1.0 D1.0 F1.0 G1.0 A1.0 D1.0 E1.0 D1.0 C1.0 B1.0 B1.0 C#1.0 E-1.0 E1.0 G1.0 A1.0 B1.0 C2.0 C#2.0 D2.0 E-2.0 E2.0 E1.0 E1.0 F1.0 E1.0 D1.0 C1.0 B1.0 C1.0 B1.0 A1.0 A-1.0 A1.0 A-1.0 F#1.0 E2.0 F2.0 D2.0 E2.0 A2.0 A2.0 D2.0 E-2.0 E2.0 D1.0 C1.0 B2.0 C1.0 D1.0 E1.0 E2.0 D2.0 C#1.0 D1.0 E1.0 F2.0 D2.0 E2.0 F2.0 E-2.0 E1.0 F#1.0 E1.0 F#1.0 G1.0 A2.0 G1.0 F#1.0 G2.0 F#2.0 E2.0 E2.0 F2.0 F#2.0 G2.0 A-2.0 A2.0 G1.0 F1.0 E1.0 D2.0 E2.0 F2.0 E1.0 F1.0 D1.0 E1.0 E2.0 D1.0 C#1.0 A1.0 B1.0 C#1.0 D1.0 C1.0 B1.0 A1.0 G2.0 G2.0 C1.0 C2.0 B-1.0 A1.0 F1.0 G1.0 A1.0 B-2.0 A1.0 G1.0 A2.0 A2.0 D2.0 D2.0 C1.0 B1.0 A2.0 F#1.0 G1.0 E1.0 B2.0 E2.0 E1.0 E1.0 D1.0 C#1.0 A1.0 B1.0 C#1.0 D1.0 D1.0 D1.0 C1.0 B1.0 G1.0 A1.0 B1.0 C1.0 C1.0 C1.0 B-1.0 A1.0 F1.0 G1.0 A1.0 B-2.0 A1.0 G1.0 A2.0 D2.0 C2.0 B1.0 A1.0 B1.0 C#1.0 D2.0 C1.0 B1.0 C2.0 B2.0 A2.0 D2.0 C1.0 B1.0 G1.0 A1.0 B1.0 C1.0 A1.0 B1.0 C#1.0 D1.0 C1.0 B1.0 A1.0 A-1.0 E1.0 F#1.0 A-1.0 A1.0 G1.0 F#1.0 E1.0 E-2.0 E2.0 B2.0 B2.0 E1.0 F1.0 E1.0 D1.0 C#1.0 E1.0 A2.0 A2.0 G1.0 F1.0 E1.0 D1.0 C1.0 B1.0 D1.0 G2.0 G2.0 F1.0 E2.0 E2.0 E-1.0 E1.0 F#1.0 B2.0 E2.0 D1.0 C#1.0 A1.0 B1.0 C#1.0 D1.0 C1.0 B1.0 A1.0 A-1.0 E1.0 A1.0 G1.0 F1.0 E1.0 D2.0 C1.0 B1.0 A1.0 B1.0 A1.0 B1.0 C1.0 D2.0 C1.0 B1.0 C2.0 B2.0 A2.0 A1.0 B1.0 C#1.0 D1.0 C1.0 B1.0 A1.0 A-2.0 A1.0 D1.0 E2.0 E2.0 A2.0
A2.0 B-2.0 A-2.0 A1.0 B1.0 A1.0 B1.0 C1.0 D2.0 C1.0 B1.0 C2.0 B2.0 A2.0 A2.0 F#1.0 G1.0 E1.0 E-2.0 E1.0 A2.0 E2.0 F#2.0 E2.0 B1.0 E1.0 C#1.0 D1.0 E1.0 D2.0 C#2.0 D2.0 A2.0 B2.0 B2.0 A2.0 G1.0 F#1.0 D1.0 A2.0 A-2.0 D2.0 E1.0 F2.0 E2.0 A1.0 G1.0 F2.0 B2.0 A2.0 C2.0 G1.0 A1.0 G2.0 F#2.0 G2.0 D2.0 C1.0 B1.0 A2.0 A-2.0 G2.0 D1.0 F2.0 C2.0 B1.0 A1.0 B2.0 A2.0 A-2.0 A2.0 A1.0 G1.0 A1.0 B2.0 A1.0 B1.0 C#1.0 D2.0 C1.0 B1.0 A1.0 A-2.0 B1.0 A1.0 B2.0 A2.0 A-2.0 A2.0 D2.0 C1.0 B1.0 G1.0 A1.0 B1.0 C1.0 C1.0 D1.0 E1.0 F2.0 G1.0 F1.0 E1.0 F2.0 E2.0 D2.0 B-2.0 A-2.0 A1.0 B1.0 A1.0 B1.0 C1.0 D2.0 C1.0 B1.0 C2.0 B2.0 A2.0 E2.0 A1.0 B1.0 C1.0 D2.0 G1.0 A1.0 B-1.0 C2.0 F1.0 E-2.0 C#2.0 D1.0 B2.0 C2.0 G2.0 A2.0 A2.0 D1.0 E2.0 D1.0 C#1.0 A1.0 B1.0 C#1.0 D1.0 D1.0 E1.0 F#1.0 G2.0 F2.0 E1.0 F1.0 A1.0 B1.0 C1.0 A1.0 A2.0 B2.0 E-2.0 E2.0 E2.0 A2.0 B1.0 C#1.0 D2.0 C#2.0 A2.0 D1.0 D1.0 B1.0 C1.0 D1.0 C2.0 B2.0 C2.0 B1.0 B-1.0 F#2.0 E1.0 E-1.0 B1.0 A-1.0 F#1.0 E2.0 A2.0 G1.0 F#2.0 F2.0 E2.0 A2.0 D2.0 C1.0 E2.0 F2.0 E-2.0 E1.0 F#1.0 E1.0 F#1.0 D1.0 A2.0 G1.0 D1.0 G2.0 F2.0 A2.0 A2.0 A1.0 B1.0 A1.0 B1.0 D1.0 C1.0 B1.0 A2.0 B2.0 A2.0 F2.0 E-2.0 F#1.0 E1.0 F#1.0 G1.0 F#1.0 G2.0 G2.0 A2.0 G1.0 F#1.0 E2.0 E-2.0 E2.0 E2.0 C1.0 B1.0 C2.0 B1.0 C1.0 A2.0 B-2.0 A-2.0 A1.0 B1.0 A1.0 B1.0 C1.0 D2.0 E1.0 D1.0 C1.0 D1.0 E1.0 A1.0 F#2.0 F2.0 E2.0 C1.0 D1.0 E1.0 F1.0 A2.0 E2.0 C1.0 B1.0 F#2.0 G1.0 A1.0 G1.0 F#1.0 E1.0 E-2.0 E1.0 F#1.0 E2.0 E-1.0 E1.0 D1.0 C1.0 B1.0 B1.0 C2.0 D1.0 C1.0 F1.0 E2.0 G2.0 F1.0 E1.0 D1.0 C#1.0 D1.0 D2.0 A2.0 E1.0 D1.0 E1.0 F1.0 F1.0 E1.0 F2.0 E2.0 A2.0 G1.0 F1.0 E1.0 D1.0 E2.0 A1.0 D2.0 E-1.0 E1.0 F#1.0 G1.0 E2.0 C#1.0 G2.0 D2.0 F2.0 C2.0 A-1.0 D1.0 C#1.0 B1.0 A2.0 A-1.0 A1.0 C2.0 B1.0 C1.0 F#2.0 B2.0 E1.0 A2.0 A-1.0
A2.0 B-2.0 A-2.0 A1.0 B1.0 A1.0 B1.0 C1.0 D2.0 C1.0 B1.0 C2.0 B2.0 A2.0 A2.0 F#1.0 G1.0 E1.0 E-2.0 E1.0 A2.0 E2.0 F#2.0 E2.0 B1.0 E1.0 C#1.0 D1.0 E1.0 D2.0 C#2.0 D2.0 A1.0 D1.0 B1.0 C1.0 D1.0 C2.0 B2.0 C#2.0 D2.0 A1.0 A-2.0 A1.0 F2.0 A2.0 A-2.0 A2.0 A2.0 B2.0 F#2.0 C2.0 C2.0 B2.0 A1.0 E2.0 E1.0 D1.0 C#1.0 E1.0 A2.0 A2.0 G1.0 F1.0 G1.0 F1.0 E1.0 E-1.0 B1.0 E1.0 F#1.0 G2.0 F#2.0 E2.0 G1.0 C#1.0 D2.0 E-2.0 E2.0 E1.0 E1.0 F2.0 E1.0 D1.0 C1.0 B1.0 C1.0 B1.0 A1.0 A-2.0 A2.0 A-2.0 A2.0 B-1.0 C1.0 D2.0 C2.0 B1.0 B2.0 A1.0 A-1.0 E1.0 A1.0 B1.0 C2.0 B2.0 A2.0 C#2.0 D2.0 A2.0 A-2.0 F2.0 E-2.0 E1.0 F#1.0 E1.0 F#1.0 E1.0 F#2.0 E1.0 F#1.0 E2.0 F#2.0 E2.0 E2.0 F2.0 F#2.0 G2.0 F2.0 A2.0 G1.0 A2.0 B-2.0 E2.0 F2.0 E1.0 F1.0 B1.0 C2.0 B2.0 A1.0 A1.0 B1.0 C#1.0 D1.0 D1.0 E1.0 F#1.0 G2.0 G2.0 C1.0 B-1.0 A1.0 F1.0 G1.0 A1.0 B-2.0 D2.0 D2.0 A2.0 D2.0 E2.0 F2.0 E-2.0 E1.0 F#1.0 E1.0 F#1.0 G1.0 A2.0 G1.0 F#1.0 G2.0 F1.0 E1.0 F2.0 F2.0 B1.0 C1.0 D1.0 E2.0 A1.0 B-1.0 C1.0 D2.0 G2.0 B-2.0 E2.0 B1.0 A1.0 B1.0 C#1.0 D2.0 C1.0 B1.0 F#2.0 B2.0 A2.0 D2.0 C1.0 B1.0 G1.0 A1.0 B1.0 C1.0 A1.0 B1.0 C#1.0 D1.0 C1.0 B1.0 A1.0 B1.0 E1.0 F#1.0 B1.0 A2.0 C2.0 E-2.0 E1.0 E1.0 B2.0 B2.0 E2.0 E1.0 B1.0 C#2.0 A2.0 A2.0 G1.0 D2.0 D1.0 F1.0 G2.0 E1.0 F1.0 G2.0 F1.0 G2.0 C2.0 B2.0 A1.0 A-1.0 E2.0 D1.0 A1.0 A1.0 B1.0 C#1.0 D1.0 A1.0 D2.0 A2.0 B-2.0 A-2.0 A1.0 A2.0 G2.0 D2.0 A1.0 B1.0 C2.0 G2.0 A2.0 A1.0 B1.0 C#1.0 D1.0 C1.0 B1.0 A1.0 B2.0 A1.0 D1.0 E2.0 E2.0 A2.0 F2.0 E-2.0 F#1.0 E1.0 F#1.0 G1.0 F#1.0 G2.0 G2.0 F2.0 F2.0 B1.0 E2.0 E2.0 E1.0 D1.0 E1.0 E2.0 D1.0 C1.0 B1.0 B1.0 G1.0 A2.0 A1.0 B1.0 B1.0 A1.0 B2.0 B2.0 G1.0 F#1.0 A2.0 G1.0 F#1.0 E2.0 D2.0 E1.0 E2.0 F1.0 E1.0 A-2.0 A1.0 B1.0 A1.0 B1.0 C1.0 D2.0 E1.0 E2.0 D1.0 A2.0 G1.0 F1.0 E1.0 D1.0 A1.0 G1.0 A2.0 A-2.0 A1.0 A1.0 B1.0 G2.0 G1.0 F#1.0 E1.0 F#1.0 G1.0 E1.0 C#1.0 D1.0 E1.0 F2.0 E2.0 F1.0 E1.0 B1.0 D1.0 E1.0 F1.0 G2.0 E1.0 G1.0 F#1.0 E2.0 B1.0 A1.0 A-1.0 E1.0 C1.0 C1.0 F2.0 E0.5 D0.5 E2.0 D1.0 B1.0 A1.0 B1.0 C1.0 F#1.0 G1.0 E1.0 F1.0 C#2.0 D2.0 E1.0 D1.0
