E0.5 E2.0 D0.5 C0.5 B0.5 C0.5 G0.5 A0.5 B0.5 C0.5 D0.5 E0.5 F0.5 G0.5 E0.5 C0.5 B0.5 C0.5 A0.5 G0.5 F0.5 E0.5 F0.5 G0.5 A0.5 B0.5 C0.5 D0.5 E0.5 F0.5 D0.5 C0.5 B0.5 C0.5 A0.5 B0.5 C0.5 D0.5 G0.5 B0.5 C0.5 D0.5 E0.5 F0.5 D0.5 E0.5 C0.5 C0.5 G0.5 G0.5 E0.5 E0.5 C0.5 C0.5 E0.5 F0.5 E0.5 D0.5 C0.5 D0.5 E0.5 F0.5 D0.5 C0.5 B0.5 C0.5 D0.5 A-0.5 F0.5 E0.5 D0.5 C0.5 B0.5 C0.5 A0.5 A0.5 E0.5 E0.5 C0.5 C0.5 A0.5 A0.5 E0.5 A0.5 C0.5 B0.5 D0.5 C0.5 B0.5 A0.5 B0.5 C0.5 F#0.5 C0.5 B0.5 C0.5 F#0.5 A0.5 B0.5 C0.5 A0.5 D0.5 C0.5 B0.5 G0.5 A0.5 B0.5 G0.5 C0.5 A0.5 B0.5 G0.5 B0.5 C0.5 D0.5 E0.5 F0.5 D0.5 E0.5 G0.5 C0.5 G0.5 E0.5 C0.5 D0.5 B0.5 C0.5 A0.5 C0.5 D0.5 E0.5 F#0.5 G0.5 E0.5 F#0.5 A0.5 C0.5 A0.5 F#0.5 D0.5 E0.5 G0.5 F#0.5 D0.5 G0.5 E0.5 F#0.5 D0.5 A0.5 C0.5 B0.5 G0.5 D0.5 C0.5 B0.5 A0.5 G0.5 D0.5 C0.5 A0.5 B0.5 G0.5 D0.5 F0.5 E0.5 C0.5 G0.5 F0.5 E0.5 D0.5 C0.5 G0.5 F0.5 D0.5 E0.5 C0.5 G0.5 B0.5 A0.5 C0.5 D0.5 E0.5 F#0.5 G0.5 A0.5 B0.5 C0.5 D0.5 F#0.5 G0.5 A0.5 D0.5 C0.5 G0.5 C0.5 B0.5 A0.5 B0.5 G0.5 D0.5 G0.5 G0.5 B0.5 D0.5 F0.5 E0.5 D0.5 E0.5 D0.5 C0.5 B0.5 A0.5 G0.5 F#0.5 A0.5 D0.5 C0.5 B0.5 G0.5 D0.5 F#0.5 G0.5 D0.5 G0.5 B0.5 D0.5 F#0.5 G0.5 D0.5 B0.5 G0.5 G0.5 E0.5 E2.0 D0.5 C0.5 B0.5 C0.5 G0.5 A0.5 B0.5 C0.5 D0.5 E0.5 F0.5 G0.5 E0.5 C0.5 B0.5 C0.5 A0.5 G0.5 F0.5 E0.5 F0.5 G0.5 A0.5 B0.5 C0.5 D0.5 E0.5 F0.5 D0.5 C0.5 B0.5 C0.5 A0.5 B0.5 C0.5 D0.5 G0.5 B0.5 C0.5 D0.5 E0.5 F0.5 D0.5 E0.5 C0.5 C0.5 G0.5 G0.5 E0.5 E0.5 C0.5 C0.5 E0.5 F0.5 E0.5 D0.5 C0.5 D0.5 E0.5 F0.5 D0.5 C0.5 B0.5 C0.5 D0.5 A-0.5 F0.5 E0.5 D0.5 C0.5 B0.5 C0.5 A0.5 A0.5 E0.5 E0.5 C0.5 C0.5 A0.5 A0.5 E0.5 A0.5 C0.5 B0.5 D0.5 C0.5 B0.5 A0.5 B0.5 C0.5 F#0.5 C0.5 B0.5 C0.5 F#0.5 A0.5 B0.5 C0.5 A0.5 D0.5 C0.5 B0.5 G0.5 A0.5 B0.5 G0.5 C0.5 A0.5 B0.5 G0.5 B0.5 C0.5 D0.5 E0.5 F0.5 D0.5 E0.5 G0.5 C0.5 G0.5 E0.5 C0.5 D0.5 B0.5 C0.5 A0.5 C0.5 D0.5 E0.5 F#0.5 G0.5 E0.5 F#0.5 A0.5 C0.5 A0.5 F#0.5 D0.5 E0.5 G0.5 F#0.5 D0.5 G0.5 E0.5 F#0.5 D0.5 A0.5 C0.5 B0.5 G0.5 D0.5 C0.5 B0.5 A0.5 G0.5 D0.5 C0.5 A0.5 B0.5 G0.5 D0.5 F0.5 E0.5 C0.5 G0.5 F0.5 E0.5 D0.5 C0.5 G0.5 F0.5 D0.5 E0.5 C0.5 G0.5 B0.5 A0.5 C0.5 D0.5 E0.5 F#0.5 G0.5 A0.5 B0.5 C0.5 D0.5 F#0.5 G0.5 A0.5 D0.5 C0.5 G0.5 C0.5 B0.5 A0.5 B0.5 G0.5 D0.5 G0.5 G0.5 B0.5 D0.5 F0.5 E0.5 D0.5 E0.5 D0.5 C0.5 B0.5 A0.5 G0.5 F#0.5 A0.5 D0.5 C0.5 B0.5 G0.5 D0.5 F#0.5 G0.5 D0.5 G0.5 B0.5 D0.5 F#0.5 G0.5 D0.5 B0.5 G0.5 G0.5 D0.5 D2.0 B0.5 C0.5 D0.5 G0.5 A0.5 B0.5 C0.5 D0.5 B0.5 G0.5 F0.5 E0.5 G0.5 C0.5 B0.5 C0.5 D0.5 E0.5 F0.5 G0.5 E0.5 D0.5 C0.5 B-0.5 A0.5 B-0.5 G0.5 A0.5 F0.5 F0.5 D0.5 E0.5 F0.5 G0.5 F0.5 E0.5 F0.5 G0.5 E0.5 F0.5 D0.5 C#0.5 A0.5 E0.5 G0.5 F0.5 E0.5 F0.5 A0.5 B0.5 C#0.5 D0.5 F0.5 E0.5 D0.5 G0.5 E0.5 F0.5 G0.5 A0.5 B-0.5 D0.5 C#0.5 A0.5 E0.5 G0.5 F0.5 E0.5 F0.5 E0.5 D0.5 C0.5 B-0.5 A0.5 B-0.5 G0.5 E-0.5 D0.5 E-0.5 F0.5 G0.5 D0.5 C#0.5 D0.5 E0.5 A0.5 B-0.5 G0.5 F0.5 E0.5 F0.5 A0.5 D0.5 E0.5 E0.5 D0.5 D0.5 E0.5 F0.5 E0.5 F0.5 C0.5 B0.5 C0.5 D0.5 A0.5 G0.5 F0.5 E0.5 D0.5 C0.5 G0.5 B0.5 F0.5 E0.5 D0.5 C0.5 D0.5 E0.5 F0.5 G0.5 A0.5 G0.5 A0.5 B-0.5 G0.5 A0.5 C0.5 F0.5 G0.5 F0.5 E0.5 D0.5 E0.5 F0.5 A0.5 G0.5 F0.5 G0.5 D0.5 E0.5 F0.5 E0.5 D0.5 C0.5 B0.5 A0.5 C0.5 E0.5 G0.5 F0.5 E0.5 F0.5 C0.5 D0.5 A0.5 B0.5 C0.5 B0.5 D0.5 E0.5 F0.5 G0.5 F0.5 E0.5 D0.5 C0.5 G0.5 B0.5 D0.5 F0.5 D0.5 B0.5 G0.5 C0.5 G0.5 A0.5 C0.5 D0.5 F#0.5 G0.5 D0.5 B0.5 A0.5 G0.5 B-0.5 C0.5 E0.5 F0.5 C0.5 A0.5 G0.5 F0.5 A0.5 D0.5 F0.5 B0.5 D0.5 F0.5 A0.5 G0.5 F0.5 E0.5 C0.5 D0.5 C0.5 G0.5 D0.5 C0.5 B0.5 C0.5 C0.5 E0.5 G0.5 C0.5 E0.5 G0.5 B0.5 C0.5 G0.5 E0.5 C0.5 C0.5 D0.5 D2.0 B0.5 C0.5 D0.5 G0.5 A0.5 B0.5 C0.5 D0.5 B0.5 G0.5 F0.5 E0.5 G0.5 C0.5 B0.5 C0.5 D0.5 E0.5 F0.5 G0.5 E0.5 D0.5 C0.5 B-0.5 A0.5 B-0.5 G0.5 A0.5 F0.5 F0.5 D0.5 E0.5 F0.5 G0.5 F0.5 E0.5 F0.5 G0.5 E0.5 F0.5 D0.5 C#0.5 A0.5 E0.5 G0.5 F0.5 E0.5 F0.5 A0.5 B0.5 C#0.5 D0.5 F0.5 E0.5 D0.5 G0.5 E0.5 F0.5 G0.5 A0.5 B-0.5 D0.5 C#0.5 A0.5 E0.5 G0.5 F0.5 E0.5 F0.5 E0.5 D0.5 C0.5 B-0.5 A0.5 B-0.5 G0.5 E-0.5 D0.5 E-0.5 F0.5 G0.5 D0.5 C#0.5 D0.5 E0.5 A0.5 B-0.5 G0.5 F0.5 E0.5 F0.5 A0.5 D0.5 E0.5 E0.5 D0.5 D0.5 E0.5 F0.5 E0.5 F0.5 C0.5 B0.5 C0.5 D0.5 A0.5 G0.5 F0.5 E0.5 D0.5 C0.5 G0.5 B0.5 F0.5 E0.5 D0.5 C0.5 D0.5 E0.5 F0.5 G0.5 A0.5 G0.5 A0.5 B-0.5 G0.5 A0.5 C0.5 F0.5 G0.5 F0.5 E0.5 D0.5 E0.5 F0.5 A0.5 G0.5 F0.5 G0.5 D0.5 E0.5 F0.5 E0.5 D0.5 C0.5 B0.5 A0.5 C0.5 E0.5 G0.5 F0.5 E0.5 F0.5 C0.5 D0.5 A0.5 B0.5 C0.5 B0.5 D0.5 E0.5 F0.5 G0.5 F0.5 E0.5 D0.5 C0.5 G0.5 B0.5 D0.5 F0.5 D0.5 B0.5 G0.5 C0.5 G0.5 A0.5 C0.5 D0.5 F#0.5 G0.5 D0.5 B0.5 A0.5 G0.5 B-0.5 C0.5 E0.5 F0.5 C0.5 A0.5 G0.5 F0.5 A0.5 D0.5 F0.5 B0.5 D0.5 F0.5 A0.5 G0.5 F0.5 E0.5 C0.5 D0.5 C0.5 G0.5 D0.5 C0.5 B0.5 C0.5 C0.5 E0.5 G0.5 C0.5 E0.5 G0.5 B0.5 C0.5 G0.5 E0.5 C0.5 C0.5
G1.0 G0.5 G1.0 G0.5 G2.0 A0.5 A1.0 A0.5 E0.5 G2.0 A0.5 A1.0 A0.5 E0.5
C1.0 C0.5 C1.0 C0.5 D0.5 D0.5 G0.5 D0.5 D0.5 G0.5
