aria143.original 	 -99.69672393798828
aria143.sample661 	 -106.81729125976562
aria143.sample295 	 -108.45307159423828
aria143.sample638 	 -108.80809783935547
aria143.sample696 	 -108.8880844116211
aria143.sample644 	 -108.91183471679688
aria143.sample837 	 -108.94172668457031
aria143.sample824 	 -108.99019622802734
aria143.sample755 	 -109.04360961914062
aria143.sample7 	 -109.07548522949219
aria143.sample884 	 -109.16880798339844
aria143.sample344 	 -109.20347595214844
aria143.sample74 	 -109.27191162109375
aria143.sample195 	 -109.35670471191406
aria143.sample596 	 -109.45732116699219
aria143.sample258 	 -109.47856903076172
aria143.sample814 	 -109.49264526367188
aria143.sample822 	 -109.88880157470703
aria143.sample301 	 -109.96829986572266
aria143.sample735 	 -109.97747802734375
aria143.sample382 	 -110.00885772705078
aria143.sample613 	 -110.35269927978516
aria143.sample62 	 -110.45401000976562
aria143.sample56 	 -110.52970123291016
aria143.sample321 	 -110.59798431396484
aria143.sample271 	 -110.62947845458984
aria143.sample590 	 -110.65126037597656
aria143.sample774 	 -110.88394927978516
aria143.sample284 	 -110.90885162353516
aria143.sample717 	 -110.9162826538086
aria143.sample595 	 -110.9635009765625
aria143.sample879 	 -110.99562072753906
aria143.sample647 	 -111.00209045410156
aria143.sample761 	 -111.0864486694336
aria143.sample851 	 -111.09722900390625
aria143.sample160 	 -111.11421203613281
aria143.sample90 	 -111.11885833740234
aria143.sample831 	 -111.12944030761719
aria143.sample829 	 -111.143310546875
aria143.sample564 	 -111.14556121826172
aria143.sample454 	 -111.18479919433594
aria143.sample929 	 -111.21533966064453
aria143.sample522 	 -111.31482696533203
aria143.sample50 	 -111.33155822753906
aria143.sample60 	 -111.33543395996094
aria143.sample191 	 -111.36233520507812
aria143.sample485 	 -111.47671508789062
aria143.sample821 	 -111.49491882324219
aria143.sample488 	 -111.49653625488281
aria143.sample425 	 -111.5322265625
aria143.sample674 	 -111.55079650878906
aria143.sample521 	 -111.62760162353516
aria143.sample115 	 -111.64949035644531
aria143.sample261 	 -111.655517578125
aria143.sample240 	 -111.66586303710938
aria143.sample235 	 -111.69740295410156
aria143.sample764 	 -111.72136688232422
aria143.sample268 	 -111.73704528808594
aria143.sample557 	 -111.74668884277344
aria143.sample514 	 -111.74903869628906
aria143.sample523 	 -111.7629165649414
aria143.sample926 	 -111.87567901611328
aria143.sample415 	 -111.87687683105469
aria143.sample78 	 -111.90323638916016
aria143.sample493 	 -111.91122436523438
aria143.sample876 	 -111.91504669189453
aria143.sample367 	 -111.9808349609375
aria143.sample11 	 -111.9835433959961
aria143.sample212 	 -112.02738952636719
aria143.sample925 	 -112.0423355102539
aria143.sample79 	 -112.04927062988281
aria143.sample725 	 -112.07054138183594
aria143.sample973 	 -112.08392333984375
aria143.sample642 	 -112.1104965209961
aria143.sample136 	 -112.11775207519531
aria143.sample49 	 -112.16537475585938
aria143.sample266 	 -112.1681900024414
aria143.sample742 	 -112.22976684570312
aria143.sample434 	 -112.235107421875
aria143.sample467 	 -112.2439193725586
aria143.sample702 	 -112.26038360595703
aria143.sample830 	 -112.27327728271484
aria143.sample16 	 -112.28825378417969
aria143.sample203 	 -112.29501342773438
aria143.sample145 	 -112.30577087402344
aria143.sample291 	 -112.32342529296875
aria143.sample541 	 -112.36693572998047
aria143.sample118 	 -112.38606262207031
aria143.sample483 	 -112.40338897705078
aria143.sample340 	 -112.40464782714844
aria143.sample985 	 -112.44544219970703
aria143.sample994 	 -112.44850158691406
aria143.sample342 	 -112.48310852050781
aria143.sample315 	 -112.49801635742188
aria143.sample889 	 -112.51753234863281
aria143.sample711 	 -112.5318374633789
aria143.sample463 	 -112.53304290771484
aria143.sample453 	 -112.53777313232422
aria143.sample286 	 -112.54293060302734
aria143.sample443 	 -112.56640625
aria143.sample178 	 -112.57743072509766
aria143.sample322 	 -112.58111572265625
aria143.sample87 	 -112.58709716796875
aria143.sample612 	 -112.6220932006836
aria143.sample579 	 -112.6229019165039
aria143.sample287 	 -112.63641357421875
aria143.sample886 	 -112.67167663574219
aria143.sample220 	 -112.69417572021484
aria143.sample164 	 -112.70848083496094
aria143.sample251 	 -112.72787475585938
aria143.sample492 	 -112.73078918457031
aria143.sample106 	 -112.73844146728516
aria143.sample37 	 -112.75045776367188
aria143.sample445 	 -112.75103759765625
aria143.sample428 	 -112.76467895507812
aria143.sample530 	 -112.77352142333984
aria143.sample158 	 -112.78417205810547
aria143.sample306 	 -112.7874984741211
aria143.sample450 	 -112.79715728759766
aria143.sample491 	 -112.8170394897461
aria143.sample746 	 -112.85197448730469
aria143.sample494 	 -112.8696060180664
aria143.sample878 	 -112.88829040527344
aria143.sample619 	 -112.92947387695312
aria143.sample826 	 -112.93978881835938
aria143.sample43 	 -112.9399642944336
aria143.sample150 	 -112.94296264648438
aria143.sample48 	 -112.95186614990234
aria143.sample477 	 -112.9847183227539
aria143.sample552 	 -112.985107421875
aria143.sample393 	 -112.99552917480469
aria143.sample532 	 -112.99967956542969
aria143.sample870 	 -113.02766418457031
aria143.sample222 	 -113.0450210571289
aria143.sample827 	 -113.05488586425781
aria143.sample959 	 -113.05821228027344
aria143.sample41 	 -113.06767272949219
aria143.sample688 	 -113.0758285522461
aria143.sample810 	 -113.08631896972656
aria143.sample847 	 -113.09207916259766
aria143.sample80 	 -113.10759735107422
aria143.sample942 	 -113.12922668457031
aria143.sample20 	 -113.14407348632812
aria143.sample27 	 -113.16255187988281
aria143.sample919 	 -113.16885375976562
aria143.sample946 	 -113.18572998046875
aria143.sample279 	 -113.23259735107422
aria143.sample948 	 -113.23332214355469
aria143.sample631 	 -113.24632263183594
aria143.sample981 	 -113.26052856445312
aria143.sample111 	 -113.2717056274414
aria143.sample391 	 -113.27359771728516
aria143.sample462 	 -113.27976989746094
aria143.sample265 	 -113.29638671875
aria143.sample947 	 -113.3003158569336
aria143.sample652 	 -113.31048583984375
aria143.sample544 	 -113.31449127197266
aria143.sample495 	 -113.35145568847656
aria143.sample228 	 -113.35291290283203
aria143.sample201 	 -113.36761474609375
aria143.sample724 	 -113.39112091064453
aria143.sample950 	 -113.40151977539062
aria143.sample575 	 -113.41253662109375
aria143.sample399 	 -113.42290496826172
aria143.sample839 	 -113.42396545410156
aria143.sample97 	 -113.45272064208984
aria143.sample582 	 -113.45726013183594
aria143.sample487 	 -113.47371673583984
aria143.sample54 	 -113.47879028320312
aria143.sample813 	 -113.489501953125
aria143.sample478 	 -113.4989242553711
aria143.sample23 	 -113.51454162597656
aria143.sample598 	 -113.56513214111328
aria143.sample8 	 -113.5867691040039
aria143.sample600 	 -113.58973693847656
aria143.sample957 	 -113.61961364746094
aria143.sample497 	 -113.64266204833984
aria143.sample606 	 -113.6431655883789
aria143.sample424 	 -113.65188598632812
aria143.sample679 	 -113.65364074707031
aria143.sample705 	 -113.67493438720703
aria143.sample361 	 -113.6851806640625
aria143.sample715 	 -113.69342041015625
aria143.sample874 	 -113.70353698730469
aria143.sample472 	 -113.70486450195312
aria143.sample6 	 -113.7163314819336
aria143.sample778 	 -113.7291259765625
aria143.sample484 	 -113.73019409179688
aria143.sample461 	 -113.73561096191406
aria143.sample707 	 -113.74148559570312
aria143.sample103 	 -113.77377319335938
aria143.sample19 	 -113.78865051269531
aria143.sample738 	 -113.79434967041016
aria143.sample802 	 -113.81013488769531
aria143.sample175 	 -113.81561279296875
aria143.sample804 	 -113.82054138183594
aria143.sample208 	 -113.82136535644531
aria143.sample120 	 -113.82455444335938
aria143.sample498 	 -113.82904815673828
aria143.sample33 	 -113.84161376953125
aria143.sample655 	 -113.85604858398438
aria143.sample229 	 -113.85948181152344
aria143.sample297 	 -113.86611938476562
aria143.sample719 	 -113.8731689453125
aria143.sample304 	 -113.88212585449219
aria143.sample832 	 -113.89704132080078
aria143.sample200 	 -113.89779663085938
aria143.sample632 	 -113.919189453125
aria143.sample122 	 -113.92375183105469
aria143.sample267 	 -113.92391204833984
aria143.sample102 	 -113.9360122680664
aria143.sample649 	 -113.95880889892578
aria143.sample964 	 -113.95928955078125
aria143.sample608 	 -113.96622467041016
aria143.sample766 	 -113.96697235107422
aria143.sample866 	 -113.97084045410156
aria143.sample787 	 -113.97107696533203
aria143.sample618 	 -113.99085998535156
aria143.sample320 	 -113.99224853515625
aria143.sample149 	 -114.00293731689453
aria143.sample355 	 -114.02039337158203
aria143.sample414 	 -114.0230484008789
aria143.sample775 	 -114.02523040771484
aria143.sample335 	 -114.03366088867188
aria143.sample423 	 -114.03684997558594
aria143.sample773 	 -114.08436584472656
aria143.sample731 	 -114.0872573852539
aria143.sample379 	 -114.099365234375
aria143.sample956 	 -114.10934448242188
aria143.sample360 	 -114.12516021728516
aria143.sample186 	 -114.15007781982422
aria143.sample776 	 -114.16323852539062
aria143.sample317 	 -114.17689514160156
aria143.sample92 	 -114.18328094482422
aria143.sample808 	 -114.1841812133789
aria143.sample882 	 -114.18931579589844
aria143.sample922 	 -114.19283294677734
aria143.sample38 	 -114.1944580078125
aria143.sample192 	 -114.19808197021484
aria143.sample376 	 -114.20512390136719
aria143.sample616 	 -114.21607971191406
aria143.sample791 	 -114.21726989746094
aria143.sample580 	 -114.22937774658203
aria143.sample180 	 -114.23240661621094
aria143.sample572 	 -114.23432922363281
aria143.sample633 	 -114.25782775878906
aria143.sample692 	 -114.29206085205078
aria143.sample980 	 -114.29661560058594
aria143.sample585 	 -114.30618286132812
aria143.sample767 	 -114.3159408569336
aria143.sample210 	 -114.31603240966797
aria143.sample331 	 -114.3379898071289
aria143.sample869 	 -114.35736083984375
aria143.sample885 	 -114.36783599853516
aria143.sample4 	 -114.36809539794922
aria143.sample253 	 -114.38090515136719
aria143.sample520 	 -114.3869857788086
aria143.sample394 	 -114.40036010742188
aria143.sample392 	 -114.4090805053711
aria143.sample723 	 -114.41229248046875
aria143.sample748 	 -114.41815185546875
aria143.sample659 	 -114.41935729980469
aria143.sample397 	 -114.4283447265625
aria143.sample441 	 -114.43264770507812
aria143.sample94 	 -114.44346618652344
aria143.sample848 	 -114.44493103027344
aria143.sample313 	 -114.4546890258789
aria143.sample620 	 -114.46735382080078
aria143.sample215 	 -114.48162078857422
aria143.sample622 	 -114.48493957519531
aria143.sample337 	 -114.48571014404297
aria143.sample898 	 -114.49496459960938
aria143.sample516 	 -114.54212951660156
aria143.sample667 	 -114.54989624023438
aria143.sample963 	 -114.55598449707031
aria143.sample586 	 -114.5621337890625
aria143.sample95 	 -114.57523345947266
aria143.sample995 	 -114.57806396484375
aria143.sample325 	 -114.5781478881836
aria143.sample845 	 -114.58802795410156
aria143.sample28 	 -114.59013366699219
aria143.sample842 	 -114.59828186035156
aria143.sample481 	 -114.60723876953125
aria143.sample628 	 -114.63790893554688
aria143.sample902 	 -114.64964294433594
aria143.sample30 	 -114.65044403076172
aria143.sample860 	 -114.6518325805664
aria143.sample665 	 -114.65596008300781
aria143.sample500 	 -114.673828125
aria143.sample104 	 -114.68891906738281
aria143.sample137 	 -114.70146179199219
aria143.sample83 	 -114.73180389404297
aria143.sample940 	 -114.76569366455078
aria143.sample550 	 -114.7707748413086
aria143.sample621 	 -114.77127075195312
aria143.sample727 	 -114.78795623779297
aria143.sample888 	 -114.79019927978516
aria143.sample442 	 -114.7916259765625
aria143.sample533 	 -114.80769348144531
aria143.sample759 	 -114.81716918945312
aria143.sample167 	 -114.82012939453125
aria143.sample849 	 -114.82362365722656
aria143.sample607 	 -114.8271484375
aria143.sample573 	 -114.83009338378906
aria143.sample12 	 -114.8320541381836
aria143.sample365 	 -114.84415435791016
aria143.sample971 	 -114.86507415771484
aria143.sample503 	 -114.8675537109375
aria143.sample420 	 -114.8751220703125
aria143.sample660 	 -114.88253021240234
aria143.sample788 	 -114.89508056640625
aria143.sample780 	 -114.9170913696289
aria143.sample132 	 -114.91761779785156
aria143.sample542 	 -114.92155456542969
aria143.sample739 	 -114.93201446533203
aria143.sample728 	 -114.94869995117188
aria143.sample905 	 -114.9562759399414
aria143.sample706 	 -114.9654541015625
aria143.sample569 	 -114.9656753540039
aria143.sample52 	 -114.96668243408203
aria143.sample123 	 -114.98045349121094
aria143.sample305 	 -114.98626708984375
aria143.sample955 	 -114.98753356933594
aria143.sample645 	 -114.99024200439453
aria143.sample159 	 -115.00682067871094
aria143.sample105 	 -115.01251983642578
aria143.sample505 	 -115.02413177490234
aria143.sample918 	 -115.02763366699219
aria143.sample815 	 -115.02808380126953
aria143.sample168 	 -115.04674530029297
aria143.sample937 	 -115.05460357666016
aria143.sample913 	 -115.0604019165039
aria143.sample107 	 -115.06304931640625
aria143.sample46 	 -115.0684585571289
aria143.sample243 	 -115.07169342041016
aria143.sample663 	 -115.08740997314453
aria143.sample211 	 -115.08841705322266
aria143.sample587 	 -115.08938598632812
aria143.sample984 	 -115.08979797363281
aria143.sample202 	 -115.0985336303711
aria143.sample432 	 -115.12255859375
aria143.sample563 	 -115.13871765136719
aria143.sample740 	 -115.17840576171875
aria143.sample18 	 -115.18968963623047
aria143.sample736 	 -115.20064544677734
aria143.sample678 	 -115.20313262939453
aria143.sample231 	 -115.20329284667969
aria143.sample411 	 -115.20358276367188
aria143.sample749 	 -115.21106719970703
aria143.sample179 	 -115.21674346923828
aria143.sample24 	 -115.22006225585938
aria143.sample932 	 -115.23822784423828
aria143.sample897 	 -115.2435073852539
aria143.sample303 	 -115.24549865722656
aria143.sample961 	 -115.25115203857422
aria143.sample853 	 -115.26094818115234
aria143.sample278 	 -115.28103637695312
aria143.sample825 	 -115.28131103515625
aria143.sample844 	 -115.2852783203125
aria143.sample614 	 -115.28927612304688
aria143.sample756 	 -115.29000091552734
aria143.sample349 	 -115.29229736328125
aria143.sample538 	 -115.29900360107422
aria143.sample255 	 -115.3010482788086
aria143.sample668 	 -115.30390930175781
aria143.sample129 	 -115.30925750732422
aria143.sample636 	 -115.31316375732422
aria143.sample708 	 -115.31709289550781
aria143.sample640 	 -115.3287582397461
aria143.sample224 	 -115.33245849609375
aria143.sample86 	 -115.33280181884766
aria143.sample526 	 -115.34426879882812
aria143.sample507 	 -115.353759765625
aria143.sample730 	 -115.3679428100586
aria143.sample772 	 -115.37837982177734
aria143.sample312 	 -115.37970733642578
aria143.sample576 	 -115.40470123291016
aria143.sample519 	 -115.40834045410156
aria143.sample88 	 -115.40987396240234
aria143.sample584 	 -115.42097473144531
aria143.sample841 	 -115.42123413085938
aria143.sample744 	 -115.42261505126953
aria143.sample754 	 -115.42740631103516
aria143.sample310 	 -115.43222045898438
aria143.sample113 	 -115.43696594238281
aria143.sample147 	 -115.44386291503906
aria143.sample108 	 -115.48059844970703
aria143.sample501 	 -115.49439239501953
aria143.sample275 	 -115.49927520751953
aria143.sample977 	 -115.50057220458984
aria143.sample782 	 -115.50611114501953
aria143.sample174 	 -115.51298522949219
aria143.sample154 	 -115.51341247558594
aria143.sample283 	 -115.52406311035156
aria143.sample547 	 -115.52606964111328
aria143.sample565 	 -115.54898834228516
aria143.sample68 	 -115.55747985839844
aria143.sample517 	 -115.56217193603516
aria143.sample277 	 -115.57767486572266
aria143.sample357 	 -115.5815658569336
aria143.sample943 	 -115.58847045898438
aria143.sample518 	 -115.59330749511719
aria143.sample982 	 -115.59507751464844
aria143.sample875 	 -115.6119155883789
aria143.sample648 	 -115.62733459472656
aria143.sample142 	 -115.62739562988281
aria143.sample259 	 -115.6371841430664
aria143.sample395 	 -115.63816833496094
aria143.sample989 	 -115.65650177001953
aria143.sample496 	 -115.6644515991211
aria143.sample732 	 -115.67120361328125
aria143.sample476 	 -115.67524719238281
aria143.sample21 	 -115.67705535888672
aria143.sample553 	 -115.67713165283203
aria143.sample540 	 -115.67951202392578
aria143.sample570 	 -115.70103454589844
aria143.sample965 	 -115.70547485351562
aria143.sample451 	 -115.7221908569336
aria143.sample181 	 -115.7250747680664
aria143.sample798 	 -115.7263412475586
aria143.sample219 	 -115.7354736328125
aria143.sample968 	 -115.79890441894531
aria143.sample684 	 -115.81105041503906
aria143.sample402 	 -115.82080078125
aria143.sample753 	 -115.8297119140625
aria143.sample449 	 -115.83084106445312
aria143.sample66 	 -115.8543472290039
aria143.sample77 	 -115.86195373535156
aria143.sample389 	 -115.88526916503906
aria143.sample710 	 -115.89000701904297
aria143.sample817 	 -115.8901138305664
aria143.sample683 	 -115.90240478515625
aria143.sample183 	 -115.90538787841797
aria143.sample319 	 -115.90857696533203
aria143.sample534 	 -115.91053771972656
aria143.sample300 	 -115.92236328125
aria143.sample695 	 -115.92262268066406
aria143.sample239 	 -115.93218994140625
aria143.sample373 	 -115.93547821044922
aria143.sample908 	 -115.93797302246094
aria143.sample796 	 -115.99341583251953
aria143.sample290 	 -116.00568389892578
aria143.sample969 	 -116.02886962890625
aria143.sample47 	 -116.03060150146484
aria143.sample246 	 -116.03323364257812
aria143.sample448 	 -116.03353118896484
aria143.sample110 	 -116.04623413085938
aria143.sample143 	 -116.06122589111328
aria143.sample163 	 -116.0692138671875
aria143.sample906 	 -116.07759857177734
aria143.sample990 	 -116.0814437866211
aria143.sample236 	 -116.08598327636719
aria143.sample314 	 -116.10706329345703
aria143.sample417 	 -116.1106185913086
aria143.sample966 	 -116.12384033203125
aria143.sample9 	 -116.12590789794922
aria143.sample370 	 -116.13848114013672
aria143.sample924 	 -116.14697265625
aria143.sample670 	 -116.15220642089844
aria143.sample816 	 -116.15789031982422
aria143.sample216 	 -116.16165924072266
aria143.sample539 	 -116.17127227783203
aria143.sample140 	 -116.19404602050781
aria143.sample151 	 -116.2010269165039
aria143.sample901 	 -116.20712280273438
aria143.sample601 	 -116.23048400878906
aria143.sample407 	 -116.2311782836914
aria143.sample899 	 -116.23239135742188
aria143.sample656 	 -116.23847961425781
aria143.sample294 	 -116.24712371826172
aria143.sample134 	 -116.26336669921875
aria143.sample96 	 -116.26792907714844
aria143.sample457 	 -116.27059173583984
aria143.sample369 	 -116.27589416503906
aria143.sample363 	 -116.27972412109375
aria143.sample854 	 -116.28276824951172
aria143.sample537 	 -116.29428100585938
aria143.sample280 	 -116.29635620117188
aria143.sample57 	 -116.3008041381836
aria143.sample433 	 -116.30087280273438
aria143.sample858 	 -116.30618286132812
aria143.sample510 	 -116.30709838867188
aria143.sample602 	 -116.3199462890625
aria143.sample282 	 -116.32060241699219
aria143.sample581 	 -116.32472229003906
aria143.sample835 	 -116.33161926269531
aria143.sample650 	 -116.33912658691406
aria143.sample32 	 -116.35711669921875
aria143.sample945 	 -116.35965728759766
aria143.sample438 	 -116.36872100830078
aria143.sample65 	 -116.37273406982422
aria143.sample418 	 -116.37863159179688
aria143.sample867 	 -116.38404083251953
aria143.sample374 	 -116.38502502441406
aria143.sample976 	 -116.39435577392578
aria143.sample910 	 -116.39730834960938
aria143.sample205 	 -116.40672302246094
aria143.sample811 	 -116.40818786621094
aria143.sample327 	 -116.4154281616211
aria143.sample697 	 -116.41926574707031
aria143.sample958 	 -116.42521667480469
aria143.sample671 	 -116.42543029785156
aria143.sample64 	 -116.42974090576172
aria143.sample672 	 -116.45030975341797
aria143.sample375 	 -116.46310424804688
aria143.sample238 	 -116.47323608398438
aria143.sample190 	 -116.47509002685547
aria143.sample712 	 -116.48603820800781
aria143.sample59 	 -116.49403381347656
aria143.sample252 	 -116.49595642089844
aria143.sample126 	 -116.49834442138672
aria143.sample928 	 -116.50047302246094
aria143.sample591 	 -116.5048828125
aria143.sample427 	 -116.5077133178711
aria143.sample991 	 -116.50778198242188
aria143.sample852 	 -116.5196304321289
aria143.sample792 	 -116.52455139160156
aria143.sample409 	 -116.52732849121094
aria143.sample777 	 -116.53085327148438
aria143.sample559 	 -116.53287506103516
aria143.sample71 	 -116.53330993652344
aria143.sample366 	 -116.53446960449219
aria143.sample716 	 -116.54058837890625
aria143.sample920 	 -116.54178619384766
aria143.sample592 	 -116.5470199584961
aria143.sample171 	 -116.55364227294922
aria143.sample857 	 -116.55502319335938
aria143.sample426 	 -116.5572509765625
aria143.sample148 	 -116.55905151367188
aria143.sample233 	 -116.5685806274414
aria143.sample199 	 -116.57203674316406
aria143.sample332 	 -116.57906341552734
aria143.sample999 	 -116.5862808227539
aria143.sample669 	 -116.58802032470703
aria143.sample545 	 -116.59091186523438
aria143.sample896 	 -116.59162139892578
aria143.sample55 	 -116.60486602783203
aria143.sample691 	 -116.62940979003906
aria143.sample785 	 -116.63088989257812
aria143.sample44 	 -116.6326675415039
aria143.sample720 	 -116.63919830322266
aria143.sample421 	 -116.64561462402344
aria143.sample166 	 -116.6463623046875
aria143.sample960 	 -116.65628814697266
aria143.sample864 	 -116.65686798095703
aria143.sample726 	 -116.65728759765625
aria143.sample42 	 -116.65758514404297
aria143.sample525 	 -116.66488647460938
aria143.sample270 	 -116.68421936035156
aria143.sample234 	 -116.6893081665039
aria143.sample637 	 -116.70732116699219
aria143.sample435 	 -116.70855712890625
aria143.sample923 	 -116.71168518066406
aria143.sample974 	 -116.7154312133789
aria143.sample388 	 -116.73188018798828
aria143.sample781 	 -116.73614501953125
aria143.sample611 	 -116.7379150390625
aria143.sample346 	 -116.73958587646484
aria143.sample36 	 -116.74513244628906
aria143.sample455 	 -116.74590301513672
aria143.sample880 	 -116.75313568115234
aria143.sample470 	 -116.75341796875
aria143.sample459 	 -116.7601318359375
aria143.sample499 	 -116.76216888427734
aria143.sample567 	 -116.77972412109375
aria143.sample334 	 -116.78084564208984
aria143.sample900 	 -116.78816986083984
aria143.sample685 	 -116.79121398925781
aria143.sample121 	 -116.79141998291016
aria143.sample112 	 -116.80909729003906
aria143.sample623 	 -116.81163787841797
aria143.sample475 	 -116.8155746459961
aria143.sample921 	 -116.81697082519531
aria143.sample862 	 -116.82246398925781
aria143.sample298 	 -116.82437896728516
aria143.sample970 	 -116.83336639404297
aria143.sample1000 	 -116.8445053100586
aria143.sample643 	 -116.84889221191406
aria143.sample431 	 -116.8539047241211
aria143.sample555 	 -116.85961151123047
aria143.sample941 	 -116.8797607421875
aria143.sample206 	 -116.87987518310547
aria143.sample156 	 -116.88618469238281
aria143.sample153 	 -116.89337158203125
aria143.sample157 	 -116.89561462402344
aria143.sample515 	 -116.89641571044922
aria143.sample635 	 -116.89751434326172
aria143.sample953 	 -116.90108489990234
aria143.sample436 	 -116.90302276611328
aria143.sample531 	 -116.90813446044922
aria143.sample548 	 -116.91687774658203
aria143.sample460 	 -116.93708038330078
aria143.sample482 	 -116.9608154296875
aria143.sample93 	 -116.96121978759766
aria143.sample98 	 -116.96907806396484
aria143.sample289 	 -116.97064971923828
aria143.sample809 	 -116.97605895996094
aria143.sample903 	 -116.98005676269531
aria143.sample413 	 -116.9991455078125
aria143.sample213 	 -117.00698852539062
aria143.sample330 	 -117.00785827636719
aria143.sample29 	 -117.01652526855469
aria143.sample209 	 -117.01868438720703
aria143.sample161 	 -117.02094268798828
aria143.sample2 	 -117.03270721435547
aria143.sample566 	 -117.0693359375
aria143.sample794 	 -117.07184600830078
aria143.sample45 	 -117.07936096191406
aria143.sample658 	 -117.09624481201172
aria143.sample604 	 -117.10505676269531
aria143.sample446 	 -117.1097412109375
aria143.sample769 	 -117.1156005859375
aria143.sample597 	 -117.11568450927734
aria143.sample909 	 -117.11882781982422
aria143.sample91 	 -117.12041473388672
aria143.sample693 	 -117.12222290039062
aria143.sample10 	 -117.14331817626953
aria143.sample25 	 -117.14389038085938
aria143.sample82 	 -117.1494369506836
aria143.sample260 	 -117.1522216796875
aria143.sample664 	 -117.1549072265625
aria143.sample204 	 -117.15607452392578
aria143.sample646 	 -117.16727447509766
aria143.sample790 	 -117.18000793457031
aria143.sample733 	 -117.20217895507812
aria143.sample351 	 -117.20255279541016
aria143.sample551 	 -117.21429443359375
aria143.sample406 	 -117.21659851074219
aria143.sample734 	 -117.22517395019531
aria143.sample387 	 -117.22901916503906
aria143.sample401 	 -117.23399353027344
aria143.sample53 	 -117.2414321899414
aria143.sample699 	 -117.25187683105469
aria143.sample217 	 -117.26612854003906
aria143.sample207 	 -117.27357482910156
aria143.sample273 	 -117.28860473632812
aria143.sample182 	 -117.2974853515625
aria143.sample35 	 -117.32667541503906
aria143.sample786 	 -117.32864379882812
aria143.sample296 	 -117.32882690429688
aria143.sample221 	 -117.33648681640625
aria143.sample345 	 -117.3494644165039
aria143.sample506 	 -117.37025451660156
aria143.sample846 	 -117.37211608886719
aria143.sample502 	 -117.38113403320312
aria143.sample729 	 -117.38304901123047
aria143.sample245 	 -117.3990249633789
aria143.sample51 	 -117.4014663696289
aria143.sample339 	 -117.40227508544922
aria143.sample383 	 -117.41317749023438
aria143.sample698 	 -117.41371154785156
aria143.sample125 	 -117.42283630371094
aria143.sample311 	 -117.42686462402344
aria143.sample934 	 -117.43560028076172
aria143.sample318 	 -117.4435806274414
aria143.sample877 	 -117.46337890625
aria143.sample15 	 -117.47648620605469
aria143.sample609 	 -117.48794555664062
aria143.sample324 	 -117.4887466430664
aria143.sample675 	 -117.49590301513672
aria143.sample887 	 -117.49832153320312
aria143.sample997 	 -117.49880981445312
aria143.sample718 	 -117.49970245361328
aria143.sample188 	 -117.52006530761719
aria143.sample752 	 -117.52490997314453
aria143.sample793 	 -117.52902221679688
aria143.sample504 	 -117.55347442626953
aria143.sample571 	 -117.5559310913086
aria143.sample639 	 -117.56534576416016
aria143.sample336 	 -117.57052612304688
aria143.sample490 	 -117.57379150390625
aria143.sample353 	 -117.578125
aria143.sample939 	 -117.5833969116211
aria143.sample892 	 -117.5838623046875
aria143.sample694 	 -117.58678436279297
aria143.sample292 	 -117.59056091308594
aria143.sample464 	 -117.59114074707031
aria143.sample380 	 -117.59626770019531
aria143.sample272 	 -117.60167694091797
aria143.sample81 	 -117.6023178100586
aria143.sample819 	 -117.6153793334961
aria143.sample750 	 -117.61974334716797
aria143.sample979 	 -117.62193298339844
aria143.sample356 	 -117.62838745117188
aria143.sample914 	 -117.63182830810547
aria143.sample682 	 -117.64662170410156
aria143.sample634 	 -117.64903259277344
aria143.sample861 	 -117.6502685546875
aria143.sample437 	 -117.65045928955078
aria143.sample745 	 -117.66036224365234
aria143.sample456 	 -117.6614761352539
aria143.sample818 	 -117.663818359375
aria143.sample747 	 -117.67217254638672
aria143.sample801 	 -117.68251037597656
aria143.sample165 	 -117.69114685058594
aria143.sample666 	 -117.69670104980469
aria143.sample430 	 -117.697265625
aria143.sample770 	 -117.70304107666016
aria143.sample757 	 -117.71862030029297
aria143.sample954 	 -117.72913360595703
aria143.sample701 	 -117.73468780517578
aria143.sample133 	 -117.73920440673828
aria143.sample329 	 -117.74435424804688
aria143.sample264 	 -117.74934387207031
aria143.sample800 	 -117.76705932617188
aria143.sample398 	 -117.7684326171875
aria143.sample763 	 -117.77035522460938
aria143.sample285 	 -117.77215576171875
aria143.sample562 	 -117.7779769897461
aria143.sample673 	 -117.77880096435547
aria143.sample554 	 -117.79531860351562
aria143.sample843 	 -117.81155395507812
aria143.sample840 	 -117.82913208007812
aria143.sample176 	 -117.83029174804688
aria143.sample509 	 -117.83065032958984
aria143.sample935 	 -117.83343505859375
aria143.sample225 	 -117.84060668945312
aria143.sample938 	 -117.85150909423828
aria143.sample783 	 -117.86845397949219
aria143.sample84 	 -117.87193298339844
aria143.sample384 	 -117.87873077392578
aria143.sample256 	 -117.8806381225586
aria143.sample588 	 -117.88978576660156
aria143.sample73 	 -117.93218994140625
aria143.sample561 	 -117.9627914428711
aria143.sample626 	 -117.9781265258789
aria143.sample741 	 -117.99283599853516
aria143.sample198 	 -118.0167465209961
aria143.sample114 	 -118.0168685913086
aria143.sample358 	 -118.0235366821289
aria143.sample170 	 -118.02364349365234
aria143.sample690 	 -118.04655456542969
aria143.sample429 	 -118.04802703857422
aria143.sample560 	 -118.05032348632812
aria143.sample40 	 -118.05786895751953
aria143.sample447 	 -118.06013488769531
aria143.sample594 	 -118.07227325439453
aria143.sample127 	 -118.09198760986328
aria143.sample630 	 -118.09980010986328
aria143.sample341 	 -118.100830078125
aria143.sample930 	 -118.12513732910156
aria143.sample14 	 -118.12879943847656
aria143.sample117 	 -118.12947845458984
aria143.sample894 	 -118.17189025878906
aria143.sample403 	 -118.1773452758789
aria143.sample762 	 -118.18174743652344
aria143.sample39 	 -118.18212127685547
aria143.sample528 	 -118.19574737548828
aria143.sample680 	 -118.2168197631836
aria143.sample386 	 -118.21722412109375
aria143.sample155 	 -118.22628784179688
aria143.sample22 	 -118.23065185546875
aria143.sample223 	 -118.23873901367188
aria143.sample987 	 -118.23894500732422
aria143.sample405 	 -118.23997497558594
aria143.sample281 	 -118.25077819824219
aria143.sample599 	 -118.28971099853516
aria143.sample907 	 -118.30654907226562
aria143.sample184 	 -118.3149642944336
aria143.sample891 	 -118.33213806152344
aria143.sample978 	 -118.35460662841797
aria143.sample865 	 -118.36943817138672
aria143.sample326 	 -118.40319061279297
aria143.sample377 	 -118.40790557861328
aria143.sample348 	 -118.43243408203125
aria143.sample254 	 -118.43278503417969
aria143.sample169 	 -118.467529296875
aria143.sample230 	 -118.4881362915039
aria143.sample469 	 -118.50283813476562
aria143.sample193 	 -118.51487731933594
aria143.sample26 	 -118.52197265625
aria143.sample743 	 -118.52977752685547
aria143.sample185 	 -118.53099060058594
aria143.sample131 	 -118.55003356933594
aria143.sample214 	 -118.55158233642578
aria143.sample316 	 -118.56143188476562
aria143.sample67 	 -118.56195068359375
aria143.sample354 	 -118.56696319580078
aria143.sample589 	 -118.56936645507812
aria143.sample904 	 -118.57100677490234
aria143.sample70 	 -118.61164855957031
aria143.sample996 	 -118.6134262084961
aria143.sample458 	 -118.63800811767578
aria143.sample998 	 -118.63919067382812
aria143.sample408 	 -118.66083526611328
aria143.sample986 	 -118.6627197265625
aria143.sample936 	 -118.66487884521484
aria143.sample893 	 -118.66776275634766
aria143.sample771 	 -118.67024230957031
aria143.sample350 	 -118.67588806152344
aria143.sample416 	 -118.68672180175781
aria143.sample883 	 -118.70375061035156
aria143.sample992 	 -118.71127319335938
aria143.sample248 	 -118.72589874267578
aria143.sample556 	 -118.7494125366211
aria143.sample512 	 -118.79078674316406
aria143.sample76 	 -118.79560852050781
aria143.sample828 	 -118.8155288696289
aria143.sample244 	 -118.81698608398438
aria143.sample838 	 -118.81986999511719
aria143.sample479 	 -118.82656860351562
aria143.sample466 	 -118.82780456542969
aria143.sample1 	 -118.84739685058594
aria143.sample751 	 -118.85233306884766
aria143.sample927 	 -118.85911560058594
aria143.sample568 	 -118.86466979980469
aria143.sample308 	 -118.86595153808594
aria143.sample274 	 -118.87025451660156
aria143.sample513 	 -118.89723205566406
aria143.sample511 	 -118.90177154541016
aria143.sample662 	 -118.90577697753906
aria143.sample681 	 -118.92203521728516
aria143.sample859 	 -118.92790985107422
aria143.sample722 	 -118.93185424804688
aria143.sample895 	 -118.9444808959961
aria143.sample85 	 -118.95545196533203
aria143.sample933 	 -118.95726013183594
aria143.sample347 	 -119.00323486328125
aria143.sample293 	 -119.01628112792969
aria143.sample138 	 -119.01790618896484
aria143.sample276 	 -119.03633117675781
aria143.sample789 	 -119.03700256347656
aria143.sample558 	 -119.055419921875
aria143.sample687 	 -119.0893783569336
aria143.sample760 	 -119.08979797363281
aria143.sample452 	 -119.09052276611328
aria143.sample439 	 -119.09900665283203
aria143.sample371 	 -119.11746215820312
aria143.sample302 	 -119.11912536621094
aria143.sample583 	 -119.12019348144531
aria143.sample983 	 -119.13179779052734
aria143.sample603 	 -119.13357543945312
aria143.sample227 	 -119.13737487792969
aria143.sample135 	 -119.15412902832031
aria143.sample917 	 -119.15546417236328
aria143.sample944 	 -119.19308471679688
aria143.sample130 	 -119.19705963134766
aria143.sample338 	 -119.21367645263672
aria143.sample116 	 -119.2142562866211
aria143.sample833 	 -119.2310791015625
aria143.sample654 	 -119.2358627319336
aria143.sample915 	 -119.26832580566406
aria143.sample578 	 -119.27531433105469
aria143.sample676 	 -119.28065490722656
aria143.sample863 	 -119.2894287109375
aria143.sample5 	 -119.32292938232422
aria143.sample779 	 -119.33052825927734
aria143.sample873 	 -119.33665466308594
aria143.sample196 	 -119.34698486328125
aria143.sample263 	 -119.3512954711914
aria143.sample194 	 -119.3823013305664
aria143.sample412 	 -119.39311981201172
aria143.sample471 	 -119.39786529541016
aria143.sample237 	 -119.42093658447266
aria143.sample524 	 -119.44052124023438
aria143.sample323 	 -119.45399475097656
aria143.sample871 	 -119.45611572265625
aria143.sample390 	 -119.46713256835938
aria143.sample605 	 -119.49182891845703
aria143.sample69 	 -119.53041076660156
aria143.sample593 	 -119.53750610351562
aria143.sample124 	 -119.53974151611328
aria143.sample119 	 -119.54586029052734
aria143.sample422 	 -119.56555938720703
aria143.sample799 	 -119.56700134277344
aria143.sample247 	 -119.57442474365234
aria143.sample299 	 -119.58855438232422
aria143.sample242 	 -119.60079193115234
aria143.sample249 	 -119.61589050292969
aria143.sample197 	 -119.66497039794922
aria143.sample713 	 -119.66568756103516
aria143.sample364 	 -119.67438507080078
aria143.sample709 	 -119.6905288696289
aria143.sample805 	 -119.70629119873047
aria143.sample836 	 -119.72867584228516
aria143.sample768 	 -119.74375915527344
aria143.sample651 	 -119.76294708251953
aria143.sample967 	 -119.7695541381836
aria143.sample218 	 -119.78099060058594
aria143.sample615 	 -119.78656005859375
aria143.sample721 	 -119.816650390625
aria143.sample549 	 -119.88916015625
aria143.sample13 	 -119.9005355834961
aria143.sample400 	 -119.92805480957031
aria143.sample536 	 -119.94537353515625
aria143.sample307 	 -119.96009826660156
aria143.sample972 	 -119.98412322998047
aria143.sample931 	 -119.99549102783203
aria143.sample232 	 -120.01032257080078
aria143.sample378 	 -120.03207397460938
aria143.sample700 	 -120.04129028320312
aria143.sample834 	 -120.04853820800781
aria143.sample737 	 -120.05037689208984
aria143.sample63 	 -120.05297088623047
aria143.sample173 	 -120.08677673339844
aria143.sample714 	 -120.11768341064453
aria143.sample362 	 -120.1272964477539
aria143.sample177 	 -120.13814544677734
aria143.sample629 	 -120.16112518310547
aria143.sample993 	 -120.17745208740234
aria143.sample58 	 -120.21867370605469
aria143.sample820 	 -120.23910522460938
aria143.sample962 	 -120.26349639892578
aria143.sample189 	 -120.30001831054688
aria143.sample146 	 -120.31979370117188
aria143.sample812 	 -120.32734680175781
aria143.sample890 	 -120.32869720458984
aria143.sample128 	 -120.33705139160156
aria143.sample911 	 -120.3414306640625
aria143.sample535 	 -120.37342834472656
aria143.sample765 	 -120.39618682861328
aria143.sample624 	 -120.40167999267578
aria143.sample850 	 -120.4068832397461
aria143.sample677 	 -120.41069793701172
aria143.sample784 	 -120.42183685302734
aria143.sample139 	 -120.42627716064453
aria143.sample109 	 -120.53258514404297
aria143.sample385 	 -120.5384750366211
aria143.sample3 	 -120.57767486572266
aria143.sample381 	 -120.57901763916016
aria143.sample988 	 -120.58395385742188
aria143.sample241 	 -120.5848617553711
aria143.sample89 	 -120.6040267944336
aria143.sample419 	 -120.61795043945312
aria143.sample396 	 -120.61873626708984
aria143.sample162 	 -120.62330627441406
aria143.sample343 	 -120.65973663330078
aria143.sample486 	 -120.67991638183594
aria143.sample17 	 -120.69351196289062
aria143.sample912 	 -120.71044921875
aria143.sample480 	 -120.72427368164062
aria143.sample975 	 -120.74121856689453
aria143.sample468 	 -120.76210021972656
aria143.sample823 	 -120.76535034179688
aria143.sample309 	 -120.81759643554688
aria143.sample577 	 -120.82967376708984
aria143.sample546 	 -120.84477996826172
aria143.sample187 	 -120.85110473632812
aria143.sample152 	 -120.87137603759766
aria143.sample404 	 -120.88028717041016
aria143.sample881 	 -120.88089752197266
aria143.sample625 	 -120.88877868652344
aria143.sample610 	 -120.89282989501953
aria143.sample703 	 -120.95313262939453
aria143.sample855 	 -120.98712158203125
aria143.sample359 	 -121.01043701171875
aria143.sample803 	 -121.01100158691406
aria143.sample31 	 -121.01664733886719
aria143.sample797 	 -121.01765441894531
aria143.sample758 	 -121.0325927734375
aria143.sample529 	 -121.06816864013672
aria143.sample527 	 -121.08576202392578
aria143.sample951 	 -121.16649627685547
aria143.sample806 	 -121.17394256591797
aria143.sample226 	 -121.2076187133789
aria143.sample100 	 -121.22067260742188
aria143.sample34 	 -121.25212097167969
aria143.sample952 	 -121.2597885131836
aria143.sample440 	 -121.27798461914062
aria143.sample444 	 -121.29405212402344
aria143.sample410 	 -121.41150665283203
aria143.sample872 	 -121.4888916015625
aria143.sample269 	 -121.52296447753906
aria143.sample641 	 -121.5442123413086
aria143.sample686 	 -121.60276794433594
aria143.sample868 	 -121.62525939941406
aria143.sample141 	 -121.67144012451172
aria143.sample61 	 -121.6715087890625
aria143.sample627 	 -121.69410705566406
aria143.sample99 	 -121.72000122070312
aria143.sample333 	 -121.7716064453125
aria143.sample75 	 -121.79814147949219
aria143.sample916 	 -121.91758728027344
aria143.sample689 	 -121.91915893554688
aria143.sample368 	 -122.05464172363281
aria143.sample262 	 -122.2344970703125
aria143.sample465 	 -122.26776123046875
aria143.sample795 	 -122.28976440429688
aria143.sample617 	 -122.29076385498047
aria143.sample250 	 -122.49388122558594
aria143.sample144 	 -122.58238220214844
aria143.sample543 	 -122.59710693359375
aria143.sample473 	 -122.65797424316406
aria143.sample288 	 -122.66688537597656
aria143.sample807 	 -122.73800659179688
aria143.sample72 	 -122.7424545288086
aria143.sample653 	 -123.04025268554688
aria143.sample257 	 -123.04859924316406
aria143.sample172 	 -123.0561294555664
aria143.sample574 	 -123.25321197509766
aria143.sample474 	 -123.44876861572266
aria143.sample856 	 -123.45902252197266
aria143.sample328 	 -123.51194763183594
aria143.sample489 	 -123.58750915527344
aria143.sample949 	 -123.65521240234375
aria143.sample704 	 -123.68730926513672
aria143.sample372 	 -124.12252044677734
aria143.sample101 	 -124.21074676513672
aria143.sample508 	 -124.80366516113281
aria143.sample352 	 -125.13391876220703
aria143.sample657 	 -129.45599365234375
