EE	18985
CC	18390
HH	14951
BB	13805
AA	11231
GG	8161
FF	7065
DD	6298
BC	6072
HA	6019
AH	5757
CB	5520
AB	5331
CD	5255
EC	4874
BA	4816
DC	4626
DE	4413
ED	4135
CE	4074
CA	4068
EF	3696
GH	3674
HE	3630
AC	3491
EG	3324
FE	3298
HG	3219
BH	3065
GE	2925
HB	2807
EH	2577
AE	2475
EA	2454
HC	2447
CF	2441
BE	2336
DB	2334
HF	2283
FC	2268
CH	2238
FH	2215
BD	2091
EB	2019
AD	2012
FA	1871
AF	1834
DH	1741
DA	1686
FD	1644
SR	1518
GB	1488
DF	1438
AG	1273
FG	1232
GF	1228
BG	1195
FB	1176
KJ	1172
TS	1171
SS	1129
UU	1108
QX	1067
MM	1055
UT	1048
KK	1042
GA	1037
CS	1017
HD	1011
GC	994
CG	993
BF	988
SB	975
JJ	967
VU	946
EU	914
XX	911
RS	871
GD	851
RQ	807
IP	798
JK	788
EM	787
BR	781
HX	769
SC	766
QH	763
PP	756
JI	722
UE	713
XQ	705
US	689
LK	689
XV	687
TU	678
RX	672
ST	667
DG	655
SQ	653
XH	646
RA	632
MK	630
UV	617
BJ	613
AQ	612
CK	608
ME	608
PI	605
NM	590
XA	587
IJ	583
XS	581
HP	571
PA	565
UD	564
CR	562
TX	562
SU	561
XU	561
QR	557
BS	550
TC	550
IB	548
KC	546
PJ	545
RR	544
JP	543
UL	534
EK	527
KB	524
SV	520
KL	518
JB	514
RC	505
JC	496
ML	489
UC	487
LM	487
ES	483
VE	476
XR	472
PO	471
BK	468
XG	464
PN	456
RB	452
QQ	451
HS	447
CU	442
IH	442
HU	440
WU	440
SX	437
SK	432
MJ	427
MN	423
VX	422
XW	422
PM	421
UX	420
JA	419
CI	417
VT	415
TE	415
SJ	414
KM	411
AX	411
JH	410
ET	407
BP	397
TT	393
EX	392
KA	392
AK	391
MD	390
KR	388
SD	381
AI	380
RH	380
PE	378
KD	377
JE	376
JM	374
IX	374
CQ	373
KS	371
DP	370
UM	369
QA	367
WE	366
DS	365
VV	363
UQ	363
JQ	362
CN	358
BQ	357
KE	356
QP	356
AP	355
FU	355
BU	353
MC	352
II	352
PK	351
DX	351
HQ	351
HI	350
LS	349
XF	348
QT	346
LJ	346
QS	345
BX	344
QB	343
HM	342
PH	341
BM	340
JX	338
XC	337
HK	334
AR	333
CJ	332
UF	329
EI	327
XP	326
DT	326
TR	326
IC	325
SA	324
MI	324
SE	320
QU	319
XE	318
PC	317
AJ	317
RU	316
MT	313
RI	313
HJ	311
EJ	310
CV	310
HR	310
JN	309
AS	308
FV	307
DM	306
MU	306
CX	305
BI	301
FM	300
NH	300
LE	298
NJ	297
XI	293
KP	290
KI	290
RE	290
IA	290
CL	289
JS	288
RJ	288
VH	287
NE	287
LC	286
QC	285
IK	285
UG	279
MF	278
RT	276
OM	275
LH	274
JR	273
AL	273
OP	272
FX	272
EN	271
VR	270
NL	270
LP	269
LN	269
CP	268
VM	267
VS	266
XB	266
XO	266
DU	266
ON	266
DK	265
TV	264
UH	262
CM	261
UK	260
SH	258
CT	258
LB	257
XT	256
EL	255
DL	255
UR	255
KN	253
GX	253
FJ	250
KF	249
PS	248
RD	247
OO	246
GU	245
QV	245
QJ	245
TK	242
LL	241
VQ	238
DR	238
GW	238
MA	238
EQ	236
UW	233
EV	232
UB	232
MV	232
MS	231
NK	231
DV	229
MP	229
WH	229
QE	228
EP	227
BT	227
WX	226
GM	225
VD	224
JL	224
TB	224
GP	224
NO	224
MB	222
QW	222
NU	222
NN	221
IE	220
EW	217
OU	215
GQ	215
PF	212
JO	210
FS	210
KT	209
OH	205
PU	204
PG	203
NC	202
XJ	201
UA	200
NG	200
NP	199
ID	199
AV	198
QG	198
LU	198
RP	197
ER	196
RK	195
JF	192
RV	192
PD	191
DJ	191
IG	191
WS	190
HW	189
PQ	188
HN	188
OE	187
MO	187
PL	185
AT	185
MG	184
IM	183
UP	182
SF	181
XD	181
VF	180
HV	180
BL	179
FN	179
MX	179
WG	179
CO	178
AN	178
SI	177
FP	176
WV	176
RW	175
XM	174
PB	174
PV	173
JU	173
KH	172
AU	172
RG	172
PX	171
UN	171
TH	171
NB	171
XK	169
TQ	169
RF	167
VC	166
IL	166
NI	164
OX	162
WC	161
SL	160
KU	160
WQ	160
FT	159
KG	158
MH	158
WW	158
OI	156
OC	153
GO	153
BW	152
IV	151
KO	150
LX	150
VW	149
XN	149
DI	149
UO	149
HO	148
FQ	147
FL	147
IS	147
TJ	146
WF	146
WR	146
KQ	145
OG	145
FK	145
IF	145
PW	144
GJ	142
WT	142
SM	140
OB	140
CW	139
QI	139
FR	138
LD	138
IQ	137
VP	135
KX	135
LI	135
KV	134
QD	134
AO	133
FW	133
MQ	133
TD	132
NF	132
TA	131
OD	130
SP	129
HL	129
JD	128
GT	128
MR	128
WM	128
IR	128
EO	127
GR	127
FI	127
IN	126
VK	124
DQ	123
BO	123
WA	123
MW	122
VB	121
DN	121
NR	121
UI	119
AW	119
VA	118
TF	118
RM	118
ND	118
TL	117
OK	116
NA	116
OJ	115
JG	114
NT	114
IO	114
BV	111
OQ	109
XL	108
TW	108
GI	108
QL	108
JV	106
WP	106
QM	105
NX	105
SN	102
RL	101
VI	100
AM	100
GN	100
TP	99
QK	98
SG	97
GS	97
NS	96
SW	94
VJ	94
PR	93
LA	93
OA	92
OF	92
LT	92
IW	92
HT	90
FO	90
WB	90
VO	88
GK	88
QF	88
DW	87
UJ	84
NV	83
PT	82
TM	80
GL	79
RN	78
VN	77
LF	74
LR	74
IU	73
LG	72
KW	70
QN	70
BN	68
IT	68
VG	67
VL	63
OL	63
JW	62
WD	62
LO	62
WN	61
DO	60
TN	59
TI	59
NW	56
OV	55
SO	54
WO	54
OW	50
TG	48
LV	47
GV	44
OT	42
JT	42
OS	40
OR	40
WJ	40
LQ	37
WK	34
NQ	34
WI	30
RO	30
LW	30
QO	26
TO	23
WL	14
