2 11
0 8
8 8
0 10
0 10
1 11
1 8
8 8
1 16
8 8
0 11
3 8
1 8
0 9
1 12
8 8
1 9
0 9
1 8
11 13
1 9
2 8
9 11
0 9
8 13
0 10
0 13
1 9
1 10
0 8
0 10
5 12
11 12
1 18
0 10
0 11
12 14
8 15
7 8
2 18
0 12
1 8
0 8
0 8
2 11
1 11
1 10
7 8
6 8
8 10
1 10
6 10
8 8
5 11
1 8
2 11
1 9
1 12
1 16
9 9
1 11
0 11
1 8
1 13
0 10
0 15
7 8
3 15
0 9
0 12
2 8
0 10
1 9
8 8
0 8
1 9
6 8
0 11
2 17
6 10
6 8
0 9
0 8
1 12
5 10
0 8
7 9
0 9
1 11
0 17
1 9
0 15
0 12
0 8
0 10
0 10
0 9
0 10
8 8
1 11
1 17
3 16
1 23
0 19
1 14
0 22
1 16
6 17
0 24
0 23
1 12
2 22
8 13
3 24
3 15
3 24
1 23
1 21
6 17
0 16
0 18
0 23
1 24
0 22
0 20
0 23
1 23
0 13
2 23
5 23
0 23
1 23
2 23
0 21
2 23
1 23
1 24
0 12
3 24
0 18
0 23
1 16
6 15
0 15
8 16
0 22
0 13
0 24
5 18
1 16
6 17
5 17
1 22
0 20
1 20
4 20
0 22
2 16
0 12
4 24
1 22
2 16
1 23
0 18
6 13
4 23
2 23
2 24
1 22
1 16
0 15
1 12
0 23
0 16
0 20
1 14
0 23
1 22
1 13
1 20
2 12
7 13
8 13
0 17
1 21
1 20
1 12
2 22
2 18
0 22
4 13
3 24
1 17
3 22
4 17
2 21
0 23
2 22
1 16
1 23
0 11
9 12
3 8
0 12
1 12
2 12
0 15
0 11
9 16
2 12
2 17
9 11
9 13
0 21
8 9
0 19
2 20
0 11
8 14
6 9
0 18
0 17
1 14
6 9
0 19
1 17
11 13
4 12
2 12
0 13
0 12
1 12
0 12
2 14
1 9
0 11
2 11
0 12
1 15
1 26
1 11
1 10
1 15
1 13
1 10
1 19
0 19
0 12
1 17
7 15
0 8
0 9
0 11
8 10
2 13
4 16
1 8
1 11
5 12
11 13
4 12
0 13
1 9
8 12
0 21
1 13
0 12
1 19
6 15
8 10
1 16
3 12
0 10
0 16
0 10
0 20
1 9
1 19
9 10
1 20
8 9
0 11
8 15
2 16
0 18
0 12
0 20
1 12
0 10
3 21
6 13
10 11
6 16
0 13
0 18
1 12
6 11
0 10
0 9
0 16
