11 87
10 87
4 87
0 87
0 87
24 87
9 87
0 87
33 87
23 87
0 87
2 87
7 87
0 87
11 87
6 87
9 87
0 87
26 87
0 87
24 87
5 87
28 87
1 87
7 87
0 87
31 87
0 87
0 87
0 87
17 87
0 87
11 87
0 87
15 87
30 87
19 87
18 87
0 87
15 87
0 87
17 87
0 87
10 87
0 87
8 87
3 87
0 87
5 87
0 87
0 87
26 87
0 87
4 87
0 87
0 87
22 87
18 87
0 87
0 87
5 87
1 87
2 87
0 87
42 87
0 87
26 87
5 87
0 87
0 87
0 87
12 87
13 87
6 87
10 87
0 87
22 87
2 87
3 87
8 87
0 87
39 87
22 87
0 87
2 87
6 87
10 87
39 87
14 87
35 87
23 87
31 87
0 87
6 87
0 87
17 87
0 87
0 87
5 87
0 87
0 87
20 87
0 87
12 87
8 87
8 87
34 87
10 87
8 87
16 87
1 87
0 87
0 87
8 87
12 87
0 87
25 87
15 87
2 87
4 87
12 87
2 87
19 87
1 87
8 87
0 87
2 87
0 87
0 87
6 87
17 87
14 87
0 87
9 87
12 87
0 87
0 87
0 87
0 87
0 87
0 87
49 87
4 87
5 87
8 87
23 87
0 87
18 87
7 87
0 87
38 87
1 87
41 87
12 87
0 87
0 87
11 87
9 87
33 87
0 87
4 87
0 87
0 87
9 87
14 87
0 87
3 87
0 87
14 87
0 87
16 87
8 87
0 87
9 87
6 87
12 87
0 87
0 87
0 87
5 87
2 87
13 87
16 87
1 87
11 87
1 87
0 87
0 87
0 87
13 87
0 87
0 87
0 87
0 87
0 87
9 87
3 87
13 87
0 87
0 87
80 87
85 87
63 87
2 87
2 87
2 87
22 87
9 87
0 87
59 87
0 87
8 87
0 87
3 87
81 87
26 87
0 87
87 87
0 87
0 87
84 87
0 87
0 87
0 87
0 87
0 87
28 87
0 87
6 87
31 87
83 87
13 87
0 87
80 87
22 87
85 87
11 87
62 87
15 87
37 87
0 87
26 87
81 87
84 87
0 87
12 87
76 87
1 87
15 87
14 87
0 87
85 87
0 87
25 87
3 87
80 87
1 87
85 87
87 87
32 87
80 87
0 87
2 87
44 87
0 87
0 87
1 87
0 87
2 87
32 87
0 87
7 87
6 87
0 87
87 87
82 87
0 87
1 87
0 87
0 87
2 87
23 87
0 87
87 87
7 87
25 87
17 87
6 87
87 87
0 87
48 87
0 87
0 87
72 87
0 87
0 87
0 87
12 87
87 87
0 87
2 87
0 87
0 87
0 87
0 87
2 87
26 87
6 87
0 87
1 87
0 87
8 87
6 87
60 87
8 87
3 87
0 87
0 87
6 87
0 87
5 87
0 87
2 87
10 87
32 87
8 87
2 87
8 87
0 87
77 87
8 87
8 87
26 87
1 87
0 87
0 87
10 87
56 87
0 87
78 87
0 87
0 87
0 87
0 87
6 87
0 87
0 87
0 87
4 87
0 87
0 87
78 87
0 87
0 87
11 87
0 87
3 87
15 87
4 87
3 87
0 87
12 87
0 87
7 87
80 87
78 87
23 87
0 87
16 87
35 87
0 87
0 87
2 87
0 87
0 87
0 87
0 87
0 87
0 87
22 87
0 87
8 87
0 87
2 87
76 87
53 87
8 87
0 87
80 87
7 87
38 87
32 87
0 87
38 87
2 87
5 87
47 87
2 87
10 87
26 87
0 87
87 87
11 87
0 87
82 87
76 87
12 87
0 87
84 87
0 87
84 87
59 87
81 87
86 87
4 87
71 87
14 87
75 87
73 87
82 87
0 87
65 87
84 87
0 87
0 87
69 87
13 87
86 87
12 87
0 87
68 87
69 87
16 87
6 87
17 87
0 87
75 87
12 87
72 87
14 87
0 87
79 87
85 87
0 87
2 87
75 87
0 87
80 87
9 87
83 87
7 87
87 87
1 87
0 87
3 87
72 87
79 87
74 87
77 87
0 87
85 87
10 87
10 87
0 87
0 87
12 87
0 87
0 87
69 87
11 87
71 87
0 87
13 87
85 87
87 87
0 87
87 87
0 87
16 87
3 87
40 87
0 87
84 87
86 87
54 87
1 87
0 87
6 87
84 87
76 87
0 87
0 87
68 87
1 87
0 87
85 87
80 87
0 87
86 87
12 87
