G2.0 C2.0 A2.0 F2.0 E2.0 A2.0 G2.0 G2.0 F#2.0 G2.0 A2.0 D2.0 A2.0 G2.0 F2.0 A2.0 D2.0 F2.0 F2.0 E2.0
C2.0 C2.0 C2.0 B2.0 C2.0 E2.0 E2.0 E2.0 E-2.0 B2.0 E2.0 D2.0 D2.0 G2.0 B2.0 C2.0 D2.0 C2.0 B2.0 C2.0
E2.0 E2.0 F2.0 G2.0 G2.0 A2.0 B2.0 C2.0 A2.0 G2.0 C2.0 A2.0 B2.0 C2.0 G2.0 E2.0 G2.0 A2.0 B2.0 G2.0
C2.0 A2.0 A2.0 D2.0 C2.0 C2.0 B2.0 A2.0 B2.0 E2.0 C2.0 F2.0 F2.0 E2.0 D2.0 C2.0 B2.0 A2.0 G2.0 C2.0
