A0.5 C0.5 E2.0 C0.5 B0.5 A0.5 G#0.5 B0.5 D0.5 E0.5 F2.0 E0.5 D0.5 C0.5 B0.5 D0.5 F0.5 G#0.5 B0.5 F0.5 E0.5 D0.5 C0.5 B0.5 C0.5 D0.5 E0.5 C0.5 A0.5 G0.5 F0.5 E0.5 F0.5 A0.5 C0.5 E0.5 A0.5 G0.5 F0.5 E0.5 D0.5 C0.5 B0.5 D0.5 F0.5 A0.5 G0.5 E0.5 F0.5 D0.5 C0.5 B0.5 D0.5 F0.5 E0.5 G0.5 B0.5 D0.5 G0.5 F0.5 E0.5 D0.5 C0.5 B0.5 A0.5 C0.5 E0.5 G0.5 F0.5 D0.5 E0.5 C0.5 B0.5 C0.5 E0.5 C0.5 D0.5 F0.5 A0.5 C0.5 F0.5 E0.5 D0.5 C0.5 B0.5 D0.5 E0.5 G0.5 B0.5 D0.5 G0.5 E0.5 B0.5 D0.5 C0.5 E0.5 A0.5 B-0.5 A0.5 E0.5 F0.5 A0.5 D0.5 F0.5 E0.5 G0.5 F0.5 D0.5 A0.5 C0.5 B0.5 F#0.5 G0.5 B0.5 D0.5 A0.5 B0.5 G0.5 F0.5 D0.5 B0.5 F0.5 C0.5 E0.5 G2.0 F0.5 E0.5 D0.5 C#0.5 E0.5 F0.5 G0.5 A0.5 G0.5 F0.5 E0.5 C#0.5 B-0.5 A0.5 G0.5 F0.5 E0.5 D0.5 F0.5 A2.0 G0.5 F0.5 E0.5 E-0.5 F#0.5 G0.5 A0.5 B0.5 A0.5 G0.5 F#0.5 E-0.5 C0.5 B0.5 A0.5 G0.5 F#0.5 E0.5 G0.5 C0.5 B0.5 C0.5 E-0.5 E0.5 C0.5 A0.5 G0.5 F#0.5 A0.5 E-0.5 F#0.5 A0.5 G0.5 F#0.5 E0.5 E-0.5 E0.5 G0.5 B0.5 E0.5 G0.5 B0.5 G0.5 F#0.5 E0.5 E-0.5 E0.5 A0.5 C0.5 E0.5 A0.5 C0.5 B0.5 A0.5 G0.5 F#0.5 A0.5 B0.5 A0.5 G0.5 F#0.5 E0.5 G0.5 F#0.5 E0.5 A0.5 F#0.5 E0.5 E-0.5 G0.5 E0.5 D0.5 C0.5 G#0.5 D0.5 C0.5 B0.5 A0.5 C0.5 B0.5 A0.5 E-0.5 A0.5 B0.5 C0.5 F#0.5 C0.5 B0.5 A0.5 E-0.5 A0.5 G0.5 F#0.5 E0.5 F#0.5 G0.5 B0.5 E0.5 F#0.5 G0.5 E0.5 B0.5 G0.5 E0.5 D0.5 C#0.5 E0.5 G0.5 A0.5 B-0.5 A0.5 G0.5 F0.5 G0.5 E0.5 F0.5 E0.5 F0.5 A0.5 D0.5 B-0.5 C0.5 D0.5 E0.5 D0.5 C0.5 B-0.5 A0.5 G0.5 A0.5 C0.5 F0.5 D0.5 E0.5 F0.5 G#0.5 F0.5 E0.5 D0.5 C0.5 B0.5 C0.5 E0.5 A0.5 F0.5 G0.5 A0.5 B0.5 A0.5 G0.5 F0.5 E0.5 D0.5 E0.5 G0.5 C0.5 A0.5 B0.5 C0.5 D0.5 C0.5 B0.5 A0.5 G#0.5 D0.5 C0.5 B0.5 E0.5 B0.5 C0.5 D0.5 G#0.5 F0.5 E0.5 D0.5 C0.5 D0.5 E0.5 G#0.5 A0.5 E0.5 D0.5 C0.5 E0.5 C0.5 B0.5 A0.5 E-0.5 A0.5 B0.5 C0.5 E0.5 C0.5 B0.5 A0.5 E-0.5 C0.5 B0.5 A0.5 G#0.5 F#0.5 G#0.5 B0.5 E0.5 B0.5 G#0.5 B0.5 E0.5 D0.5 C0.5 B0.5 C0.5 B0.5 C0.5 E0.5 A0.5 E0.5 C0.5 E0.5 A0.5 G0.5 F0.5 E0.5 D0.5 C0.5 D0.5 G#0.5 B0.5 G#0.5 D0.5 G#0.5 E0.5 D0.5 C0.5 B0.5 A0.5 E0.5 A0.5 B0.5 C0.5 A0.5 E0.5 C0.5 A0.5 G0.5 F0.5 E0.5 D0.5 E0.5 F0.5 A0.5 B-0.5 C0.5 D0.5 E0.5 F0.5 D0.5 B-0.5 D0.5 C0.5 D0.5 E0.5 G#0.5 A0.5 B0.5 C0.5 D0.5 E0.5 C0.5 A0.5 C0.5 B0.5 C0.5 D0.5 F0.5 E0.5 F#0.5 G#0.5 A0.5 B0.5 F0.5 D0.5 F0.5 G#0.5 E0.5 D2.0 F0.5 E0.5 D0.5 C0.5 B0.5 A0.5 B0.5 C0.5 A0.5 E0.5 C0.5 A0.5 E0.5 C0.5 A0.5 E-0.5 C0.5 A2.0 C0.5 B0.5 A0.5 G#0.5 F#0.5 E0.5 F#0.5 G#0.5 E0.5 A0.5 E0.5 B0.5 E0.5 C0.5 E0.5 D0.5 B0.5 G#0.5 B0.5 E0.5 G#0.5 B0.5 C0.5 D0.5 C0.5 D0.5 B0.5 C0.5 A0.5 G#0.5 A0.5 E0.5 G#0.5 A0.5 B0.5 C0.5 B0.5 C0.5 A0.5 B0.5 G#0.5 F#0.5 G#0.5 E0.5 F#0.5 G#0.5 A0.5 B0.5 A0.5 B0.5 G#0.5 A0.5 F#0.5 E0.5 F#0.5 C0.5 E-0.5 F#0.5 G#0.5 A0.5 G#0.5 A0.5 F#0.5 G#1.0 F0.5 D0.5 C#0.5 D0.5 B-0.5 D0.5 A0.5 D0.5 B-0.5 D0.5 F0.5 A0.5 G#0.5 B0.5 D0.5 E0.5 F0.5 E0.5 D0.5 C#0.5 D0.5 B0.5 C0.5 A0.5 F0.5 D0.5 E0.5 C0.5 B0.5 D0.5 C0.5 A0.5 G#0.5 B0.5 A0.5 F0.5 E0.5 D0.5 C#0.5 E0.5 G0.5 B-0.5 A0.5 G0.5 F0.5 E0.5 F0.5 D0.5 C#0.5 D0.5 B-0.5 D0.5 A0.5 D0.5 B-0.5 D0.5 F0.5 A0.5 D0.5 C0.5 B0.5 A0.5 G#0.5 F#0.5 E0.5 D0.5 C0.5 B0.5 A0.5 E0.5 A0.5 B0.5 C0.5 B0.5 A0.5 G0.5 F0.5 E0.5 D0.5 C0.5 B0.5 E0.5 G#0.5 B0.5 D0.5 C0.5 B0.5 A0.5 G#0.5 F#0.5 E0.5 D0.5 C0.5 E0.5 A0.5 C0.5 E0.5 A0.5 C0.5 E0.5 A0.5 F0.5 G0.5 E0.5 D0.5 A0.5 D0.5 E0.5 F0.5 D0.5 C#0.5 D0.5 B-0.5 D0.5 A0.5 D0.5 G#2.0 A2.0 A2.0 G#2.0 A2.0
B1.0 F1.0 D2.0 C2.0 B2.0 B2.0 C2.0
D1.0 G#1.0 E2.0 E2.0 E2.0 E2.0 E2.0
A2.0
