E0.5 A-0.5 A0.5 C0.5 E0.5 A-0.5 A0.5 C0.5 F0.5 E0.5 F0.5 A0.5 F0.5 E0.5 F0.5 A0.5 D0.5 F0.5 A-0.5 B0.5 D0.5 F0.5 A-0.5 B0.5 C0.5 B0.5 C0.5 E0.5 C0.5 B0.5 C0.5 E0.5 A0.5 B0.5 C#0.5 E0.5 A0.5 B0.5 C#0.5 E0.5 B-0.5 C#0.5 B-0.5 F#0.5 B0.5 C#0.5 D0.5 F#0.5 B0.5 C#0.5 D0.5 B0.5 F0.5 A-0.5 F0.5 C#0.5 E0.5 G0.5 F#0.5 C#0.5 D0.5 B-0.5 B0.5 D0.5 G0.5 A0.5 B0.5 D0.5 G0.5 A0.5 B0.5 D0.5 A-0.5 B0.5 A0.5 C0.5 A0.5 C0.5 A0.5 C0.5 E-0.5 D0.5 A0.5 B-0.5 D0.5 F#0.5 G0.5 C#0.5 D0.5 F#0.5 G0.5 G1.0 G0.5 B0.5 C0.5 E0.5 G0.5 B0.5 C0.5 E0.5 A0.5 G0.5 A0.5 C0.5 A0.5 G0.5 A0.5 C0.5 D0.5 F#0.5 G0.5 B0.5 D0.5 F#0.5 G0.5 B0.5 B0.5 D0.5 B0.5 G0.5 B0.5 C0.5 D0.5 A-0.5 B0.5 C0.5 D0.5 B0.5 C0.5 E0.5 C0.5 A0.5 A0.5 A-0.5 A0.5 E-0.5 F#0.5 A-0.5 A0.5 C0.5 B-0.5 A-0.5 A1.0 B0.5 C0.5 A0.5 A-0.5 A0.5 F0.5 A-0.5 A0.5 D0.5 F0.5 A-0.5 A0.5 D0.5 E0.5 A-0.5 A0.5 C0.5 E0.5 A-0.5 A0.5 C0.5 D0.5 A-0.5 A0.5 B0.5 D0.5 A-0.5 A0.5 B0.5 C0.5 A-0.5 A0.5 E0.5 C0.5 A-0.5 A0.5 E0.5 B0.5 A-0.5 A0.5 F0.5 B0.5 A-0.5 A0.5 F0.5 C0.5 A-0.5 A0.5 E0.5 C0.5 A-0.5 A0.5 E0.5 C#0.5 A0.5 B-0.5 E0.5 E0.5 A0.5 B-0.5 C#0.5 F0.5 A-0.5 A0.5 D0.5 E0.5 A-0.5 A0.5 C0.5 E-0.5 A-0.5 A0.5 C0.5 E0.5 A-0.5 A0.5 C0.5 F#0.5 A-0.5 A0.5 C0.5 B0.5 A0.5 A-0.5 A0.5 A-2.0
A0.5 C#0.5 D0.5 F0.5 A0.5 C#0.5 D0.5 F0.5 B0.5 A0.5 B0.5 D0.5 B0.5 A0.5 B0.5 D0.5 E0.5 A-0.5 A0.5 C0.5 E0.5 A-0.5 A0.5 C0.5 C#0.5 E0.5 C#0.5 A0.5 C#0.5 D0.5 E0.5 B-0.5 C#0.5 D0.5 E0.5 C#0.5 D0.5 F#0.5 D0.5 B0.5 A-0.5 A0.5 B0.5 F0.5 A-0.5 A0.5 B0.5 C#0.5 B-0.5 C#0.5 B0.5 D0.5 B0.5 D0.5 B0.5 D0.5 D0.5 F0.5 E0.5 B0.5 C0.5 A-0.5 A0.5 C0.5 F0.5 G0.5 A0.5 C0.5 F0.5 G0.5 A0.5 C0.5 F#0.5 A0.5 G0.5 B-0.5 A0.5 B-0.5 G0.5 A0.5 G0.5 D0.5 F#0.5 G0.5 B0.5 D0.5 F#0.5 G0.5 B0.5 E0.5 D0.5 E0.5 G0.5 E0.5 D0.5 E0.5 G0.5 C0.5 E0.5 F#0.5 A0.5 C0.5 E0.5 F#0.5 A0.5 B0.5 A0.5 B0.5 D0.5 B0.5 A0.5 B0.5 D0.5 G0.5 A0.5 B0.5 D0.5 G0.5 A0.5 B0.5 D0.5 A-0.5 B0.5 A-0.5 E0.5 A0.5 B0.5 C0.5 E0.5 A0.5 B0.5 C0.5 A0.5 E-0.5 F#0.5 E-0.5 B0.5 D0.5 F0.5 E0.5 B0.5 C0.5 A-0.5 A0.5 C0.5 E-0.5 E0.5 B0.5 A0.5 A2.0 A2.0 A2.0 A2.0 C0.5 A0.5 F#0.5 E-0.5 E0.5 E-0.5 C#0.5 E-0.5 E-0.5 C#0.5 E-0.5 E2.0
A1.0 A1.0 D1.0 D1.0 D1.0 D1.0 A1.0 A1.0 A1.0 A1.0 C#1.0 C#1.0 B1.0 B1.0 B1.0 C#0.5 F0.5 C#1.0 B0.5 G1.0 G1.0 B1.0 A0.5 F1.0 F1.0 F#1.0 G1.0 G2.0 F#0.5 G1.0 G1.0 C1.0 C1.0 F#1.0 F#1.0 G1.0 G1.0 G1.0 G1.0 B1.0 B1.0 A1.0 A1.0 F#1.0 B0.5 E-0.5 D1.0 A1.0 A2.0 D0.5 D1.0 A1.0 B1.0 A1.0 B1.0 A1.0 A1.0 F#1.0 F#0.5 E0.5 F#0.5 A-2.0 B1.0 D1.0 C1.0 C#0.5 D0.5 D1.0 F#1.0 F#1.0 E1.0 B0.5
A0.5 A0.5 A0.5 A0.5 A0.5 A0.5 A0.5 A0.5 A0.5 A0.5 A0.5 A0.5 A0.5 A0.5 A0.5 A0.5 G0.5 G0.5 G0.5 G0.5 F#0.5 F#0.5 F#0.5 F#0.5 F#0.5 F#0.5 F#0.5 F#0.5 F#0.5 F#0.5 F#0.5 F#0.5 F#0.5 F#0.5 F#0.5 F#0.5 F0.5 F0.5 F0.5 F0.5 E0.5 E0.5 E0.5 E0.5 E-0.5 E-0.5 E-0.5 E-0.5 D0.5 D0.5 D0.5 D0.5 D0.5 D0.5 D0.5 D0.5 G0.5 G0.5 G0.5 G0.5 G0.5 G0.5 G0.5 G0.5 G0.5 G0.5 G0.5 G0.5 G0.5 G0.5 G0.5 G0.5 F0.5 F0.5 F0.5 F0.5 E0.5 E0.5 E0.5 E0.5 E0.5 E0.5 E0.5 E0.5 E0.5 E0.5 E0.5 E0.5 E0.5 E0.5 E0.5 E0.5 E0.5 E0.5 E0.5 E0.5 A1.0 G1.0 F1.0 E1.0 D1.0 C1.0 F1.0 F#1.0 B1.0 E2.0
A0.5 A0.5 A0.5 A0.5 A0.5 A0.5 A0.5 A0.5 A0.5 A0.5 A0.5 A0.5 A0.5 A0.5 A0.5 A0.5 G0.5 G0.5 G0.5 G0.5 F#0.5 F#0.5 F#0.5 F#0.5 F#0.5 F#0.5 F#0.5 F#0.5 F#0.5 F#0.5 F#0.5 F#0.5 F#0.5 F#0.5 F#0.5 F#0.5 F0.5 F0.5 F0.5 F0.5 E0.5 E0.5 E0.5 E0.5 E-0.5 E-0.5 E-0.5 E-0.5 D0.5 D0.5 D0.5 D0.5 D0.5 D0.5 D0.5 D0.5 G0.5 G0.5 G0.5 G0.5 G0.5 G0.5 G0.5 G0.5 G0.5 G0.5 G0.5 G0.5 G0.5 G0.5 G0.5 G0.5 F0.5 F0.5 F0.5 F0.5 E0.5 E0.5 E0.5 E0.5 E0.5 E0.5 E0.5 E0.5 E0.5 E0.5 E0.5 E0.5 E0.5 E0.5 E0.5 E0.5 E0.5 E0.5 E0.5 E0.5 A1.0 G1.0 F1.0 E1.0 D1.0 C1.0 F1.0 F#1.0 B1.0 E2.0
