16 17
4 23
15 18
14 19
13 20
21 21
20 22
14 21
17 19
14 20
20 21
20 22
14 22
13 21
17 19
9 18
19 23
12 20
13 19
16 21
12 21
14 20
20 20
14 21
20 22
5 23
9 20
18 19
20 21
19 19
17 20
12 20
14 18
14 18
12 18
16 19
18 22
9 18
18 21
18 21
17 18
18 20
15 20
14 21
14 21
15 18
18 22
15 19
19 20
17 22
14 21
19 20
21 21
12 20
16 23
18 18
20 20
21 23
11 19
18 22
15 18
8 21
17 20
18 21
20 20
20 20
16 20
18 20
8 17
21 21
18 20
19 22
18 20
20 22
19 21
17 19
15 19
16 19
10 19
9 22
16 18
14 19
14 21
17 20
13 21
15 20
12 23
19 20
10 21
14 20
17 21
14 21
17 20
16 20
18 21
18 18
18 20
15 20
19 19
16 20
18 20
12 20
16 21
15 19
15 20
19 21
19 21
15 20
13 22
20 21
13 20
7 21
13 18
17 19
20 21
18 19
20 20
20 20
18 22
19 20
8 19
14 18
15 20
23 23
11 18
18 21
17 20
21 22
13 18
12 22
18 20
19 23
18 18
11 19
10 19
17 19
13 20
20 20
17 20
16 19
14 22
16 19
19 21
16 19
20 20
12 19
18 19
18 19
14 19
18 19
17 19
17 19
16 22
14 19
16 18
18 19
16 19
12 22
11 21
22 22
18 20
18 21
19 21
13 20
17 19
10 19
13 20
17 18
23 23
15 18
13 22
16 20
16 21
17 22
15 20
15 20
16 19
20 21
17 20
16 21
13 20
17 21
17 21
10 22
14 20
18 19
16 19
13 20
18 22
16 21
18 19
14 18
15 21
14 19
20 20
19 20
16 20
18 20
12 19
15 23
14 20
15 20
17 21
11 19
20 22
21 21
19 19
19 22
8 22
19 20
15 19
18 21
21 21
16 19
16 18
8 19
16 20
6 21
21 22
16 19
5 19
15 19
15 18
18 18
18 20
18 19
15 19
15 21
16 21
19 21
4 20
16 21
17 21
20 20
18 21
13 20
16 21
14 22
19 19
17 20
15 21
15 19
11 19
21 21
21 21
19 21
18 21
6 19
16 17
16 19
11 20
10 19
17 19
12 21
19 20
10 19
17 19
18 18
19 19
17 19
16 19
18 20
22 22
17 20
16 19
18 19
0 21
20 22
15 20
14 22
12 19
19 20
14 19
13 18
17 19
9 17
17 21
12 17
6 18
21 22
16 21
19 19
14 19
19 19
19 21
19 21
17 19
19 21
5 19
15 17
16 20
16 20
17 20
15 22
16 19
18 20
9 20
13 19
12 18
15 19
18 20
