A0.5 A0.5 A0.5 C0.5 E0.5 A0.5 C0.5 B0.5 E0.5 A-0.5 D0.5 C0.5 B0.5 A0.5 C0.5 E0.5 A0.5 C0.5 E0.5 D0.5 G0.5 B0.5 F0.5 E0.5 D0.5 C0.5 E0.5 G0.5 C0.5 E0.5 G0.5 F0.5 A0.5 D0.5 C0.5 B0.5 A0.5 A-0.5 F0.5 E0.5 D0.5 C#0.5 G0.5 F#0.5 E0.5 D0.5 C0.5 B0.5 D0.5 A-0.5 D0.5 D0.5 C0.5 B0.5 C0.5 B0.5 E0.5 A-0.5 F0.5 E0.5 D0.5 C0.5 E0.5 A0.5 C0.5 E0.5 A0.5 F0.5 A0.5 D0.5 F0.5 A0.5 C0.5 B0.5 D0.5 G0.5 B0.5 D0.5 F0.5 E0.5 C0.5 G0.5 D0.5 C0.5 B-0.5 A0.5 F0.5 A0.5 C0.5 F0.5 A0.5 B0.5 D0.5 F0.5 D0.5 G0.5 B0.5 C0.5 G0.5 E0.5 C0.5 G0.5 B0.5 C0.5 C0.5 B0.5 A0.5 A-0.5 A0.5 B0.5 D0.5 A-0.5 F0.5 E0.5 D0.5 C0.5 E0.5 A0.5 F#0.5 G0.5 E0.5 E-0.5 F#0.5 A0.5 C0.5 B0.5 A0.5 G0.5 B0.5 E0.5 G0.5 B0.5 D0.5 C#0.5 E0.5 G0.5 B0.5 A0.5 G0.5 F#0.5 A0.5 E-0.5 F#0.5 A0.5 E0.5 E-0.5 F#0.5 B0.5 E-0.5 F#0.5 A0.5 G0.5 B0.5 E0.5 F0.5 E0.5 D0.5 C0.5 E0.5 A0.5 B-0.5 A0.5 G0.5 F0.5 A0.5 C0.5 F0.5 E-0.5 E0.5 A0.5 E-0.5 F#0.5 E-0.5 A0.5 C0.5 B0.5 G0.5 F#0.5 E0.5 B0.5 E-0.5 E0.5 A-0.5 B0.5 D0.5 C0.5 A0.5 B0.5 A-0.5 E2.0 A0.5 A0.5 A0.5 C0.5 E0.5 A0.5 C0.5 B0.5 E0.5 A-0.5 D0.5 C0.5 B0.5 A0.5 C0.5 E0.5 A0.5 C0.5 E0.5 D0.5 G0.5 B0.5 F0.5 E0.5 D0.5 C0.5 E0.5 G0.5 C0.5 E0.5 G0.5 F0.5 A0.5 D0.5 C0.5 B0.5 A0.5 A-0.5 F0.5 E0.5 D0.5 C#0.5 G0.5 F#0.5 E0.5 D0.5 C0.5 B0.5 D0.5 A-0.5 D0.5 D0.5 C0.5 B0.5 C0.5 B0.5 E0.5 A-0.5 F0.5 E0.5 D0.5 C0.5 E0.5 A0.5 C0.5 E0.5 A0.5 F0.5 A0.5 D0.5 F0.5 A0.5 C0.5 B0.5 D0.5 G0.5 B0.5 D0.5 F0.5 E0.5 C0.5 G0.5 D0.5 C0.5 B-0.5 A0.5 F0.5 A0.5 C0.5 F0.5 A0.5 B0.5 D0.5 F0.5 D0.5 G0.5 B0.5 C0.5 G0.5 E0.5 C0.5 G0.5 B0.5 C0.5 C0.5 B0.5 A0.5 A-0.5 A0.5 B0.5 D0.5 A-0.5 F0.5 E0.5 D0.5 C0.5 E0.5 A0.5 F#0.5 G0.5 E0.5 E-0.5 F#0.5 A0.5 C0.5 B0.5 A0.5 G0.5 B0.5 E0.5 G0.5 B0.5 D0.5 C#0.5 E0.5 G0.5 B0.5 A0.5 G0.5 F#0.5 A0.5 E-0.5 F#0.5 A0.5 E0.5 E-0.5 F#0.5 B0.5 E-0.5 F#0.5 A0.5 G0.5 B0.5 E0.5 F0.5 E0.5 D0.5 C0.5 E0.5 A0.5 B-0.5 A0.5 G0.5 F0.5 A0.5 C0.5 F0.5 E-0.5 E0.5 A0.5 E-0.5 F#0.5 E-0.5 A0.5 C0.5 B0.5 G0.5 F#0.5 E0.5 B0.5 E-0.5 E0.5 A-0.5 B0.5 D0.5 C0.5 A0.5 B0.5 A-0.5 E2.0 B0.5 B0.5 E0.5 B0.5 A-0.5 E0.5 C0.5 F#0.5 D0.5 A-0.5 E0.5 B0.5 D0.5 C0.5 E0.5 A0.5 E0.5 A0.5 C0.5 D0.5 G0.5 C#0.5 G0.5 E0.5 G0.5 F0.5 D0.5 F0.5 A0.5 D0.5 F0.5 G0.5 C0.5 F#0.5 C0.5 A0.5 C0.5 B-0.5 D0.5 G0.5 E0.5 F0.5 D0.5 C#0.5 E0.5 G0.5 B-0.5 A0.5 G0.5 F0.5 A0.5 G0.5 E0.5 D0.5 F0.5 E0.5 A0.5 C#0.5 G0.5 F0.5 E0.5 D0.5 F0.5 E0.5 C0.5 B-0.5 D0.5 C0.5 F#0.5 A0.5 E-0.5 D0.5 C0.5 B-0.5 G0.5 B-0.5 D0.5 E-0.5 G0.5 C#0.5 E0.5 G0.5 E0.5 C#0.5 A0.5 A0.5 F0.5 D0.5 F0.5 A0.5 C#0.5 D0.5 E0.5 F0.5 A0.5 C#0.5 D0.5 F#0.5 A0.5 C0.5 A0.5 D0.5 F#0.5 G0.5 D0.5 B0.5 D0.5 B0.5 G0.5 E0.5 C0.5 A0.5 F#0.5 D0.5 C0.5 B0.5 D0.5 B0.5 G0.5 D0.5 F0.5 E0.5 G0.5 F0.5 D0.5 C0.5 E0.5 D0.5 G0.5 B0.5 A0.5 G0.5 F0.5 E0.5 C0.5 B0.5 D0.5 C0.5 A0.5 B0.5 D0.5 F0.5 A0.5 G0.5 F0.5 E0.5 B-0.5 A0.5 F0.5 G0.5 G0.5 F0.5 C0.5 A0.5 C0.5 B0.5 D0.5 G0.5 F0.5 E0.5 C0.5 G0.5 B0.5 C0.5 C0.5 B0.5 A0.5 A-0.5 A0.5 A-0.5 B0.5 E0.5 A-0.5 B0.5 D0.5 C0.5 E0.5 C0.5 A0.5 F#0.5 A0.5 E-0.5 F#0.5 B0.5 E-0.5 F#0.5 A0.5 A-0.5 B0.5 A-0.5 E0.5 B0.5 D0.5 C#0.5 B-0.5 A0.5 G0.5 F#0.5 C0.5 B0.5 A0.5 G0.5 F0.5 E0.5 B-0.5 A0.5 G0.5 F0.5 E0.5 D0.5 A0.5 A-0.5 F0.5 E0.5 D0.5 C#0.5 G0.5 F#0.5 A0.5 C0.5 E0.5 D0.5 C0.5 B0.5 A0.5 A-0.5 F0.5 E0.5 D0.5 C0.5 E0.5 C0.5 A0.5 E0.5 A-0.5 A0.5 G0.5 F0.5 E0.5 D0.5 C#0.5 D0.5 C#0.5 D0.5 F#0.5 D0.5 C0.5 B0.5 A0.5 G0.5 F#0.5 E0.5 E-0.5 E0.5 E-0.5 E0.5 A-0.5 E0.5 D0.5 C#0.5 E0.5 G0.5 B-0.5 A0.5 G0.5 F0.5 E0.5 E-0.5 E0.5 B0.5 C0.5 D0.5 A-0.5 A0.5 B0.5 E0.5 A-0.5 A0.5 C0.5 E0.5 A0.5 C0.5 E0.5 A2.0 B0.5 B0.5 E0.5 B0.5 A-0.5 E0.5 C0.5 F#0.5 D0.5 A-0.5 E0.5 B0.5 D0.5 C0.5 E0.5 A0.5 E0.5 A0.5 C0.5 D0.5 G0.5 C#0.5 G0.5 E0.5 G0.5 F0.5 D0.5 F0.5 A0.5 D0.5 F0.5 G0.5 C0.5 F#0.5 C0.5 A0.5 C0.5 B-0.5 D0.5 G0.5 E0.5 F0.5 D0.5 C#0.5 E0.5 G0.5 B-0.5 A0.5 G0.5 F0.5 A0.5 G0.5 E0.5 D0.5 F0.5 E0.5 A0.5 C#0.5 G0.5 F0.5 E0.5 D0.5 F0.5 E0.5 C0.5 B-0.5 D0.5 C0.5 F#0.5 A0.5 E-0.5 D0.5 C0.5 B-0.5 G0.5 B-0.5 D0.5 E-0.5 G0.5 C#0.5 E0.5 G0.5 E0.5 C#0.5 A0.5 A0.5 F0.5 D0.5 F0.5 A0.5 C#0.5 D0.5 E0.5 F0.5 A0.5 C#0.5 D0.5 F#0.5 A0.5 C0.5 A0.5 D0.5 F#0.5 G0.5 D0.5 B0.5 D0.5 B0.5 G0.5 E0.5 C0.5 A0.5 F#0.5 D0.5 C0.5 B0.5 D0.5 B0.5 G0.5 D0.5 F0.5 E0.5 G0.5 F0.5 D0.5 C0.5 E0.5 D0.5 G0.5 B0.5 A0.5 G0.5 F0.5 E0.5 C0.5 B0.5 D0.5 C0.5 A0.5 B0.5 D0.5 F0.5 A0.5 G0.5 F0.5 E0.5 B-0.5 A0.5 F0.5 G0.5 G0.5 F0.5 C0.5 A0.5 C0.5 B0.5 D0.5 G0.5 F0.5 E0.5 C0.5 G0.5 B0.5 C0.5 C0.5 B0.5 A0.5 A-0.5 A0.5 A-0.5 B0.5 E0.5 A-0.5 B0.5 D0.5 C0.5 E0.5 C0.5 A0.5 F#0.5 A0.5 E-0.5 F#0.5 B0.5 E-0.5 F#0.5 A0.5 A-0.5 B0.5 A-0.5 E0.5 B0.5 D0.5 C#0.5 B-0.5 A0.5 G0.5 F#0.5 C0.5 B0.5 A0.5 G0.5 F0.5 E0.5 B-0.5 A0.5 G0.5 F0.5 E0.5 D0.5 A0.5 A-0.5 F0.5 E0.5 D0.5 C#0.5 G0.5 F#0.5 A0.5 C0.5 E0.5 D0.5 C0.5 B0.5 A0.5 A-0.5 F0.5 E0.5 D0.5 C0.5 E0.5 C0.5 A0.5 E0.5 A-0.5 A0.5 G0.5 F0.5 E0.5 D0.5 C#0.5 D0.5 C#0.5 D0.5 F#0.5 D0.5 C0.5 B0.5 A0.5 G0.5 F#0.5 E0.5 E-0.5 E0.5 E-0.5 E0.5 A-0.5 E0.5 D0.5 C#0.5 E0.5 G0.5 B-0.5 A0.5 G0.5 F0.5 E0.5 E-0.5 E0.5 B0.5 C0.5 D0.5 A-0.5 A0.5 B0.5 E0.5 A-0.5 A0.5 C0.5 E0.5 A0.5 C0.5 E0.5 A2.0
E0.5 E0.5
A0.5 A0.5
A0.5 A0.5 A0.5 C0.5 E0.5 A0.5 C0.5 B0.5 E0.5 A-0.5 D0.5 C0.5 B0.5 A0.5 C0.5 E0.5 A0.5 C0.5 E0.5 D0.5 G0.5 B0.5 F0.5 E0.5 D0.5 C0.5 E0.5 G0.5 C0.5 E0.5 G0.5 F0.5 A0.5 D0.5 C0.5 B0.5 A0.5 A-0.5 F0.5 E0.5 D0.5 C#0.5 G0.5 F#0.5 E0.5 D0.5 C0.5 B0.5 D0.5 A-0.5 D0.5 D0.5 C0.5 B0.5 C0.5 B0.5 E0.5 A-0.5 F0.5 E0.5 D0.5 C0.5 E0.5 A0.5 C0.5 E0.5 A0.5 F0.5 A0.5 D0.5 F0.5 A0.5 C0.5 B0.5 D0.5 G0.5 B0.5 D0.5 F0.5 E0.5 C0.5 G0.5 D0.5 C0.5 B-0.5 A0.5 F0.5 A0.5 C0.5 F0.5 A0.5 B0.5 D0.5 F0.5 D0.5 G0.5 B0.5 C0.5 G0.5 E0.5 C0.5 G0.5 B0.5 C0.5 C0.5 B0.5 A0.5 A-0.5 A0.5 B0.5 D0.5 A-0.5 F0.5 E0.5 D0.5 C0.5 E0.5 A0.5 F#0.5 G0.5 E0.5 E-0.5 F#0.5 A0.5 C0.5 B0.5 A0.5 G0.5 B0.5 E0.5 G0.5 B0.5 D0.5 C#0.5 E0.5 G0.5 B0.5 A0.5 G0.5 F#0.5 A0.5 E-0.5 F#0.5 A0.5 E0.5 E-0.5 F#0.5 B0.5 E-0.5 F#0.5 A0.5 G0.5 B0.5 E0.5 F0.5 E0.5 D0.5 C0.5 E0.5 A0.5 B-0.5 A0.5 G0.5 F0.5 A0.5 C0.5 F0.5 E-0.5 E0.5 A0.5 E-0.5 F#0.5 E-0.5 A0.5 C0.5 B0.5 G0.5 F#0.5 E0.5 B0.5 E-0.5 E0.5 A-0.5 B0.5 D0.5 C0.5 A0.5 B0.5 A-0.5 E2.0 A0.5 A0.5 A0.5 C0.5 E0.5 A0.5 C0.5 B0.5 E0.5 A-0.5 D0.5 C0.5 B0.5 A0.5 C0.5 E0.5 A0.5 C0.5 E0.5 D0.5 G0.5 B0.5 F0.5 E0.5 D0.5 C0.5 E0.5 G0.5 C0.5 E0.5 G0.5 F0.5 A0.5 D0.5 C0.5 B0.5 A0.5 A-0.5 F0.5 E0.5 D0.5 C#0.5 G0.5 F#0.5 E0.5 D0.5 C0.5 B0.5 D0.5 A-0.5 D0.5 D0.5 C0.5 B0.5 C0.5 B0.5 E0.5 A-0.5 F0.5 E0.5 D0.5 C0.5 E0.5 A0.5 C0.5 E0.5 A0.5 F0.5 A0.5 D0.5 F0.5 A0.5 C0.5 B0.5 D0.5 G0.5 B0.5 D0.5 F0.5 E0.5 C0.5 G0.5 D0.5 C0.5 B-0.5 A0.5 F0.5 A0.5 C0.5 F0.5 A0.5 B0.5 D0.5 F0.5 D0.5 G0.5 B0.5 C0.5 G0.5 E0.5 C0.5 G0.5 B0.5 C0.5 C0.5 B0.5 A0.5 A-0.5 A0.5 B0.5 D0.5 A-0.5 F0.5 E0.5 D0.5 C0.5 E0.5 A0.5 F#0.5 G0.5 E0.5 E-0.5 F#0.5 A0.5 C0.5 B0.5 A0.5 G0.5 B0.5 E0.5 G0.5 B0.5 D0.5 C#0.5 E0.5 G0.5 B0.5 A0.5 G0.5 F#0.5 A0.5 E-0.5 F#0.5 A0.5 E0.5 E-0.5 F#0.5 B0.5 E-0.5 F#0.5 A0.5 G0.5 B0.5 E0.5 F0.5 E0.5 D0.5 C0.5 E0.5 A0.5 B-0.5 A0.5 G0.5 F0.5 A0.5 C0.5 F0.5 E-0.5 E0.5 A0.5 E-0.5 F#0.5 E-0.5 A0.5 C0.5 B0.5 G0.5 F#0.5 E0.5 B0.5 E-0.5 E0.5 A-0.5 B0.5 D0.5 C0.5 A0.5 B0.5 A-0.5 E2.0 B0.5 B0.5 E0.5 B0.5 A-0.5 E0.5 C0.5 F#0.5 D0.5 A-0.5 E0.5 B0.5 D0.5 C0.5 E0.5 A0.5 E0.5 A0.5 C0.5 D0.5 G0.5 C#0.5 G0.5 E0.5 G0.5 F0.5 D0.5 F0.5 A0.5 D0.5 F0.5 G0.5 C0.5 F#0.5 C0.5 A0.5 C0.5 B-0.5 D0.5 G0.5 E0.5 F0.5 D0.5 C#0.5 E0.5 G0.5 B-0.5 A0.5 G0.5 F0.5 A0.5 G0.5 E0.5 D0.5 F0.5 E0.5 A0.5 C#0.5 G0.5 F0.5 E0.5 D0.5 F0.5 E0.5 C0.5 B-0.5 D0.5 C0.5 F#0.5 A0.5 E-0.5 D0.5 C0.5 B-0.5 G0.5 B-0.5 D0.5 E-0.5 G0.5 C#0.5 E0.5 G0.5 E0.5 C#0.5 A0.5 A0.5 F0.5 D0.5 F0.5 A0.5 C#0.5 D0.5 E0.5 F0.5 A0.5 C#0.5 D0.5 F#0.5 A0.5 C0.5 A0.5 D0.5 F#0.5 G0.5 D0.5 B0.5 D0.5 B0.5 G0.5 E0.5 C0.5 A0.5 F#0.5 D0.5 C0.5 B0.5 D0.5 B0.5 G0.5 D0.5 F0.5 E0.5 G0.5 F0.5 D0.5 C0.5 E0.5 D0.5 G0.5 B0.5 A0.5 G0.5 F0.5 E0.5 C0.5 B0.5 D0.5 C0.5 A0.5 B0.5 D0.5 F0.5 A0.5 G0.5 F0.5 E0.5 B-0.5 A0.5 F0.5 G0.5 G0.5 F0.5 C0.5 A0.5 C0.5 B0.5 D0.5 G0.5 F0.5 E0.5 C0.5 G0.5 B0.5 C0.5 C0.5 B0.5 A0.5 A-0.5 A0.5 A-0.5 B0.5 E0.5 A-0.5 B0.5 D0.5 C0.5 E0.5 C0.5 A0.5 F#0.5 A0.5 E-0.5 F#0.5 B0.5 E-0.5 F#0.5 A0.5 A-0.5 B0.5 A-0.5 E0.5 B0.5 D0.5 C#0.5 B-0.5 A0.5 G0.5 F#0.5 C0.5 B0.5 A0.5 G0.5 F0.5 E0.5 B-0.5 A0.5 G0.5 F0.5 E0.5 D0.5 A0.5 A-0.5 F0.5 E0.5 D0.5 C#0.5 G0.5 F#0.5 A0.5 C0.5 E0.5 D0.5 C0.5 B0.5 A0.5 A-0.5 F0.5 E0.5 D0.5 C0.5 E0.5 C0.5 A0.5 E0.5 A-0.5 A0.5 G0.5 F0.5 E0.5 D0.5 C#0.5 D0.5 C#0.5 D0.5 F#0.5 D0.5 C0.5 B0.5 A0.5 G0.5 F#0.5 E0.5 E-0.5 E0.5 E-0.5 E0.5 A-0.5 E0.5 D0.5 C#0.5 E0.5 G0.5 B-0.5 A0.5 G0.5 F0.5 E0.5 E-0.5 E0.5 B0.5 C0.5 D0.5 A-0.5 A0.5 B0.5 E0.5 A-0.5 A0.5 C0.5 E0.5 A0.5 C0.5 E0.5 A2.0 B0.5 B0.5 E0.5 B0.5 A-0.5 E0.5 C0.5 F#0.5 D0.5 A-0.5 E0.5 B0.5 D0.5 C0.5 E0.5 A0.5 E0.5 A0.5 C0.5 D0.5 G0.5 C#0.5 G0.5 E0.5 G0.5 F0.5 D0.5 F0.5 A0.5 D0.5 F0.5 G0.5 C0.5 F#0.5 C0.5 A0.5 C0.5 B-0.5 D0.5 G0.5 E0.5 F0.5 D0.5 C#0.5 E0.5 G0.5 B-0.5 A0.5 G0.5 F0.5 A0.5 G0.5 E0.5 D0.5 F0.5 E0.5 A0.5 C#0.5 G0.5 F0.5 E0.5 D0.5 F0.5 E0.5 C0.5 B-0.5 D0.5 C0.5 F#0.5 A0.5 E-0.5 D0.5 C0.5 B-0.5 G0.5 B-0.5 D0.5 E-0.5 G0.5 C#0.5 E0.5 G0.5 E0.5 C#0.5 A0.5 A0.5 F0.5 D0.5 F0.5 A0.5 C#0.5 D0.5 E0.5 F0.5 A0.5 C#0.5 D0.5 F#0.5 A0.5 C0.5 A0.5 D0.5 F#0.5 G0.5 D0.5 B0.5 D0.5 B0.5 G0.5 E0.5 C0.5 A0.5 F#0.5 D0.5 C0.5 B0.5 D0.5 B0.5 G0.5 D0.5 F0.5 E0.5 G0.5 F0.5 D0.5 C0.5 E0.5 D0.5 G0.5 B0.5 A0.5 G0.5 F0.5 E0.5 C0.5 B0.5 D0.5 C0.5 A0.5 B0.5 D0.5 F0.5 A0.5 G0.5 F0.5 E0.5 B-0.5 A0.5 F0.5 G0.5 G0.5 F0.5 C0.5 A0.5 C0.5 B0.5 D0.5 G0.5 F0.5 E0.5 C0.5 G0.5 B0.5 C0.5 C0.5 B0.5 A0.5 A-0.5 A0.5 A-0.5 B0.5 E0.5 A-0.5 B0.5 D0.5 C0.5 E0.5 C0.5 A0.5 F#0.5 A0.5 E-0.5 F#0.5 B0.5 E-0.5 F#0.5 A0.5 A-0.5 B0.5 A-0.5 E0.5 B0.5 D0.5 C#0.5 B-0.5 A0.5 G0.5 F#0.5 C0.5 B0.5 A0.5 G0.5 F0.5 E0.5 B-0.5 A0.5 G0.5 F0.5 E0.5 D0.5 A0.5 A-0.5 F0.5 E0.5 D0.5 C#0.5 G0.5 F#0.5 A0.5 C0.5 E0.5 D0.5 C0.5 B0.5 A0.5 A-0.5 F0.5 E0.5 D0.5 C0.5 E0.5 C0.5 A0.5 E0.5 A-0.5 A0.5 G0.5 F0.5 E0.5 D0.5 C#0.5 D0.5 C#0.5 D0.5 F#0.5 D0.5 C0.5 B0.5 A0.5 G0.5 F#0.5 E0.5 E-0.5 E0.5 E-0.5 E0.5 A-0.5 E0.5 D0.5 C#0.5 E0.5 G0.5 B-0.5 A0.5 G0.5 F0.5 E0.5 E-0.5 E0.5 B0.5 C0.5 D0.5 A-0.5 A0.5 B0.5 E0.5 A-0.5 A0.5 C0.5 E0.5 A0.5 C0.5 E0.5 A2.0
E0.5 E0.5
A0.5 A0.5
